n;valid;K_ATP:PHOXa;K_ATP:PHOXa:glyc1;K_ATP:glyc1:glyc2;K_ATP:glyc1:noLBPa;K_ATP:PHOXa:noLBPa;K_ATP:PHOXa:nonLBPa;K_ATP:glyc1:glyc2:nonLBPa;K_ATP:PHOXa:noLBPa:nonLBPa;K_ATP:glyc1:noLBPa:nonLBPa;K_ATP:PHOXa:glyc1:noLBPa;K_ATP:PHOXa:glyc1:nonLBPa;K_ATP:PHOXa:glyc1:glyc2;K_ATP:glyc1:glyc2:noLBPa;K_ATP:glyc1:glyc2:noLBPa:nonLBPa;K_ATP:PHOXa:glyc1:glyc2:noLBPa;K_ATP:PHOXa:glyc1:noLBPa:nonLBPa;K_ATP:PHOXa:glyc1:glyc2:nonLBPa;K_ATP:PHOXa:glyc1:glyc2:noLBPa:nonLBPa;K_O2:exO2o;K_O2:PHOXo:exO2o;K_GLYC:COF:glc1:glc2;K_GLYC:COF:glc1:glc2:noGR;K_GLYC;K_GLYC:COF;K_GLYC:noGR;K_GLYC:glc1;K_GLYC:COF:noGR;K_GLYC:COF:glc1;K_GLYC:glc1:noGR;K_GLYC:COF:glc1:noGR;K_nLBP:AAS;K_nLBP:PPP;K_nLBP:AAS:PPP;K_LBP:LS:noBOX;K_NCD:aa1:aa2;K_NCD:KREBSd:aa1:aa2;K_NCD;K_NCD:KREBSd;K_NCD:aa1;K_NCD:KREBSd:aa1;K_FERM:EP;K_NADH:KREBSn:PHOXn;K_NADH:FERMn:GLYCf:PHOXn;K_NADH:KREBSn:PHOXn:noAAS;K_NADH:FERMn:GLYCf:KREBSn;K_NADH:FERMn:KREBSn:PHOXn;K_NADH:GLYCf:KREBSn:PHOXn;K_NADH:FERMn:GLYCf:KREBSn:noAAS;K_NADH:FERMn:GLYCf:KREBSn:PHOXn;K_NADH:FERMn:GLYCf:PHOXn:noAAS;K_NADH:GLYCf:KREBSn:PHOXn:noAAS;K_NADH:FERMn:KREBSn:PHOXn:noAAS;K_NADH:FERMn:GLYCf:KREBSn:PHOXn:noAAS;K_NADH:GLNmet;K_NADH:GLNmet:GLYCf;K_NADH:GLNmet:noAAS;K_NADH:GLNmet:KREBSn;K_NADH:GLNmet:PHOXn;K_NADH:FERMn:GLNmet;K_NADH:GLNmet:GLYCf:noAAS;K_NADH:GLNmet:GLYCf:KREBSn;K_NADH:GLNmet:GLYCf:PHOXn;K_NADH:FERMn:GLNmet:GLYCf;K_NADH:GLNmet:KREBSn:noAAS;K_NADH:GLNmet:PHOXn:noAAS;K_NADH:FERMn:GLNmet:noAAS;K_NADH:GLNmet:KREBSn:PHOXn;K_NADH:FERMn:GLNmet:KREBSn;K_NADH:FERMn:GLNmet:PHOXn;K_NADH:GLNmet:GLYCf:KREBSn:noAAS;K_NADH:GLNmet:GLYCf:PHOXn:noAAS;K_NADH:FERMn:GLNmet:GLYCf:noAAS;K_NADH:GLNmet:GLYCf:KREBSn:PHOXn;K_NADH:FERMn:GLNmet:GLYCf:KREBSn;K_NADH:FERMn:GLNmet:GLYCf:PHOXn;K_NADH:GLNmet:KREBSn:PHOXn:noAAS;K_NADH:FERMn:GLNmet:KREBSn:noAAS;K_NADH:FERMn:GLNmet:PHOXn:noAAS;K_NADH:FERMn:GLNmet:KREBSn:PHOXn;K_NADH:GLNmet:GLYCf:KREBSn:PHOXn:noAAS;K_NADH:FERMn:GLNmet:GLYCf:KREBSn:noAAS;K_NADH:FERMn:GLNmet:GLYCf:PHOXn:noAAS;K_NADH:FERMn:GLNmet:GLYCf:KREBSn:PHOXn;K_NADH:FERMn:GLNmet:KREBSn:PHOXn:noAAS;K_NADH:FERMn:GLNmet:GLYCf:KREBSn:PHOXn:noAAS;K_KREBS:AnO;K_KREBS:BOX;K_KREBS:AnO:SAT;K_PHOX:PC;
;;1..1;1..1;1..1;0..2;1..2;1..1;1..1;2..2;2..2;1..2;1..1;1..1;1..2;2..2;1..2;2..2;2..2;2..2;0..1;0..1;1..1;2..2;0..2;0..2;0..2;0..2;0..2;0..2;0..2;0..2;1..1;1..1;1..1;1..1;2..2;2..2;0..2;0..2;0..2;0..2;1..1;2..2;0..2;2..2;0..2;2..2;2..2;2..2;2..2;2..2;2..2;2..2;2..2;0..2;0..2;0..2;0..2;0..2;0..2;0..2;0..2;0..2;0..2;0..2;0..2;0..2;0..2;0..2;0..2;0..2;0..2;0..2;0..2;0..2;0..2;0..2;0..2;0..2;0..2;0..2;0..2;0..2;0..2;0..2;0..2;1..1;1..1;2..2;1..1;
0;OK;1;1;1;0;1;1;1;2;2;1;1;1;1;2;1;2;2;2;1;1;1;2;0;0;0;0;0;0;0;1;1;1;1;1;2;2;0;0;1;1;1;2;0;2;0;2;2;2;2;2;2;2;2;1;1;1;1;1;1;1;1;1;1;1;1;1;2;1;1;1;1;1;2;0;0;2;1;1;2;2;2;2;2;2;2;1;1;2;1;
1;OK;1;1;1;0;1;1;1;2;2;1;1;1;1;2;1;2;2;2;1;1;1;2;0;0;0;0;0;0;0;1;1;1;1;1;2;2;0;0;1;1;1;2;0;2;0;2;2;2;2;2;2;2;2;1;1;1;1;1;1;1;1;1;1;1;1;1;2;1;1;1;1;1;2;0;2;2;1;1;2;2;2;2;2;2;2;1;1;2;1;
2;OK;1;1;1;0;1;1;1;2;2;1;1;1;1;2;1;2;2;2;1;1;1;2;0;0;0;0;0;0;0;1;1;1;1;1;2;2;0;0;1;1;1;2;0;2;0;2;2;2;2;2;2;2;2;1;1;1;1;1;1;1;1;1;1;1;1;1;2;1;1;1;1;1;2;2;0;2;1;1;2;2;2;2;2;2;2;1;1;2;1;
3;OK;1;1;1;0;1;1;1;2;2;1;1;1;1;2;1;2;2;2;1;1;1;2;0;0;0;0;0;0;0;1;1;1;1;1;2;2;0;0;1;1;1;2;0;2;0;2;2;2;2;2;2;2;2;1;1;1;1;1;1;1;1;1;1;1;1;1;2;1;1;1;1;1;2;2;2;2;1;1;2;2;2;2;2;2;2;1;1;2;1;
4;OK;1;1;1;0;1;1;1;2;2;1;1;1;1;2;1;2;2;2;1;1;1;2;0;0;0;0;0;0;0;1;1;1;1;1;2;2;0;0;1;1;1;2;0;2;2;2;2;2;2;2;2;2;2;1;1;1;1;1;1;1;1;1;1;1;1;1;2;1;1;1;1;1;2;0;0;2;1;1;2;2;2;2;2;2;2;1;1;2;1;
5;OK;1;1;1;0;1;1;1;2;2;1;1;1;1;2;1;2;2;2;1;1;1;2;0;0;0;0;0;0;0;1;1;1;1;1;2;2;0;0;1;1;1;2;0;2;2;2;2;2;2;2;2;2;2;1;1;1;1;1;1;1;1;1;1;1;1;1;2;1;1;1;1;1;2;0;2;2;1;1;2;2;2;2;2;2;2;1;1;2;1;
6;OK;1;1;1;0;1;1;1;2;2;1;1;1;1;2;1;2;2;2;1;1;1;2;0;0;0;0;0;0;0;1;1;1;1;1;2;2;0;0;1;1;1;2;0;2;2;2;2;2;2;2;2;2;2;1;1;1;1;1;1;1;1;1;1;1;1;1;2;1;1;1;1;1;2;2;0;2;1;1;2;2;2;2;2;2;2;1;1;2;1;
7;OK;1;1;1;0;1;1;1;2;2;1;1;1;1;2;1;2;2;2;1;1;1;2;0;0;0;0;0;0;0;1;1;1;1;1;2;2;0;0;1;1;1;2;0;2;2;2;2;2;2;2;2;2;2;1;1;1;1;1;1;1;1;1;1;1;1;1;2;1;1;1;1;1;2;2;2;2;1;1;2;2;2;2;2;2;2;1;1;2;1;
8;OK;1;1;1;0;1;1;1;2;2;1;1;1;1;2;1;2;2;2;1;1;1;2;0;0;0;0;0;0;0;1;1;1;1;1;2;2;0;0;1;1;1;2;2;2;0;2;2;2;2;2;2;2;2;1;1;1;1;1;1;1;1;1;1;1;1;1;2;1;1;1;1;1;2;0;0;2;1;1;2;2;2;2;2;2;2;1;1;2;1;
9;OK;1;1;1;0;1;1;1;2;2;1;1;1;1;2;1;2;2;2;1;1;1;2;0;0;0;0;0;0;0;1;1;1;1;1;2;2;0;0;1;1;1;2;2;2;0;2;2;2;2;2;2;2;2;1;1;1;1;1;1;1;1;1;1;1;1;1;2;1;1;1;1;1;2;0;2;2;1;1;2;2;2;2;2;2;2;1;1;2;1;
10;OK;1;1;1;0;1;1;1;2;2;1;1;1;1;2;1;2;2;2;1;1;1;2;0;0;0;0;0;0;0;1;1;1;1;1;2;2;0;0;1;1;1;2;2;2;0;2;2;2;2;2;2;2;2;1;1;1;1;1;1;1;1;1;1;1;1;1;2;1;1;1;1;1;2;2;0;2;1;1;2;2;2;2;2;2;2;1;1;2;1;
11;OK;1;1;1;0;1;1;1;2;2;1;1;1;1;2;1;2;2;2;1;1;1;2;0;0;0;0;0;0;0;1;1;1;1;1;2;2;0;0;1;1;1;2;2;2;0;2;2;2;2;2;2;2;2;1;1;1;1;1;1;1;1;1;1;1;1;1;2;1;1;1;1;1;2;2;2;2;1;1;2;2;2;2;2;2;2;1;1;2;1;
12;OK;1;1;1;0;1;1;1;2;2;1;1;1;1;2;1;2;2;2;1;1;1;2;0;0;0;0;0;0;0;1;1;1;1;1;2;2;0;0;1;1;1;2;2;2;2;2;2;2;2;2;2;2;2;1;1;1;1;1;1;1;1;1;1;1;1;1;2;1;1;1;1;1;2;0;0;2;1;1;2;2;2;2;2;2;2;1;1;2;1;
13;OK;1;1;1;0;1;1;1;2;2;1;1;1;1;2;1;2;2;2;1;1;1;2;0;0;0;0;0;0;0;1;1;1;1;1;2;2;0;0;1;1;1;2;2;2;2;2;2;2;2;2;2;2;2;1;1;1;1;1;1;1;1;1;1;1;1;1;2;1;1;1;1;1;2;0;2;2;1;1;2;2;2;2;2;2;2;1;1;2;1;
14;OK;1;1;1;0;1;1;1;2;2;1;1;1;1;2;1;2;2;2;1;1;1;2;0;0;0;0;0;0;0;1;1;1;1;1;2;2;0;0;1;1;1;2;2;2;2;2;2;2;2;2;2;2;2;1;1;1;1;1;1;1;1;1;1;1;1;1;2;1;1;1;1;1;2;2;0;2;1;1;2;2;2;2;2;2;2;1;1;2;1;
15;OK;1;1;1;0;1;1;1;2;2;1;1;1;1;2;1;2;2;2;1;1;1;2;0;0;0;0;0;0;0;1;1;1;1;1;2;2;0;0;1;1;1;2;2;2;2;2;2;2;2;2;2;2;2;1;1;1;1;1;1;1;1;1;1;1;1;1;2;1;1;1;1;1;2;2;2;2;1;1;2;2;2;2;2;2;2;1;1;2;1;
16;OK;1;1;1;0;1;1;1;2;2;1;1;1;1;2;2;2;2;2;1;1;1;2;0;0;0;0;0;0;0;1;1;1;1;1;2;2;0;0;1;1;1;2;0;2;0;2;2;2;2;2;2;2;2;1;1;1;1;1;1;1;1;1;1;1;1;1;2;1;1;1;1;1;2;0;0;2;1;1;2;2;2;2;2;2;2;1;1;2;1;
17;OK;1;1;1;0;1;1;1;2;2;1;1;1;1;2;2;2;2;2;1;1;1;2;0;0;0;0;0;0;0;1;1;1;1;1;2;2;0;0;1;1;1;2;0;2;0;2;2;2;2;2;2;2;2;1;1;1;1;1;1;1;1;1;1;1;1;1;2;1;1;1;1;1;2;0;2;2;1;1;2;2;2;2;2;2;2;1;1;2;1;
18;OK;1;1;1;0;1;1;1;2;2;1;1;1;1;2;2;2;2;2;1;1;1;2;0;0;0;0;0;0;0;1;1;1;1;1;2;2;0;0;1;1;1;2;0;2;0;2;2;2;2;2;2;2;2;1;1;1;1;1;1;1;1;1;1;1;1;1;2;1;1;1;1;1;2;2;0;2;1;1;2;2;2;2;2;2;2;1;1;2;1;
19;OK;1;1;1;0;1;1;1;2;2;1;1;1;1;2;2;2;2;2;1;1;1;2;0;0;0;0;0;0;0;1;1;1;1;1;2;2;0;0;1;1;1;2;0;2;0;2;2;2;2;2;2;2;2;1;1;1;1;1;1;1;1;1;1;1;1;1;2;1;1;1;1;1;2;2;2;2;1;1;2;2;2;2;2;2;2;1;1;2;1;
20;OK;1;1;1;0;1;1;1;2;2;1;1;1;1;2;2;2;2;2;1;1;1;2;0;0;0;0;0;0;0;1;1;1;1;1;2;2;0;0;1;1;1;2;0;2;2;2;2;2;2;2;2;2;2;1;1;1;1;1;1;1;1;1;1;1;1;1;2;1;1;1;1;1;2;0;0;2;1;1;2;2;2;2;2;2;2;1;1;2;1;
21;OK;1;1;1;0;1;1;1;2;2;1;1;1;1;2;2;2;2;2;1;1;1;2;0;0;0;0;0;0;0;1;1;1;1;1;2;2;0;0;1;1;1;2;0;2;2;2;2;2;2;2;2;2;2;1;1;1;1;1;1;1;1;1;1;1;1;1;2;1;1;1;1;1;2;0;2;2;1;1;2;2;2;2;2;2;2;1;1;2;1;
22;OK;1;1;1;0;1;1;1;2;2;1;1;1;1;2;2;2;2;2;1;1;1;2;0;0;0;0;0;0;0;1;1;1;1;1;2;2;0;0;1;1;1;2;0;2;2;2;2;2;2;2;2;2;2;1;1;1;1;1;1;1;1;1;1;1;1;1;2;1;1;1;1;1;2;2;0;2;1;1;2;2;2;2;2;2;2;1;1;2;1;
23;OK;1;1;1;0;1;1;1;2;2;1;1;1;1;2;2;2;2;2;1;1;1;2;0;0;0;0;0;0;0;1;1;1;1;1;2;2;0;0;1;1;1;2;0;2;2;2;2;2;2;2;2;2;2;1;1;1;1;1;1;1;1;1;1;1;1;1;2;1;1;1;1;1;2;2;2;2;1;1;2;2;2;2;2;2;2;1;1;2;1;
24;OK;1;1;1;0;1;1;1;2;2;1;1;1;1;2;2;2;2;2;1;1;1;2;0;0;0;0;0;0;0;1;1;1;1;1;2;2;0;0;1;1;1;2;2;2;0;2;2;2;2;2;2;2;2;1;1;1;1;1;1;1;1;1;1;1;1;1;2;1;1;1;1;1;2;0;0;2;1;1;2;2;2;2;2;2;2;1;1;2;1;
25;OK;1;1;1;0;1;1;1;2;2;1;1;1;1;2;2;2;2;2;1;1;1;2;0;0;0;0;0;0;0;1;1;1;1;1;2;2;0;0;1;1;1;2;2;2;0;2;2;2;2;2;2;2;2;1;1;1;1;1;1;1;1;1;1;1;1;1;2;1;1;1;1;1;2;0;2;2;1;1;2;2;2;2;2;2;2;1;1;2;1;
26;OK;1;1;1;0;1;1;1;2;2;1;1;1;1;2;2;2;2;2;1;1;1;2;0;0;0;0;0;0;0;1;1;1;1;1;2;2;0;0;1;1;1;2;2;2;0;2;2;2;2;2;2;2;2;1;1;1;1;1;1;1;1;1;1;1;1;1;2;1;1;1;1;1;2;2;0;2;1;1;2;2;2;2;2;2;2;1;1;2;1;
27;OK;1;1;1;0;1;1;1;2;2;1;1;1;1;2;2;2;2;2;1;1;1;2;0;0;0;0;0;0;0;1;1;1;1;1;2;2;0;0;1;1;1;2;2;2;0;2;2;2;2;2;2;2;2;1;1;1;1;1;1;1;1;1;1;1;1;1;2;1;1;1;1;1;2;2;2;2;1;1;2;2;2;2;2;2;2;1;1;2;1;
28;OK;1;1;1;0;1;1;1;2;2;1;1;1;1;2;2;2;2;2;1;1;1;2;0;0;0;0;0;0;0;1;1;1;1;1;2;2;0;0;1;1;1;2;2;2;2;2;2;2;2;2;2;2;2;1;1;1;1;1;1;1;1;1;1;1;1;1;2;1;1;1;1;1;2;0;0;2;1;1;2;2;2;2;2;2;2;1;1;2;1;
29;OK;1;1;1;0;1;1;1;2;2;1;1;1;1;2;2;2;2;2;1;1;1;2;0;0;0;0;0;0;0;1;1;1;1;1;2;2;0;0;1;1;1;2;2;2;2;2;2;2;2;2;2;2;2;1;1;1;1;1;1;1;1;1;1;1;1;1;2;1;1;1;1;1;2;0;2;2;1;1;2;2;2;2;2;2;2;1;1;2;1;
30;OK;1;1;1;0;1;1;1;2;2;1;1;1;1;2;2;2;2;2;1;1;1;2;0;0;0;0;0;0;0;1;1;1;1;1;2;2;0;0;1;1;1;2;2;2;2;2;2;2;2;2;2;2;2;1;1;1;1;1;1;1;1;1;1;1;1;1;2;1;1;1;1;1;2;2;0;2;1;1;2;2;2;2;2;2;2;1;1;2;1;
31;OK;1;1;1;0;1;1;1;2;2;1;1;1;1;2;2;2;2;2;1;1;1;2;0;0;0;0;0;0;0;1;1;1;1;1;2;2;0;0;1;1;1;2;2;2;2;2;2;2;2;2;2;2;2;1;1;1;1;1;1;1;1;1;1;1;1;1;2;1;1;1;1;1;2;2;2;2;1;1;2;2;2;2;2;2;2;1;1;2;1;
32;OK;1;1;1;0;1;1;1;2;2;1;1;1;2;2;2;2;2;2;1;1;1;2;0;0;0;0;0;0;0;1;1;1;1;1;2;2;0;0;1;1;1;2;0;2;0;2;2;2;2;2;2;2;2;1;1;1;1;1;1;1;1;1;1;1;1;1;2;1;1;1;1;1;2;0;0;2;1;1;2;2;2;2;2;2;2;1;1;2;1;
33;OK;1;1;1;0;1;1;1;2;2;1;1;1;2;2;2;2;2;2;1;1;1;2;0;0;0;0;0;0;0;1;1;1;1;1;2;2;0;0;1;1;1;2;0;2;0;2;2;2;2;2;2;2;2;1;1;1;1;1;1;1;1;1;1;1;1;1;2;1;1;1;1;1;2;0;2;2;1;1;2;2;2;2;2;2;2;1;1;2;1;
34;OK;1;1;1;0;1;1;1;2;2;1;1;1;2;2;2;2;2;2;1;1;1;2;0;0;0;0;0;0;0;1;1;1;1;1;2;2;0;0;1;1;1;2;0;2;0;2;2;2;2;2;2;2;2;1;1;1;1;1;1;1;1;1;1;1;1;1;2;1;1;1;1;1;2;2;0;2;1;1;2;2;2;2;2;2;2;1;1;2;1;
35;OK;1;1;1;0;1;1;1;2;2;1;1;1;2;2;2;2;2;2;1;1;1;2;0;0;0;0;0;0;0;1;1;1;1;1;2;2;0;0;1;1;1;2;0;2;0;2;2;2;2;2;2;2;2;1;1;1;1;1;1;1;1;1;1;1;1;1;2;1;1;1;1;1;2;2;2;2;1;1;2;2;2;2;2;2;2;1;1;2;1;
36;OK;1;1;1;0;1;1;1;2;2;1;1;1;2;2;2;2;2;2;1;1;1;2;0;0;0;0;0;0;0;1;1;1;1;1;2;2;0;0;1;1;1;2;0;2;2;2;2;2;2;2;2;2;2;1;1;1;1;1;1;1;1;1;1;1;1;1;2;1;1;1;1;1;2;0;0;2;1;1;2;2;2;2;2;2;2;1;1;2;1;
37;OK;1;1;1;0;1;1;1;2;2;1;1;1;2;2;2;2;2;2;1;1;1;2;0;0;0;0;0;0;0;1;1;1;1;1;2;2;0;0;1;1;1;2;0;2;2;2;2;2;2;2;2;2;2;1;1;1;1;1;1;1;1;1;1;1;1;1;2;1;1;1;1;1;2;0;2;2;1;1;2;2;2;2;2;2;2;1;1;2;1;
38;OK;1;1;1;0;1;1;1;2;2;1;1;1;2;2;2;2;2;2;1;1;1;2;0;0;0;0;0;0;0;1;1;1;1;1;2;2;0;0;1;1;1;2;0;2;2;2;2;2;2;2;2;2;2;1;1;1;1;1;1;1;1;1;1;1;1;1;2;1;1;1;1;1;2;2;0;2;1;1;2;2;2;2;2;2;2;1;1;2;1;
39;OK;1;1;1;0;1;1;1;2;2;1;1;1;2;2;2;2;2;2;1;1;1;2;0;0;0;0;0;0;0;1;1;1;1;1;2;2;0;0;1;1;1;2;0;2;2;2;2;2;2;2;2;2;2;1;1;1;1;1;1;1;1;1;1;1;1;1;2;1;1;1;1;1;2;2;2;2;1;1;2;2;2;2;2;2;2;1;1;2;1;
40;OK;1;1;1;0;1;1;1;2;2;1;1;1;2;2;2;2;2;2;1;1;1;2;0;0;0;0;0;0;0;1;1;1;1;1;2;2;0;0;1;1;1;2;2;2;0;2;2;2;2;2;2;2;2;1;1;1;1;1;1;1;1;1;1;1;1;1;2;1;1;1;1;1;2;0;0;2;1;1;2;2;2;2;2;2;2;1;1;2;1;
41;OK;1;1;1;0;1;1;1;2;2;1;1;1;2;2;2;2;2;2;1;1;1;2;0;0;0;0;0;0;0;1;1;1;1;1;2;2;0;0;1;1;1;2;2;2;0;2;2;2;2;2;2;2;2;1;1;1;1;1;1;1;1;1;1;1;1;1;2;1;1;1;1;1;2;0;2;2;1;1;2;2;2;2;2;2;2;1;1;2;1;
42;OK;1;1;1;0;1;1;1;2;2;1;1;1;2;2;2;2;2;2;1;1;1;2;0;0;0;0;0;0;0;1;1;1;1;1;2;2;0;0;1;1;1;2;2;2;0;2;2;2;2;2;2;2;2;1;1;1;1;1;1;1;1;1;1;1;1;1;2;1;1;1;1;1;2;2;0;2;1;1;2;2;2;2;2;2;2;1;1;2;1;
43;OK;1;1;1;0;1;1;1;2;2;1;1;1;2;2;2;2;2;2;1;1;1;2;0;0;0;0;0;0;0;1;1;1;1;1;2;2;0;0;1;1;1;2;2;2;0;2;2;2;2;2;2;2;2;1;1;1;1;1;1;1;1;1;1;1;1;1;2;1;1;1;1;1;2;2;2;2;1;1;2;2;2;2;2;2;2;1;1;2;1;
44;OK;1;1;1;0;1;1;1;2;2;1;1;1;2;2;2;2;2;2;1;1;1;2;0;0;0;0;0;0;0;1;1;1;1;1;2;2;0;0;1;1;1;2;2;2;2;2;2;2;2;2;2;2;2;1;1;1;1;1;1;1;1;1;1;1;1;1;2;1;1;1;1;1;2;0;0;2;1;1;2;2;2;2;2;2;2;1;1;2;1;
45;OK;1;1;1;0;1;1;1;2;2;1;1;1;2;2;2;2;2;2;1;1;1;2;0;0;0;0;0;0;0;1;1;1;1;1;2;2;0;0;1;1;1;2;2;2;2;2;2;2;2;2;2;2;2;1;1;1;1;1;1;1;1;1;1;1;1;1;2;1;1;1;1;1;2;0;2;2;1;1;2;2;2;2;2;2;2;1;1;2;1;
46;OK;1;1;1;0;1;1;1;2;2;1;1;1;2;2;2;2;2;2;1;1;1;2;0;0;0;0;0;0;0;1;1;1;1;1;2;2;0;0;1;1;1;2;2;2;2;2;2;2;2;2;2;2;2;1;1;1;1;1;1;1;1;1;1;1;1;1;2;1;1;1;1;1;2;2;0;2;1;1;2;2;2;2;2;2;2;1;1;2;1;
47;OK;1;1;1;0;1;1;1;2;2;1;1;1;2;2;2;2;2;2;1;1;1;2;0;0;0;0;0;0;0;1;1;1;1;1;2;2;0;0;1;1;1;2;2;2;2;2;2;2;2;2;2;2;2;1;1;1;1;1;1;1;1;1;1;1;1;1;2;1;1;1;1;1;2;2;2;2;1;1;2;2;2;2;2;2;2;1;1;2;1;
48;OK;1;1;1;0;1;1;1;2;2;2;1;1;1;2;2;2;2;2;1;1;1;2;0;0;0;0;0;0;0;1;1;1;1;1;2;2;0;0;1;1;1;2;0;2;0;2;2;2;2;2;2;2;2;1;1;1;1;1;1;1;1;1;1;1;1;1;2;1;1;1;1;1;2;0;0;2;1;1;2;2;2;2;2;2;2;1;1;2;1;
49;OK;1;1;1;0;1;1;1;2;2;2;1;1;1;2;2;2;2;2;1;1;1;2;0;0;0;0;0;0;0;1;1;1;1;1;2;2;0;0;1;1;1;2;0;2;0;2;2;2;2;2;2;2;2;1;1;1;1;1;1;1;1;1;1;1;1;1;2;1;1;1;1;1;2;0;2;2;1;1;2;2;2;2;2;2;2;1;1;2;1;
50;OK;1;1;1;0;1;1;1;2;2;2;1;1;1;2;2;2;2;2;1;1;1;2;0;0;0;0;0;0;0;1;1;1;1;1;2;2;0;0;1;1;1;2;0;2;0;2;2;2;2;2;2;2;2;1;1;1;1;1;1;1;1;1;1;1;1;1;2;1;1;1;1;1;2;2;0;2;1;1;2;2;2;2;2;2;2;1;1;2;1;
51;OK;1;1;1;0;1;1;1;2;2;2;1;1;1;2;2;2;2;2;1;1;1;2;0;0;0;0;0;0;0;1;1;1;1;1;2;2;0;0;1;1;1;2;0;2;0;2;2;2;2;2;2;2;2;1;1;1;1;1;1;1;1;1;1;1;1;1;2;1;1;1;1;1;2;2;2;2;1;1;2;2;2;2;2;2;2;1;1;2;1;
52;OK;1;1;1;0;1;1;1;2;2;2;1;1;1;2;2;2;2;2;1;1;1;2;0;0;0;0;0;0;0;1;1;1;1;1;2;2;0;0;1;1;1;2;0;2;2;2;2;2;2;2;2;2;2;1;1;1;1;1;1;1;1;1;1;1;1;1;2;1;1;1;1;1;2;0;0;2;1;1;2;2;2;2;2;2;2;1;1;2;1;
53;OK;1;1;1;0;1;1;1;2;2;2;1;1;1;2;2;2;2;2;1;1;1;2;0;0;0;0;0;0;0;1;1;1;1;1;2;2;0;0;1;1;1;2;0;2;2;2;2;2;2;2;2;2;2;1;1;1;1;1;1;1;1;1;1;1;1;1;2;1;1;1;1;1;2;0;2;2;1;1;2;2;2;2;2;2;2;1;1;2;1;
54;OK;1;1;1;0;1;1;1;2;2;2;1;1;1;2;2;2;2;2;1;1;1;2;0;0;0;0;0;0;0;1;1;1;1;1;2;2;0;0;1;1;1;2;0;2;2;2;2;2;2;2;2;2;2;1;1;1;1;1;1;1;1;1;1;1;1;1;2;1;1;1;1;1;2;2;0;2;1;1;2;2;2;2;2;2;2;1;1;2;1;
55;OK;1;1;1;0;1;1;1;2;2;2;1;1;1;2;2;2;2;2;1;1;1;2;0;0;0;0;0;0;0;1;1;1;1;1;2;2;0;0;1;1;1;2;0;2;2;2;2;2;2;2;2;2;2;1;1;1;1;1;1;1;1;1;1;1;1;1;2;1;1;1;1;1;2;2;2;2;1;1;2;2;2;2;2;2;2;1;1;2;1;
56;OK;1;1;1;0;1;1;1;2;2;2;1;1;1;2;2;2;2;2;1;1;1;2;0;0;0;0;0;0;0;1;1;1;1;1;2;2;0;0;1;1;1;2;2;2;0;2;2;2;2;2;2;2;2;1;1;1;1;1;1;1;1;1;1;1;1;1;2;1;1;1;1;1;2;0;0;2;1;1;2;2;2;2;2;2;2;1;1;2;1;
57;OK;1;1;1;0;1;1;1;2;2;2;1;1;1;2;2;2;2;2;1;1;1;2;0;0;0;0;0;0;0;1;1;1;1;1;2;2;0;0;1;1;1;2;2;2;0;2;2;2;2;2;2;2;2;1;1;1;1;1;1;1;1;1;1;1;1;1;2;1;1;1;1;1;2;0;2;2;1;1;2;2;2;2;2;2;2;1;1;2;1;
58;OK;1;1;1;0;1;1;1;2;2;2;1;1;1;2;2;2;2;2;1;1;1;2;0;0;0;0;0;0;0;1;1;1;1;1;2;2;0;0;1;1;1;2;2;2;0;2;2;2;2;2;2;2;2;1;1;1;1;1;1;1;1;1;1;1;1;1;2;1;1;1;1;1;2;2;0;2;1;1;2;2;2;2;2;2;2;1;1;2;1;
59;OK;1;1;1;0;1;1;1;2;2;2;1;1;1;2;2;2;2;2;1;1;1;2;0;0;0;0;0;0;0;1;1;1;1;1;2;2;0;0;1;1;1;2;2;2;0;2;2;2;2;2;2;2;2;1;1;1;1;1;1;1;1;1;1;1;1;1;2;1;1;1;1;1;2;2;2;2;1;1;2;2;2;2;2;2;2;1;1;2;1;
60;OK;1;1;1;0;1;1;1;2;2;2;1;1;1;2;2;2;2;2;1;1;1;2;0;0;0;0;0;0;0;1;1;1;1;1;2;2;0;0;1;1;1;2;2;2;2;2;2;2;2;2;2;2;2;1;1;1;1;1;1;1;1;1;1;1;1;1;2;1;1;1;1;1;2;0;0;2;1;1;2;2;2;2;2;2;2;1;1;2;1;
61;OK;1;1;1;0;1;1;1;2;2;2;1;1;1;2;2;2;2;2;1;1;1;2;0;0;0;0;0;0;0;1;1;1;1;1;2;2;0;0;1;1;1;2;2;2;2;2;2;2;2;2;2;2;2;1;1;1;1;1;1;1;1;1;1;1;1;1;2;1;1;1;1;1;2;0;2;2;1;1;2;2;2;2;2;2;2;1;1;2;1;
62;OK;1;1;1;0;1;1;1;2;2;2;1;1;1;2;2;2;2;2;1;1;1;2;0;0;0;0;0;0;0;1;1;1;1;1;2;2;0;0;1;1;1;2;2;2;2;2;2;2;2;2;2;2;2;1;1;1;1;1;1;1;1;1;1;1;1;1;2;1;1;1;1;1;2;2;0;2;1;1;2;2;2;2;2;2;2;1;1;2;1;
63;OK;1;1;1;0;1;1;1;2;2;2;1;1;1;2;2;2;2;2;1;1;1;2;0;0;0;0;0;0;0;1;1;1;1;1;2;2;0;0;1;1;1;2;2;2;2;2;2;2;2;2;2;2;2;1;1;1;1;1;1;1;1;1;1;1;1;1;2;1;1;1;1;1;2;2;2;2;1;1;2;2;2;2;2;2;2;1;1;2;1;
64;OK;1;1;1;0;1;1;1;2;2;2;1;1;2;2;2;2;2;2;1;1;1;2;0;0;0;0;0;0;0;1;1;1;1;1;2;2;0;0;1;1;1;2;0;2;0;2;2;2;2;2;2;2;2;1;1;1;1;1;1;1;1;1;1;1;1;1;2;1;1;1;1;1;2;0;0;2;1;1;2;2;2;2;2;2;2;1;1;2;1;
65;OK;1;1;1;0;1;1;1;2;2;2;1;1;2;2;2;2;2;2;1;1;1;2;0;0;0;0;0;0;0;1;1;1;1;1;2;2;0;0;1;1;1;2;0;2;0;2;2;2;2;2;2;2;2;1;1;1;1;1;1;1;1;1;1;1;1;1;2;1;1;1;1;1;2;0;2;2;1;1;2;2;2;2;2;2;2;1;1;2;1;
66;OK;1;1;1;0;1;1;1;2;2;2;1;1;2;2;2;2;2;2;1;1;1;2;0;0;0;0;0;0;0;1;1;1;1;1;2;2;0;0;1;1;1;2;0;2;0;2;2;2;2;2;2;2;2;1;1;1;1;1;1;1;1;1;1;1;1;1;2;1;1;1;1;1;2;2;0;2;1;1;2;2;2;2;2;2;2;1;1;2;1;
67;OK;1;1;1;0;1;1;1;2;2;2;1;1;2;2;2;2;2;2;1;1;1;2;0;0;0;0;0;0;0;1;1;1;1;1;2;2;0;0;1;1;1;2;0;2;0;2;2;2;2;2;2;2;2;1;1;1;1;1;1;1;1;1;1;1;1;1;2;1;1;1;1;1;2;2;2;2;1;1;2;2;2;2;2;2;2;1;1;2;1;
68;OK;1;1;1;0;1;1;1;2;2;2;1;1;2;2;2;2;2;2;1;1;1;2;0;0;0;0;0;0;0;1;1;1;1;1;2;2;0;0;1;1;1;2;0;2;2;2;2;2;2;2;2;2;2;1;1;1;1;1;1;1;1;1;1;1;1;1;2;1;1;1;1;1;2;0;0;2;1;1;2;2;2;2;2;2;2;1;1;2;1;
69;OK;1;1;1;0;1;1;1;2;2;2;1;1;2;2;2;2;2;2;1;1;1;2;0;0;0;0;0;0;0;1;1;1;1;1;2;2;0;0;1;1;1;2;0;2;2;2;2;2;2;2;2;2;2;1;1;1;1;1;1;1;1;1;1;1;1;1;2;1;1;1;1;1;2;0;2;2;1;1;2;2;2;2;2;2;2;1;1;2;1;
70;OK;1;1;1;0;1;1;1;2;2;2;1;1;2;2;2;2;2;2;1;1;1;2;0;0;0;0;0;0;0;1;1;1;1;1;2;2;0;0;1;1;1;2;0;2;2;2;2;2;2;2;2;2;2;1;1;1;1;1;1;1;1;1;1;1;1;1;2;1;1;1;1;1;2;2;0;2;1;1;2;2;2;2;2;2;2;1;1;2;1;
71;OK;1;1;1;0;1;1;1;2;2;2;1;1;2;2;2;2;2;2;1;1;1;2;0;0;0;0;0;0;0;1;1;1;1;1;2;2;0;0;1;1;1;2;0;2;2;2;2;2;2;2;2;2;2;1;1;1;1;1;1;1;1;1;1;1;1;1;2;1;1;1;1;1;2;2;2;2;1;1;2;2;2;2;2;2;2;1;1;2;1;
72;OK;1;1;1;0;1;1;1;2;2;2;1;1;2;2;2;2;2;2;1;1;1;2;0;0;0;0;0;0;0;1;1;1;1;1;2;2;0;0;1;1;1;2;2;2;0;2;2;2;2;2;2;2;2;1;1;1;1;1;1;1;1;1;1;1;1;1;2;1;1;1;1;1;2;0;0;2;1;1;2;2;2;2;2;2;2;1;1;2;1;
73;OK;1;1;1;0;1;1;1;2;2;2;1;1;2;2;2;2;2;2;1;1;1;2;0;0;0;0;0;0;0;1;1;1;1;1;2;2;0;0;1;1;1;2;2;2;0;2;2;2;2;2;2;2;2;1;1;1;1;1;1;1;1;1;1;1;1;1;2;1;1;1;1;1;2;0;2;2;1;1;2;2;2;2;2;2;2;1;1;2;1;
74;OK;1;1;1;0;1;1;1;2;2;2;1;1;2;2;2;2;2;2;1;1;1;2;0;0;0;0;0;0;0;1;1;1;1;1;2;2;0;0;1;1;1;2;2;2;0;2;2;2;2;2;2;2;2;1;1;1;1;1;1;1;1;1;1;1;1;1;2;1;1;1;1;1;2;2;0;2;1;1;2;2;2;2;2;2;2;1;1;2;1;
75;OK;1;1;1;0;1;1;1;2;2;2;1;1;2;2;2;2;2;2;1;1;1;2;0;0;0;0;0;0;0;1;1;1;1;1;2;2;0;0;1;1;1;2;2;2;0;2;2;2;2;2;2;2;2;1;1;1;1;1;1;1;1;1;1;1;1;1;2;1;1;1;1;1;2;2;2;2;1;1;2;2;2;2;2;2;2;1;1;2;1;
76;OK;1;1;1;0;1;1;1;2;2;2;1;1;2;2;2;2;2;2;1;1;1;2;0;0;0;0;0;0;0;1;1;1;1;1;2;2;0;0;1;1;1;2;2;2;2;2;2;2;2;2;2;2;2;1;1;1;1;1;1;1;1;1;1;1;1;1;2;1;1;1;1;1;2;0;0;2;1;1;2;2;2;2;2;2;2;1;1;2;1;
77;OK;1;1;1;0;1;1;1;2;2;2;1;1;2;2;2;2;2;2;1;1;1;2;0;0;0;0;0;0;0;1;1;1;1;1;2;2;0;0;1;1;1;2;2;2;2;2;2;2;2;2;2;2;2;1;1;1;1;1;1;1;1;1;1;1;1;1;2;1;1;1;1;1;2;0;2;2;1;1;2;2;2;2;2;2;2;1;1;2;1;
78;OK;1;1;1;0;1;1;1;2;2;2;1;1;2;2;2;2;2;2;1;1;1;2;0;0;0;0;0;0;0;1;1;1;1;1;2;2;0;0;1;1;1;2;2;2;2;2;2;2;2;2;2;2;2;1;1;1;1;1;1;1;1;1;1;1;1;1;2;1;1;1;1;1;2;2;0;2;1;1;2;2;2;2;2;2;2;1;1;2;1;
79;OK;1;1;1;0;1;1;1;2;2;2;1;1;2;2;2;2;2;2;1;1;1;2;0;0;0;0;0;0;0;1;1;1;1;1;2;2;0;0;1;1;1;2;2;2;2;2;2;2;2;2;2;2;2;1;1;1;1;1;1;1;1;1;1;1;1;1;2;1;1;1;1;1;2;2;2;2;1;1;2;2;2;2;2;2;2;1;1;2;1;
80;OK;1;1;1;0;2;1;1;2;2;2;1;1;1;2;2;2;2;2;1;1;1;2;0;0;0;0;0;0;0;1;1;1;1;1;2;2;0;0;1;1;1;2;0;2;0;2;2;2;2;2;2;2;2;1;1;1;1;1;1;1;1;1;1;1;1;1;2;1;1;1;1;1;2;0;0;2;1;1;2;2;2;2;2;2;2;1;1;2;1;
81;OK;1;1;1;0;2;1;1;2;2;2;1;1;1;2;2;2;2;2;1;1;1;2;0;0;0;0;0;0;0;1;1;1;1;1;2;2;0;0;1;1;1;2;0;2;0;2;2;2;2;2;2;2;2;1;1;1;1;1;1;1;1;1;1;1;1;1;2;1;1;1;1;1;2;0;2;2;1;1;2;2;2;2;2;2;2;1;1;2;1;
82;OK;1;1;1;0;2;1;1;2;2;2;1;1;1;2;2;2;2;2;1;1;1;2;0;0;0;0;0;0;0;1;1;1;1;1;2;2;0;0;1;1;1;2;0;2;0;2;2;2;2;2;2;2;2;1;1;1;1;1;1;1;1;1;1;1;1;1;2;1;1;1;1;1;2;2;0;2;1;1;2;2;2;2;2;2;2;1;1;2;1;
83;OK;1;1;1;0;2;1;1;2;2;2;1;1;1;2;2;2;2;2;1;1;1;2;0;0;0;0;0;0;0;1;1;1;1;1;2;2;0;0;1;1;1;2;0;2;0;2;2;2;2;2;2;2;2;1;1;1;1;1;1;1;1;1;1;1;1;1;2;1;1;1;1;1;2;2;2;2;1;1;2;2;2;2;2;2;2;1;1;2;1;
84;OK;1;1;1;0;2;1;1;2;2;2;1;1;1;2;2;2;2;2;1;1;1;2;0;0;0;0;0;0;0;1;1;1;1;1;2;2;0;0;1;1;1;2;0;2;2;2;2;2;2;2;2;2;2;1;1;1;1;1;1;1;1;1;1;1;1;1;2;1;1;1;1;1;2;0;0;2;1;1;2;2;2;2;2;2;2;1;1;2;1;
85;OK;1;1;1;0;2;1;1;2;2;2;1;1;1;2;2;2;2;2;1;1;1;2;0;0;0;0;0;0;0;1;1;1;1;1;2;2;0;0;1;1;1;2;0;2;2;2;2;2;2;2;2;2;2;1;1;1;1;1;1;1;1;1;1;1;1;1;2;1;1;1;1;1;2;0;2;2;1;1;2;2;2;2;2;2;2;1;1;2;1;
86;OK;1;1;1;0;2;1;1;2;2;2;1;1;1;2;2;2;2;2;1;1;1;2;0;0;0;0;0;0;0;1;1;1;1;1;2;2;0;0;1;1;1;2;0;2;2;2;2;2;2;2;2;2;2;1;1;1;1;1;1;1;1;1;1;1;1;1;2;1;1;1;1;1;2;2;0;2;1;1;2;2;2;2;2;2;2;1;1;2;1;
87;OK;1;1;1;0;2;1;1;2;2;2;1;1;1;2;2;2;2;2;1;1;1;2;0;0;0;0;0;0;0;1;1;1;1;1;2;2;0;0;1;1;1;2;0;2;2;2;2;2;2;2;2;2;2;1;1;1;1;1;1;1;1;1;1;1;1;1;2;1;1;1;1;1;2;2;2;2;1;1;2;2;2;2;2;2;2;1;1;2;1;
88;OK;1;1;1;0;2;1;1;2;2;2;1;1;1;2;2;2;2;2;1;1;1;2;0;0;0;0;0;0;0;1;1;1;1;1;2;2;0;0;1;1;1;2;2;2;0;2;2;2;2;2;2;2;2;1;1;1;1;1;1;1;1;1;1;1;1;1;2;1;1;1;1;1;2;0;0;2;1;1;2;2;2;2;2;2;2;1;1;2;1;
89;OK;1;1;1;0;2;1;1;2;2;2;1;1;1;2;2;2;2;2;1;1;1;2;0;0;0;0;0;0;0;1;1;1;1;1;2;2;0;0;1;1;1;2;2;2;0;2;2;2;2;2;2;2;2;1;1;1;1;1;1;1;1;1;1;1;1;1;2;1;1;1;1;1;2;0;2;2;1;1;2;2;2;2;2;2;2;1;1;2;1;
90;OK;1;1;1;0;2;1;1;2;2;2;1;1;1;2;2;2;2;2;1;1;1;2;0;0;0;0;0;0;0;1;1;1;1;1;2;2;0;0;1;1;1;2;2;2;0;2;2;2;2;2;2;2;2;1;1;1;1;1;1;1;1;1;1;1;1;1;2;1;1;1;1;1;2;2;0;2;1;1;2;2;2;2;2;2;2;1;1;2;1;
91;OK;1;1;1;0;2;1;1;2;2;2;1;1;1;2;2;2;2;2;1;1;1;2;0;0;0;0;0;0;0;1;1;1;1;1;2;2;0;0;1;1;1;2;2;2;0;2;2;2;2;2;2;2;2;1;1;1;1;1;1;1;1;1;1;1;1;1;2;1;1;1;1;1;2;2;2;2;1;1;2;2;2;2;2;2;2;1;1;2;1;
92;OK;1;1;1;0;2;1;1;2;2;2;1;1;1;2;2;2;2;2;1;1;1;2;0;0;0;0;0;0;0;1;1;1;1;1;2;2;0;0;1;1;1;2;2;2;2;2;2;2;2;2;2;2;2;1;1;1;1;1;1;1;1;1;1;1;1;1;2;1;1;1;1;1;2;0;0;2;1;1;2;2;2;2;2;2;2;1;1;2;1;
93;OK;1;1;1;0;2;1;1;2;2;2;1;1;1;2;2;2;2;2;1;1;1;2;0;0;0;0;0;0;0;1;1;1;1;1;2;2;0;0;1;1;1;2;2;2;2;2;2;2;2;2;2;2;2;1;1;1;1;1;1;1;1;1;1;1;1;1;2;1;1;1;1;1;2;0;2;2;1;1;2;2;2;2;2;2;2;1;1;2;1;
94;OK;1;1;1;0;2;1;1;2;2;2;1;1;1;2;2;2;2;2;1;1;1;2;0;0;0;0;0;0;0;1;1;1;1;1;2;2;0;0;1;1;1;2;2;2;2;2;2;2;2;2;2;2;2;1;1;1;1;1;1;1;1;1;1;1;1;1;2;1;1;1;1;1;2;2;0;2;1;1;2;2;2;2;2;2;2;1;1;2;1;
95;OK;1;1;1;0;2;1;1;2;2;2;1;1;1;2;2;2;2;2;1;1;1;2;0;0;0;0;0;0;0;1;1;1;1;1;2;2;0;0;1;1;1;2;2;2;2;2;2;2;2;2;2;2;2;1;1;1;1;1;1;1;1;1;1;1;1;1;2;1;1;1;1;1;2;2;2;2;1;1;2;2;2;2;2;2;2;1;1;2;1;
96;OK;1;1;1;0;2;1;1;2;2;2;1;1;2;2;2;2;2;2;1;1;1;2;0;0;0;0;0;0;0;1;1;1;1;1;2;2;0;0;1;1;1;2;0;2;0;2;2;2;2;2;2;2;2;1;1;1;1;1;1;1;1;1;1;1;1;1;2;1;1;1;1;1;2;0;0;2;1;1;2;2;2;2;2;2;2;1;1;2;1;
97;OK;1;1;1;0;2;1;1;2;2;2;1;1;2;2;2;2;2;2;1;1;1;2;0;0;0;0;0;0;0;1;1;1;1;1;2;2;0;0;1;1;1;2;0;2;0;2;2;2;2;2;2;2;2;1;1;1;1;1;1;1;1;1;1;1;1;1;2;1;1;1;1;1;2;0;2;2;1;1;2;2;2;2;2;2;2;1;1;2;1;
98;OK;1;1;1;0;2;1;1;2;2;2;1;1;2;2;2;2;2;2;1;1;1;2;0;0;0;0;0;0;0;1;1;1;1;1;2;2;0;0;1;1;1;2;0;2;0;2;2;2;2;2;2;2;2;1;1;1;1;1;1;1;1;1;1;1;1;1;2;1;1;1;1;1;2;2;0;2;1;1;2;2;2;2;2;2;2;1;1;2;1;
99;OK;1;1;1;0;2;1;1;2;2;2;1;1;2;2;2;2;2;2;1;1;1;2;0;0;0;0;0;0;0;1;1;1;1;1;2;2;0;0;1;1;1;2;0;2;0;2;2;2;2;2;2;2;2;1;1;1;1;1;1;1;1;1;1;1;1;1;2;1;1;1;1;1;2;2;2;2;1;1;2;2;2;2;2;2;2;1;1;2;1;
100;OK;1;1;1;0;2;1;1;2;2;2;1;1;2;2;2;2;2;2;1;1;1;2;0;0;0;0;0;0;0;1;1;1;1;1;2;2;0;0;1;1;1;2;0;2;2;2;2;2;2;2;2;2;2;1;1;1;1;1;1;1;1;1;1;1;1;1;2;1;1;1;1;1;2;0;0;2;1;1;2;2;2;2;2;2;2;1;1;2;1;
101;OK;1;1;1;0;2;1;1;2;2;2;1;1;2;2;2;2;2;2;1;1;1;2;0;0;0;0;0;0;0;1;1;1;1;1;2;2;0;0;1;1;1;2;0;2;2;2;2;2;2;2;2;2;2;1;1;1;1;1;1;1;1;1;1;1;1;1;2;1;1;1;1;1;2;0;2;2;1;1;2;2;2;2;2;2;2;1;1;2;1;
102;OK;1;1;1;0;2;1;1;2;2;2;1;1;2;2;2;2;2;2;1;1;1;2;0;0;0;0;0;0;0;1;1;1;1;1;2;2;0;0;1;1;1;2;0;2;2;2;2;2;2;2;2;2;2;1;1;1;1;1;1;1;1;1;1;1;1;1;2;1;1;1;1;1;2;2;0;2;1;1;2;2;2;2;2;2;2;1;1;2;1;
103;OK;1;1;1;0;2;1;1;2;2;2;1;1;2;2;2;2;2;2;1;1;1;2;0;0;0;0;0;0;0;1;1;1;1;1;2;2;0;0;1;1;1;2;0;2;2;2;2;2;2;2;2;2;2;1;1;1;1;1;1;1;1;1;1;1;1;1;2;1;1;1;1;1;2;2;2;2;1;1;2;2;2;2;2;2;2;1;1;2;1;
104;OK;1;1;1;0;2;1;1;2;2;2;1;1;2;2;2;2;2;2;1;1;1;2;0;0;0;0;0;0;0;1;1;1;1;1;2;2;0;0;1;1;1;2;2;2;0;2;2;2;2;2;2;2;2;1;1;1;1;1;1;1;1;1;1;1;1;1;2;1;1;1;1;1;2;0;0;2;1;1;2;2;2;2;2;2;2;1;1;2;1;
105;OK;1;1;1;0;2;1;1;2;2;2;1;1;2;2;2;2;2;2;1;1;1;2;0;0;0;0;0;0;0;1;1;1;1;1;2;2;0;0;1;1;1;2;2;2;0;2;2;2;2;2;2;2;2;1;1;1;1;1;1;1;1;1;1;1;1;1;2;1;1;1;1;1;2;0;2;2;1;1;2;2;2;2;2;2;2;1;1;2;1;
106;OK;1;1;1;0;2;1;1;2;2;2;1;1;2;2;2;2;2;2;1;1;1;2;0;0;0;0;0;0;0;1;1;1;1;1;2;2;0;0;1;1;1;2;2;2;0;2;2;2;2;2;2;2;2;1;1;1;1;1;1;1;1;1;1;1;1;1;2;1;1;1;1;1;2;2;0;2;1;1;2;2;2;2;2;2;2;1;1;2;1;
107;OK;1;1;1;0;2;1;1;2;2;2;1;1;2;2;2;2;2;2;1;1;1;2;0;0;0;0;0;0;0;1;1;1;1;1;2;2;0;0;1;1;1;2;2;2;0;2;2;2;2;2;2;2;2;1;1;1;1;1;1;1;1;1;1;1;1;1;2;1;1;1;1;1;2;2;2;2;1;1;2;2;2;2;2;2;2;1;1;2;1;
108;OK;1;1;1;0;2;1;1;2;2;2;1;1;2;2;2;2;2;2;1;1;1;2;0;0;0;0;0;0;0;1;1;1;1;1;2;2;0;0;1;1;1;2;2;2;2;2;2;2;2;2;2;2;2;1;1;1;1;1;1;1;1;1;1;1;1;1;2;1;1;1;1;1;2;0;0;2;1;1;2;2;2;2;2;2;2;1;1;2;1;
109;OK;1;1;1;0;2;1;1;2;2;2;1;1;2;2;2;2;2;2;1;1;1;2;0;0;0;0;0;0;0;1;1;1;1;1;2;2;0;0;1;1;1;2;2;2;2;2;2;2;2;2;2;2;2;1;1;1;1;1;1;1;1;1;1;1;1;1;2;1;1;1;1;1;2;0;2;2;1;1;2;2;2;2;2;2;2;1;1;2;1;
110;OK;1;1;1;0;2;1;1;2;2;2;1;1;2;2;2;2;2;2;1;1;1;2;0;0;0;0;0;0;0;1;1;1;1;1;2;2;0;0;1;1;1;2;2;2;2;2;2;2;2;2;2;2;2;1;1;1;1;1;1;1;1;1;1;1;1;1;2;1;1;1;1;1;2;2;0;2;1;1;2;2;2;2;2;2;2;1;1;2;1;
111;OK;1;1;1;0;2;1;1;2;2;2;1;1;2;2;2;2;2;2;1;1;1;2;0;0;0;0;0;0;0;1;1;1;1;1;2;2;0;0;1;1;1;2;2;2;2;2;2;2;2;2;2;2;2;1;1;1;1;1;1;1;1;1;1;1;1;1;2;1;1;1;1;1;2;2;2;2;1;1;2;2;2;2;2;2;2;1;1;2;1;
112;OK;1;1;1;1;1;1;1;2;2;1;1;1;1;2;1;2;2;2;1;1;1;2;0;0;0;0;0;0;0;1;1;1;1;1;2;2;0;0;1;1;1;2;0;2;0;2;2;2;2;2;2;2;2;1;1;1;1;1;1;1;1;1;1;1;1;1;2;1;1;1;1;1;2;0;0;2;1;1;2;2;2;2;2;2;2;1;1;2;1;
113;OK;1;1;1;1;1;1;1;2;2;1;1;1;1;2;1;2;2;2;1;1;1;2;0;0;0;0;0;0;0;1;1;1;1;1;2;2;0;0;1;1;1;2;0;2;0;2;2;2;2;2;2;2;2;1;1;1;1;1;1;1;1;1;1;1;1;1;2;1;1;1;1;1;2;0;2;2;1;1;2;2;2;2;2;2;2;1;1;2;1;
114;OK;1;1;1;1;1;1;1;2;2;1;1;1;1;2;1;2;2;2;1;1;1;2;0;0;0;0;0;0;0;1;1;1;1;1;2;2;0;0;1;1;1;2;0;2;0;2;2;2;2;2;2;2;2;1;1;1;1;1;1;1;1;1;1;1;1;1;2;1;1;1;1;1;2;2;0;2;1;1;2;2;2;2;2;2;2;1;1;2;1;
115;OK;1;1;1;1;1;1;1;2;2;1;1;1;1;2;1;2;2;2;1;1;1;2;0;0;0;0;0;0;0;1;1;1;1;1;2;2;0;0;1;1;1;2;0;2;0;2;2;2;2;2;2;2;2;1;1;1;1;1;1;1;1;1;1;1;1;1;2;1;1;1;1;1;2;2;2;2;1;1;2;2;2;2;2;2;2;1;1;2;1;
116;OK;1;1;1;1;1;1;1;2;2;1;1;1;1;2;1;2;2;2;1;1;1;2;0;0;0;0;0;0;0;1;1;1;1;1;2;2;0;0;1;1;1;2;0;2;2;2;2;2;2;2;2;2;2;1;1;1;1;1;1;1;1;1;1;1;1;1;2;1;1;1;1;1;2;0;0;2;1;1;2;2;2;2;2;2;2;1;1;2;1;
117;OK;1;1;1;1;1;1;1;2;2;1;1;1;1;2;1;2;2;2;1;1;1;2;0;0;0;0;0;0;0;1;1;1;1;1;2;2;0;0;1;1;1;2;0;2;2;2;2;2;2;2;2;2;2;1;1;1;1;1;1;1;1;1;1;1;1;1;2;1;1;1;1;1;2;0;2;2;1;1;2;2;2;2;2;2;2;1;1;2;1;
118;OK;1;1;1;1;1;1;1;2;2;1;1;1;1;2;1;2;2;2;1;1;1;2;0;0;0;0;0;0;0;1;1;1;1;1;2;2;0;0;1;1;1;2;0;2;2;2;2;2;2;2;2;2;2;1;1;1;1;1;1;1;1;1;1;1;1;1;2;1;1;1;1;1;2;2;0;2;1;1;2;2;2;2;2;2;2;1;1;2;1;
119;OK;1;1;1;1;1;1;1;2;2;1;1;1;1;2;1;2;2;2;1;1;1;2;0;0;0;0;0;0;0;1;1;1;1;1;2;2;0;0;1;1;1;2;0;2;2;2;2;2;2;2;2;2;2;1;1;1;1;1;1;1;1;1;1;1;1;1;2;1;1;1;1;1;2;2;2;2;1;1;2;2;2;2;2;2;2;1;1;2;1;
120;OK;1;1;1;1;1;1;1;2;2;1;1;1;1;2;1;2;2;2;1;1;1;2;0;0;0;0;0;0;0;1;1;1;1;1;2;2;0;0;1;1;1;2;2;2;0;2;2;2;2;2;2;2;2;1;1;1;1;1;1;1;1;1;1;1;1;1;2;1;1;1;1;1;2;0;0;2;1;1;2;2;2;2;2;2;2;1;1;2;1;
121;OK;1;1;1;1;1;1;1;2;2;1;1;1;1;2;1;2;2;2;1;1;1;2;0;0;0;0;0;0;0;1;1;1;1;1;2;2;0;0;1;1;1;2;2;2;0;2;2;2;2;2;2;2;2;1;1;1;1;1;1;1;1;1;1;1;1;1;2;1;1;1;1;1;2;0;2;2;1;1;2;2;2;2;2;2;2;1;1;2;1;
122;OK;1;1;1;1;1;1;1;2;2;1;1;1;1;2;1;2;2;2;1;1;1;2;0;0;0;0;0;0;0;1;1;1;1;1;2;2;0;0;1;1;1;2;2;2;0;2;2;2;2;2;2;2;2;1;1;1;1;1;1;1;1;1;1;1;1;1;2;1;1;1;1;1;2;2;0;2;1;1;2;2;2;2;2;2;2;1;1;2;1;
123;OK;1;1;1;1;1;1;1;2;2;1;1;1;1;2;1;2;2;2;1;1;1;2;0;0;0;0;0;0;0;1;1;1;1;1;2;2;0;0;1;1;1;2;2;2;0;2;2;2;2;2;2;2;2;1;1;1;1;1;1;1;1;1;1;1;1;1;2;1;1;1;1;1;2;2;2;2;1;1;2;2;2;2;2;2;2;1;1;2;1;
124;OK;1;1;1;1;1;1;1;2;2;1;1;1;1;2;1;2;2;2;1;1;1;2;0;0;0;0;0;0;0;1;1;1;1;1;2;2;0;0;1;1;1;2;2;2;2;2;2;2;2;2;2;2;2;1;1;1;1;1;1;1;1;1;1;1;1;1;2;1;1;1;1;1;2;0;0;2;1;1;2;2;2;2;2;2;2;1;1;2;1;
125;OK;1;1;1;1;1;1;1;2;2;1;1;1;1;2;1;2;2;2;1;1;1;2;0;0;0;0;0;0;0;1;1;1;1;1;2;2;0;0;1;1;1;2;2;2;2;2;2;2;2;2;2;2;2;1;1;1;1;1;1;1;1;1;1;1;1;1;2;1;1;1;1;1;2;0;2;2;1;1;2;2;2;2;2;2;2;1;1;2;1;
126;OK;1;1;1;1;1;1;1;2;2;1;1;1;1;2;1;2;2;2;1;1;1;2;0;0;0;0;0;0;0;1;1;1;1;1;2;2;0;0;1;1;1;2;2;2;2;2;2;2;2;2;2;2;2;1;1;1;1;1;1;1;1;1;1;1;1;1;2;1;1;1;1;1;2;2;0;2;1;1;2;2;2;2;2;2;2;1;1;2;1;
127;OK;1;1;1;1;1;1;1;2;2;1;1;1;1;2;1;2;2;2;1;1;1;2;0;0;0;0;0;0;0;1;1;1;1;1;2;2;0;0;1;1;1;2;2;2;2;2;2;2;2;2;2;2;2;1;1;1;1;1;1;1;1;1;1;1;1;1;2;1;1;1;1;1;2;2;2;2;1;1;2;2;2;2;2;2;2;1;1;2;1;
128;OK;1;1;1;1;1;1;1;2;2;1;1;1;2;2;2;2;2;2;1;1;1;2;0;0;0;0;0;0;0;1;1;1;1;1;2;2;0;0;1;1;1;2;0;2;0;2;2;2;2;2;2;2;2;1;1;1;1;1;1;1;1;1;1;1;1;1;2;1;1;1;1;1;2;0;0;2;1;1;2;2;2;2;2;2;2;1;1;2;1;
129;OK;1;1;1;1;1;1;1;2;2;1;1;1;2;2;2;2;2;2;1;1;1;2;0;0;0;0;0;0;0;1;1;1;1;1;2;2;0;0;1;1;1;2;0;2;0;2;2;2;2;2;2;2;2;1;1;1;1;1;1;1;1;1;1;1;1;1;2;1;1;1;1;1;2;0;2;2;1;1;2;2;2;2;2;2;2;1;1;2;1;
130;OK;1;1;1;1;1;1;1;2;2;1;1;1;2;2;2;2;2;2;1;1;1;2;0;0;0;0;0;0;0;1;1;1;1;1;2;2;0;0;1;1;1;2;0;2;0;2;2;2;2;2;2;2;2;1;1;1;1;1;1;1;1;1;1;1;1;1;2;1;1;1;1;1;2;2;0;2;1;1;2;2;2;2;2;2;2;1;1;2;1;
131;OK;1;1;1;1;1;1;1;2;2;1;1;1;2;2;2;2;2;2;1;1;1;2;0;0;0;0;0;0;0;1;1;1;1;1;2;2;0;0;1;1;1;2;0;2;0;2;2;2;2;2;2;2;2;1;1;1;1;1;1;1;1;1;1;1;1;1;2;1;1;1;1;1;2;2;2;2;1;1;2;2;2;2;2;2;2;1;1;2;1;
132;OK;1;1;1;1;1;1;1;2;2;1;1;1;2;2;2;2;2;2;1;1;1;2;0;0;0;0;0;0;0;1;1;1;1;1;2;2;0;0;1;1;1;2;0;2;2;2;2;2;2;2;2;2;2;1;1;1;1;1;1;1;1;1;1;1;1;1;2;1;1;1;1;1;2;0;0;2;1;1;2;2;2;2;2;2;2;1;1;2;1;
133;OK;1;1;1;1;1;1;1;2;2;1;1;1;2;2;2;2;2;2;1;1;1;2;0;0;0;0;0;0;0;1;1;1;1;1;2;2;0;0;1;1;1;2;0;2;2;2;2;2;2;2;2;2;2;1;1;1;1;1;1;1;1;1;1;1;1;1;2;1;1;1;1;1;2;0;2;2;1;1;2;2;2;2;2;2;2;1;1;2;1;
134;OK;1;1;1;1;1;1;1;2;2;1;1;1;2;2;2;2;2;2;1;1;1;2;0;0;0;0;0;0;0;1;1;1;1;1;2;2;0;0;1;1;1;2;0;2;2;2;2;2;2;2;2;2;2;1;1;1;1;1;1;1;1;1;1;1;1;1;2;1;1;1;1;1;2;2;0;2;1;1;2;2;2;2;2;2;2;1;1;2;1;
135;OK;1;1;1;1;1;1;1;2;2;1;1;1;2;2;2;2;2;2;1;1;1;2;0;0;0;0;0;0;0;1;1;1;1;1;2;2;0;0;1;1;1;2;0;2;2;2;2;2;2;2;2;2;2;1;1;1;1;1;1;1;1;1;1;1;1;1;2;1;1;1;1;1;2;2;2;2;1;1;2;2;2;2;2;2;2;1;1;2;1;
136;OK;1;1;1;1;1;1;1;2;2;1;1;1;2;2;2;2;2;2;1;1;1;2;0;0;0;0;0;0;0;1;1;1;1;1;2;2;0;0;1;1;1;2;2;2;0;2;2;2;2;2;2;2;2;1;1;1;1;1;1;1;1;1;1;1;1;1;2;1;1;1;1;1;2;0;0;2;1;1;2;2;2;2;2;2;2;1;1;2;1;
137;OK;1;1;1;1;1;1;1;2;2;1;1;1;2;2;2;2;2;2;1;1;1;2;0;0;0;0;0;0;0;1;1;1;1;1;2;2;0;0;1;1;1;2;2;2;0;2;2;2;2;2;2;2;2;1;1;1;1;1;1;1;1;1;1;1;1;1;2;1;1;1;1;1;2;0;2;2;1;1;2;2;2;2;2;2;2;1;1;2;1;
138;OK;1;1;1;1;1;1;1;2;2;1;1;1;2;2;2;2;2;2;1;1;1;2;0;0;0;0;0;0;0;1;1;1;1;1;2;2;0;0;1;1;1;2;2;2;0;2;2;2;2;2;2;2;2;1;1;1;1;1;1;1;1;1;1;1;1;1;2;1;1;1;1;1;2;2;0;2;1;1;2;2;2;2;2;2;2;1;1;2;1;
139;OK;1;1;1;1;1;1;1;2;2;1;1;1;2;2;2;2;2;2;1;1;1;2;0;0;0;0;0;0;0;1;1;1;1;1;2;2;0;0;1;1;1;2;2;2;0;2;2;2;2;2;2;2;2;1;1;1;1;1;1;1;1;1;1;1;1;1;2;1;1;1;1;1;2;2;2;2;1;1;2;2;2;2;2;2;2;1;1;2;1;
140;OK;1;1;1;1;1;1;1;2;2;1;1;1;2;2;2;2;2;2;1;1;1;2;0;0;0;0;0;0;0;1;1;1;1;1;2;2;0;0;1;1;1;2;2;2;2;2;2;2;2;2;2;2;2;1;1;1;1;1;1;1;1;1;1;1;1;1;2;1;1;1;1;1;2;0;0;2;1;1;2;2;2;2;2;2;2;1;1;2;1;
141;OK;1;1;1;1;1;1;1;2;2;1;1;1;2;2;2;2;2;2;1;1;1;2;0;0;0;0;0;0;0;1;1;1;1;1;2;2;0;0;1;1;1;2;2;2;2;2;2;2;2;2;2;2;2;1;1;1;1;1;1;1;1;1;1;1;1;1;2;1;1;1;1;1;2;0;2;2;1;1;2;2;2;2;2;2;2;1;1;2;1;
142;OK;1;1;1;1;1;1;1;2;2;1;1;1;2;2;2;2;2;2;1;1;1;2;0;0;0;0;0;0;0;1;1;1;1;1;2;2;0;0;1;1;1;2;2;2;2;2;2;2;2;2;2;2;2;1;1;1;1;1;1;1;1;1;1;1;1;1;2;1;1;1;1;1;2;2;0;2;1;1;2;2;2;2;2;2;2;1;1;2;1;
143;OK;1;1;1;1;1;1;1;2;2;1;1;1;2;2;2;2;2;2;1;1;1;2;0;0;0;0;0;0;0;1;1;1;1;1;2;2;0;0;1;1;1;2;2;2;2;2;2;2;2;2;2;2;2;1;1;1;1;1;1;1;1;1;1;1;1;1;2;1;1;1;1;1;2;2;2;2;1;1;2;2;2;2;2;2;2;1;1;2;1;
144;OK;1;1;1;1;1;1;1;2;2;2;1;1;1;2;2;2;2;2;1;1;1;2;0;0;0;0;0;0;0;1;1;1;1;1;2;2;0;0;1;1;1;2;0;2;0;2;2;2;2;2;2;2;2;1;1;1;1;1;1;1;1;1;1;1;1;1;2;1;1;1;1;1;2;0;0;2;1;1;2;2;2;2;2;2;2;1;1;2;1;
145;OK;1;1;1;1;1;1;1;2;2;2;1;1;1;2;2;2;2;2;1;1;1;2;0;0;0;0;0;0;0;1;1;1;1;1;2;2;0;0;1;1;1;2;0;2;0;2;2;2;2;2;2;2;2;1;1;1;1;1;1;1;1;1;1;1;1;1;2;1;1;1;1;1;2;0;2;2;1;1;2;2;2;2;2;2;2;1;1;2;1;
146;OK;1;1;1;1;1;1;1;2;2;2;1;1;1;2;2;2;2;2;1;1;1;2;0;0;0;0;0;0;0;1;1;1;1;1;2;2;0;0;1;1;1;2;0;2;0;2;2;2;2;2;2;2;2;1;1;1;1;1;1;1;1;1;1;1;1;1;2;1;1;1;1;1;2;2;0;2;1;1;2;2;2;2;2;2;2;1;1;2;1;
147;OK;1;1;1;1;1;1;1;2;2;2;1;1;1;2;2;2;2;2;1;1;1;2;0;0;0;0;0;0;0;1;1;1;1;1;2;2;0;0;1;1;1;2;0;2;0;2;2;2;2;2;2;2;2;1;1;1;1;1;1;1;1;1;1;1;1;1;2;1;1;1;1;1;2;2;2;2;1;1;2;2;2;2;2;2;2;1;1;2;1;
148;OK;1;1;1;1;1;1;1;2;2;2;1;1;1;2;2;2;2;2;1;1;1;2;0;0;0;0;0;0;0;1;1;1;1;1;2;2;0;0;1;1;1;2;0;2;2;2;2;2;2;2;2;2;2;1;1;1;1;1;1;1;1;1;1;1;1;1;2;1;1;1;1;1;2;0;0;2;1;1;2;2;2;2;2;2;2;1;1;2;1;
149;OK;1;1;1;1;1;1;1;2;2;2;1;1;1;2;2;2;2;2;1;1;1;2;0;0;0;0;0;0;0;1;1;1;1;1;2;2;0;0;1;1;1;2;0;2;2;2;2;2;2;2;2;2;2;1;1;1;1;1;1;1;1;1;1;1;1;1;2;1;1;1;1;1;2;0;2;2;1;1;2;2;2;2;2;2;2;1;1;2;1;
150;OK;1;1;1;1;1;1;1;2;2;2;1;1;1;2;2;2;2;2;1;1;1;2;0;0;0;0;0;0;0;1;1;1;1;1;2;2;0;0;1;1;1;2;0;2;2;2;2;2;2;2;2;2;2;1;1;1;1;1;1;1;1;1;1;1;1;1;2;1;1;1;1;1;2;2;0;2;1;1;2;2;2;2;2;2;2;1;1;2;1;
151;OK;1;1;1;1;1;1;1;2;2;2;1;1;1;2;2;2;2;2;1;1;1;2;0;0;0;0;0;0;0;1;1;1;1;1;2;2;0;0;1;1;1;2;0;2;2;2;2;2;2;2;2;2;2;1;1;1;1;1;1;1;1;1;1;1;1;1;2;1;1;1;1;1;2;2;2;2;1;1;2;2;2;2;2;2;2;1;1;2;1;
152;OK;1;1;1;1;1;1;1;2;2;2;1;1;1;2;2;2;2;2;1;1;1;2;0;0;0;0;0;0;0;1;1;1;1;1;2;2;0;0;1;1;1;2;2;2;0;2;2;2;2;2;2;2;2;1;1;1;1;1;1;1;1;1;1;1;1;1;2;1;1;1;1;1;2;0;0;2;1;1;2;2;2;2;2;2;2;1;1;2;1;
153;OK;1;1;1;1;1;1;1;2;2;2;1;1;1;2;2;2;2;2;1;1;1;2;0;0;0;0;0;0;0;1;1;1;1;1;2;2;0;0;1;1;1;2;2;2;0;2;2;2;2;2;2;2;2;1;1;1;1;1;1;1;1;1;1;1;1;1;2;1;1;1;1;1;2;0;2;2;1;1;2;2;2;2;2;2;2;1;1;2;1;
154;OK;1;1;1;1;1;1;1;2;2;2;1;1;1;2;2;2;2;2;1;1;1;2;0;0;0;0;0;0;0;1;1;1;1;1;2;2;0;0;1;1;1;2;2;2;0;2;2;2;2;2;2;2;2;1;1;1;1;1;1;1;1;1;1;1;1;1;2;1;1;1;1;1;2;2;0;2;1;1;2;2;2;2;2;2;2;1;1;2;1;
155;OK;1;1;1;1;1;1;1;2;2;2;1;1;1;2;2;2;2;2;1;1;1;2;0;0;0;0;0;0;0;1;1;1;1;1;2;2;0;0;1;1;1;2;2;2;0;2;2;2;2;2;2;2;2;1;1;1;1;1;1;1;1;1;1;1;1;1;2;1;1;1;1;1;2;2;2;2;1;1;2;2;2;2;2;2;2;1;1;2;1;
156;OK;1;1;1;1;1;1;1;2;2;2;1;1;1;2;2;2;2;2;1;1;1;2;0;0;0;0;0;0;0;1;1;1;1;1;2;2;0;0;1;1;1;2;2;2;2;2;2;2;2;2;2;2;2;1;1;1;1;1;1;1;1;1;1;1;1;1;2;1;1;1;1;1;2;0;0;2;1;1;2;2;2;2;2;2;2;1;1;2;1;
157;OK;1;1;1;1;1;1;1;2;2;2;1;1;1;2;2;2;2;2;1;1;1;2;0;0;0;0;0;0;0;1;1;1;1;1;2;2;0;0;1;1;1;2;2;2;2;2;2;2;2;2;2;2;2;1;1;1;1;1;1;1;1;1;1;1;1;1;2;1;1;1;1;1;2;0;2;2;1;1;2;2;2;2;2;2;2;1;1;2;1;
158;OK;1;1;1;1;1;1;1;2;2;2;1;1;1;2;2;2;2;2;1;1;1;2;0;0;0;0;0;0;0;1;1;1;1;1;2;2;0;0;1;1;1;2;2;2;2;2;2;2;2;2;2;2;2;1;1;1;1;1;1;1;1;1;1;1;1;1;2;1;1;1;1;1;2;2;0;2;1;1;2;2;2;2;2;2;2;1;1;2;1;
159;OK;1;1;1;1;1;1;1;2;2;2;1;1;1;2;2;2;2;2;1;1;1;2;0;0;0;0;0;0;0;1;1;1;1;1;2;2;0;0;1;1;1;2;2;2;2;2;2;2;2;2;2;2;2;1;1;1;1;1;1;1;1;1;1;1;1;1;2;1;1;1;1;1;2;2;2;2;1;1;2;2;2;2;2;2;2;1;1;2;1;
160;OK;1;1;1;1;1;1;1;2;2;2;1;1;2;2;2;2;2;2;1;1;1;2;0;0;0;0;0;0;0;1;1;1;1;1;2;2;0;0;1;1;1;2;0;2;0;2;2;2;2;2;2;2;2;1;1;1;1;1;1;1;1;1;1;1;1;1;2;1;1;1;1;1;2;0;0;2;1;1;2;2;2;2;2;2;2;1;1;2;1;
161;OK;1;1;1;1;1;1;1;2;2;2;1;1;2;2;2;2;2;2;1;1;1;2;0;0;0;0;0;0;0;1;1;1;1;1;2;2;0;0;1;1;1;2;0;2;0;2;2;2;2;2;2;2;2;1;1;1;1;1;1;1;1;1;1;1;1;1;2;1;1;1;1;1;2;0;2;2;1;1;2;2;2;2;2;2;2;1;1;2;1;
162;OK;1;1;1;1;1;1;1;2;2;2;1;1;2;2;2;2;2;2;1;1;1;2;0;0;0;0;0;0;0;1;1;1;1;1;2;2;0;0;1;1;1;2;0;2;0;2;2;2;2;2;2;2;2;1;1;1;1;1;1;1;1;1;1;1;1;1;2;1;1;1;1;1;2;2;0;2;1;1;2;2;2;2;2;2;2;1;1;2;1;
163;OK;1;1;1;1;1;1;1;2;2;2;1;1;2;2;2;2;2;2;1;1;1;2;0;0;0;0;0;0;0;1;1;1;1;1;2;2;0;0;1;1;1;2;0;2;0;2;2;2;2;2;2;2;2;1;1;1;1;1;1;1;1;1;1;1;1;1;2;1;1;1;1;1;2;2;2;2;1;1;2;2;2;2;2;2;2;1;1;2;1;
164;OK;1;1;1;1;1;1;1;2;2;2;1;1;2;2;2;2;2;2;1;1;1;2;0;0;0;0;0;0;0;1;1;1;1;1;2;2;0;0;1;1;1;2;0;2;2;2;2;2;2;2;2;2;2;1;1;1;1;1;1;1;1;1;1;1;1;1;2;1;1;1;1;1;2;0;0;2;1;1;2;2;2;2;2;2;2;1;1;2;1;
165;OK;1;1;1;1;1;1;1;2;2;2;1;1;2;2;2;2;2;2;1;1;1;2;0;0;0;0;0;0;0;1;1;1;1;1;2;2;0;0;1;1;1;2;0;2;2;2;2;2;2;2;2;2;2;1;1;1;1;1;1;1;1;1;1;1;1;1;2;1;1;1;1;1;2;0;2;2;1;1;2;2;2;2;2;2;2;1;1;2;1;
166;OK;1;1;1;1;1;1;1;2;2;2;1;1;2;2;2;2;2;2;1;1;1;2;0;0;0;0;0;0;0;1;1;1;1;1;2;2;0;0;1;1;1;2;0;2;2;2;2;2;2;2;2;2;2;1;1;1;1;1;1;1;1;1;1;1;1;1;2;1;1;1;1;1;2;2;0;2;1;1;2;2;2;2;2;2;2;1;1;2;1;
167;OK;1;1;1;1;1;1;1;2;2;2;1;1;2;2;2;2;2;2;1;1;1;2;0;0;0;0;0;0;0;1;1;1;1;1;2;2;0;0;1;1;1;2;0;2;2;2;2;2;2;2;2;2;2;1;1;1;1;1;1;1;1;1;1;1;1;1;2;1;1;1;1;1;2;2;2;2;1;1;2;2;2;2;2;2;2;1;1;2;1;
168;OK;1;1;1;1;1;1;1;2;2;2;1;1;2;2;2;2;2;2;1;1;1;2;0;0;0;0;0;0;0;1;1;1;1;1;2;2;0;0;1;1;1;2;2;2;0;2;2;2;2;2;2;2;2;1;1;1;1;1;1;1;1;1;1;1;1;1;2;1;1;1;1;1;2;0;0;2;1;1;2;2;2;2;2;2;2;1;1;2;1;
169;OK;1;1;1;1;1;1;1;2;2;2;1;1;2;2;2;2;2;2;1;1;1;2;0;0;0;0;0;0;0;1;1;1;1;1;2;2;0;0;1;1;1;2;2;2;0;2;2;2;2;2;2;2;2;1;1;1;1;1;1;1;1;1;1;1;1;1;2;1;1;1;1;1;2;0;2;2;1;1;2;2;2;2;2;2;2;1;1;2;1;
170;OK;1;1;1;1;1;1;1;2;2;2;1;1;2;2;2;2;2;2;1;1;1;2;0;0;0;0;0;0;0;1;1;1;1;1;2;2;0;0;1;1;1;2;2;2;0;2;2;2;2;2;2;2;2;1;1;1;1;1;1;1;1;1;1;1;1;1;2;1;1;1;1;1;2;2;0;2;1;1;2;2;2;2;2;2;2;1;1;2;1;
171;OK;1;1;1;1;1;1;1;2;2;2;1;1;2;2;2;2;2;2;1;1;1;2;0;0;0;0;0;0;0;1;1;1;1;1;2;2;0;0;1;1;1;2;2;2;0;2;2;2;2;2;2;2;2;1;1;1;1;1;1;1;1;1;1;1;1;1;2;1;1;1;1;1;2;2;2;2;1;1;2;2;2;2;2;2;2;1;1;2;1;
172;OK;1;1;1;1;1;1;1;2;2;2;1;1;2;2;2;2;2;2;1;1;1;2;0;0;0;0;0;0;0;1;1;1;1;1;2;2;0;0;1;1;1;2;2;2;2;2;2;2;2;2;2;2;2;1;1;1;1;1;1;1;1;1;1;1;1;1;2;1;1;1;1;1;2;0;0;2;1;1;2;2;2;2;2;2;2;1;1;2;1;
173;OK;1;1;1;1;1;1;1;2;2;2;1;1;2;2;2;2;2;2;1;1;1;2;0;0;0;0;0;0;0;1;1;1;1;1;2;2;0;0;1;1;1;2;2;2;2;2;2;2;2;2;2;2;2;1;1;1;1;1;1;1;1;1;1;1;1;1;2;1;1;1;1;1;2;0;2;2;1;1;2;2;2;2;2;2;2;1;1;2;1;
174;OK;1;1;1;1;1;1;1;2;2;2;1;1;2;2;2;2;2;2;1;1;1;2;0;0;0;0;0;0;0;1;1;1;1;1;2;2;0;0;1;1;1;2;2;2;2;2;2;2;2;2;2;2;2;1;1;1;1;1;1;1;1;1;1;1;1;1;2;1;1;1;1;1;2;2;0;2;1;1;2;2;2;2;2;2;2;1;1;2;1;
175;OK;1;1;1;1;1;1;1;2;2;2;1;1;2;2;2;2;2;2;1;1;1;2;0;0;0;0;0;0;0;1;1;1;1;1;2;2;0;0;1;1;1;2;2;2;2;2;2;2;2;2;2;2;2;1;1;1;1;1;1;1;1;1;1;1;1;1;2;1;1;1;1;1;2;2;2;2;1;1;2;2;2;2;2;2;2;1;1;2;1;
176;OK;1;1;1;1;2;1;1;2;2;2;1;1;1;2;2;2;2;2;1;1;1;2;0;0;0;0;0;0;0;1;1;1;1;1;2;2;0;0;1;1;1;2;0;2;0;2;2;2;2;2;2;2;2;1;1;1;1;1;1;1;1;1;1;1;1;1;2;1;1;1;1;1;2;0;0;2;1;1;2;2;2;2;2;2;2;1;1;2;1;
177;OK;1;1;1;1;2;1;1;2;2;2;1;1;1;2;2;2;2;2;1;1;1;2;0;0;0;0;0;0;0;1;1;1;1;1;2;2;0;0;1;1;1;2;0;2;0;2;2;2;2;2;2;2;2;1;1;1;1;1;1;1;1;1;1;1;1;1;2;1;1;1;1;1;2;0;2;2;1;1;2;2;2;2;2;2;2;1;1;2;1;
178;OK;1;1;1;1;2;1;1;2;2;2;1;1;1;2;2;2;2;2;1;1;1;2;0;0;0;0;0;0;0;1;1;1;1;1;2;2;0;0;1;1;1;2;0;2;0;2;2;2;2;2;2;2;2;1;1;1;1;1;1;1;1;1;1;1;1;1;2;1;1;1;1;1;2;2;0;2;1;1;2;2;2;2;2;2;2;1;1;2;1;
179;OK;1;1;1;1;2;1;1;2;2;2;1;1;1;2;2;2;2;2;1;1;1;2;0;0;0;0;0;0;0;1;1;1;1;1;2;2;0;0;1;1;1;2;0;2;0;2;2;2;2;2;2;2;2;1;1;1;1;1;1;1;1;1;1;1;1;1;2;1;1;1;1;1;2;2;2;2;1;1;2;2;2;2;2;2;2;1;1;2;1;
180;OK;1;1;1;1;2;1;1;2;2;2;1;1;1;2;2;2;2;2;1;1;1;2;0;0;0;0;0;0;0;1;1;1;1;1;2;2;0;0;1;1;1;2;0;2;2;2;2;2;2;2;2;2;2;1;1;1;1;1;1;1;1;1;1;1;1;1;2;1;1;1;1;1;2;0;0;2;1;1;2;2;2;2;2;2;2;1;1;2;1;
181;OK;1;1;1;1;2;1;1;2;2;2;1;1;1;2;2;2;2;2;1;1;1;2;0;0;0;0;0;0;0;1;1;1;1;1;2;2;0;0;1;1;1;2;0;2;2;2;2;2;2;2;2;2;2;1;1;1;1;1;1;1;1;1;1;1;1;1;2;1;1;1;1;1;2;0;2;2;1;1;2;2;2;2;2;2;2;1;1;2;1;
182;OK;1;1;1;1;2;1;1;2;2;2;1;1;1;2;2;2;2;2;1;1;1;2;0;0;0;0;0;0;0;1;1;1;1;1;2;2;0;0;1;1;1;2;0;2;2;2;2;2;2;2;2;2;2;1;1;1;1;1;1;1;1;1;1;1;1;1;2;1;1;1;1;1;2;2;0;2;1;1;2;2;2;2;2;2;2;1;1;2;1;
183;OK;1;1;1;1;2;1;1;2;2;2;1;1;1;2;2;2;2;2;1;1;1;2;0;0;0;0;0;0;0;1;1;1;1;1;2;2;0;0;1;1;1;2;0;2;2;2;2;2;2;2;2;2;2;1;1;1;1;1;1;1;1;1;1;1;1;1;2;1;1;1;1;1;2;2;2;2;1;1;2;2;2;2;2;2;2;1;1;2;1;
184;OK;1;1;1;1;2;1;1;2;2;2;1;1;1;2;2;2;2;2;1;1;1;2;0;0;0;0;0;0;0;1;1;1;1;1;2;2;0;0;1;1;1;2;2;2;0;2;2;2;2;2;2;2;2;1;1;1;1;1;1;1;1;1;1;1;1;1;2;1;1;1;1;1;2;0;0;2;1;1;2;2;2;2;2;2;2;1;1;2;1;
185;OK;1;1;1;1;2;1;1;2;2;2;1;1;1;2;2;2;2;2;1;1;1;2;0;0;0;0;0;0;0;1;1;1;1;1;2;2;0;0;1;1;1;2;2;2;0;2;2;2;2;2;2;2;2;1;1;1;1;1;1;1;1;1;1;1;1;1;2;1;1;1;1;1;2;0;2;2;1;1;2;2;2;2;2;2;2;1;1;2;1;
186;OK;1;1;1;1;2;1;1;2;2;2;1;1;1;2;2;2;2;2;1;1;1;2;0;0;0;0;0;0;0;1;1;1;1;1;2;2;0;0;1;1;1;2;2;2;0;2;2;2;2;2;2;2;2;1;1;1;1;1;1;1;1;1;1;1;1;1;2;1;1;1;1;1;2;2;0;2;1;1;2;2;2;2;2;2;2;1;1;2;1;
187;OK;1;1;1;1;2;1;1;2;2;2;1;1;1;2;2;2;2;2;1;1;1;2;0;0;0;0;0;0;0;1;1;1;1;1;2;2;0;0;1;1;1;2;2;2;0;2;2;2;2;2;2;2;2;1;1;1;1;1;1;1;1;1;1;1;1;1;2;1;1;1;1;1;2;2;2;2;1;1;2;2;2;2;2;2;2;1;1;2;1;
188;OK;1;1;1;1;2;1;1;2;2;2;1;1;1;2;2;2;2;2;1;1;1;2;0;0;0;0;0;0;0;1;1;1;1;1;2;2;0;0;1;1;1;2;2;2;2;2;2;2;2;2;2;2;2;1;1;1;1;1;1;1;1;1;1;1;1;1;2;1;1;1;1;1;2;0;0;2;1;1;2;2;2;2;2;2;2;1;1;2;1;
189;OK;1;1;1;1;2;1;1;2;2;2;1;1;1;2;2;2;2;2;1;1;1;2;0;0;0;0;0;0;0;1;1;1;1;1;2;2;0;0;1;1;1;2;2;2;2;2;2;2;2;2;2;2;2;1;1;1;1;1;1;1;1;1;1;1;1;1;2;1;1;1;1;1;2;0;2;2;1;1;2;2;2;2;2;2;2;1;1;2;1;
190;OK;1;1;1;1;2;1;1;2;2;2;1;1;1;2;2;2;2;2;1;1;1;2;0;0;0;0;0;0;0;1;1;1;1;1;2;2;0;0;1;1;1;2;2;2;2;2;2;2;2;2;2;2;2;1;1;1;1;1;1;1;1;1;1;1;1;1;2;1;1;1;1;1;2;2;0;2;1;1;2;2;2;2;2;2;2;1;1;2;1;
191;OK;1;1;1;1;2;1;1;2;2;2;1;1;1;2;2;2;2;2;1;1;1;2;0;0;0;0;0;0;0;1;1;1;1;1;2;2;0;0;1;1;1;2;2;2;2;2;2;2;2;2;2;2;2;1;1;1;1;1;1;1;1;1;1;1;1;1;2;1;1;1;1;1;2;2;2;2;1;1;2;2;2;2;2;2;2;1;1;2;1;
192;OK;1;1;1;1;2;1;1;2;2;2;1;1;2;2;2;2;2;2;1;1;1;2;0;0;0;0;0;0;0;1;1;1;1;1;2;2;0;0;1;1;1;2;0;2;0;2;2;2;2;2;2;2;2;1;1;1;1;1;1;1;1;1;1;1;1;1;2;1;1;1;1;1;2;0;0;2;1;1;2;2;2;2;2;2;2;1;1;2;1;
193;OK;1;1;1;1;2;1;1;2;2;2;1;1;2;2;2;2;2;2;1;1;1;2;0;0;0;0;0;0;0;1;1;1;1;1;2;2;0;0;1;1;1;2;0;2;0;2;2;2;2;2;2;2;2;1;1;1;1;1;1;1;1;1;1;1;1;1;2;1;1;1;1;1;2;0;2;2;1;1;2;2;2;2;2;2;2;1;1;2;1;
194;OK;1;1;1;1;2;1;1;2;2;2;1;1;2;2;2;2;2;2;1;1;1;2;0;0;0;0;0;0;0;1;1;1;1;1;2;2;0;0;1;1;1;2;0;2;0;2;2;2;2;2;2;2;2;1;1;1;1;1;1;1;1;1;1;1;1;1;2;1;1;1;1;1;2;2;0;2;1;1;2;2;2;2;2;2;2;1;1;2;1;
195;OK;1;1;1;1;2;1;1;2;2;2;1;1;2;2;2;2;2;2;1;1;1;2;0;0;0;0;0;0;0;1;1;1;1;1;2;2;0;0;1;1;1;2;0;2;0;2;2;2;2;2;2;2;2;1;1;1;1;1;1;1;1;1;1;1;1;1;2;1;1;1;1;1;2;2;2;2;1;1;2;2;2;2;2;2;2;1;1;2;1;
196;OK;1;1;1;1;2;1;1;2;2;2;1;1;2;2;2;2;2;2;1;1;1;2;0;0;0;0;0;0;0;1;1;1;1;1;2;2;0;0;1;1;1;2;0;2;2;2;2;2;2;2;2;2;2;1;1;1;1;1;1;1;1;1;1;1;1;1;2;1;1;1;1;1;2;0;0;2;1;1;2;2;2;2;2;2;2;1;1;2;1;
197;OK;1;1;1;1;2;1;1;2;2;2;1;1;2;2;2;2;2;2;1;1;1;2;0;0;0;0;0;0;0;1;1;1;1;1;2;2;0;0;1;1;1;2;0;2;2;2;2;2;2;2;2;2;2;1;1;1;1;1;1;1;1;1;1;1;1;1;2;1;1;1;1;1;2;0;2;2;1;1;2;2;2;2;2;2;2;1;1;2;1;
198;OK;1;1;1;1;2;1;1;2;2;2;1;1;2;2;2;2;2;2;1;1;1;2;0;0;0;0;0;0;0;1;1;1;1;1;2;2;0;0;1;1;1;2;0;2;2;2;2;2;2;2;2;2;2;1;1;1;1;1;1;1;1;1;1;1;1;1;2;1;1;1;1;1;2;2;0;2;1;1;2;2;2;2;2;2;2;1;1;2;1;
199;OK;1;1;1;1;2;1;1;2;2;2;1;1;2;2;2;2;2;2;1;1;1;2;0;0;0;0;0;0;0;1;1;1;1;1;2;2;0;0;1;1;1;2;0;2;2;2;2;2;2;2;2;2;2;1;1;1;1;1;1;1;1;1;1;1;1;1;2;1;1;1;1;1;2;2;2;2;1;1;2;2;2;2;2;2;2;1;1;2;1;
200;OK;1;1;1;1;2;1;1;2;2;2;1;1;2;2;2;2;2;2;1;1;1;2;0;0;0;0;0;0;0;1;1;1;1;1;2;2;0;0;1;1;1;2;2;2;0;2;2;2;2;2;2;2;2;1;1;1;1;1;1;1;1;1;1;1;1;1;2;1;1;1;1;1;2;0;0;2;1;1;2;2;2;2;2;2;2;1;1;2;1;
201;OK;1;1;1;1;2;1;1;2;2;2;1;1;2;2;2;2;2;2;1;1;1;2;0;0;0;0;0;0;0;1;1;1;1;1;2;2;0;0;1;1;1;2;2;2;0;2;2;2;2;2;2;2;2;1;1;1;1;1;1;1;1;1;1;1;1;1;2;1;1;1;1;1;2;0;2;2;1;1;2;2;2;2;2;2;2;1;1;2;1;
202;OK;1;1;1;1;2;1;1;2;2;2;1;1;2;2;2;2;2;2;1;1;1;2;0;0;0;0;0;0;0;1;1;1;1;1;2;2;0;0;1;1;1;2;2;2;0;2;2;2;2;2;2;2;2;1;1;1;1;1;1;1;1;1;1;1;1;1;2;1;1;1;1;1;2;2;0;2;1;1;2;2;2;2;2;2;2;1;1;2;1;
203;OK;1;1;1;1;2;1;1;2;2;2;1;1;2;2;2;2;2;2;1;1;1;2;0;0;0;0;0;0;0;1;1;1;1;1;2;2;0;0;1;1;1;2;2;2;0;2;2;2;2;2;2;2;2;1;1;1;1;1;1;1;1;1;1;1;1;1;2;1;1;1;1;1;2;2;2;2;1;1;2;2;2;2;2;2;2;1;1;2;1;
204;OK;1;1;1;1;2;1;1;2;2;2;1;1;2;2;2;2;2;2;1;1;1;2;0;0;0;0;0;0;0;1;1;1;1;1;2;2;0;0;1;1;1;2;2;2;2;2;2;2;2;2;2;2;2;1;1;1;1;1;1;1;1;1;1;1;1;1;2;1;1;1;1;1;2;0;0;2;1;1;2;2;2;2;2;2;2;1;1;2;1;
205;OK;1;1;1;1;2;1;1;2;2;2;1;1;2;2;2;2;2;2;1;1;1;2;0;0;0;0;0;0;0;1;1;1;1;1;2;2;0;0;1;1;1;2;2;2;2;2;2;2;2;2;2;2;2;1;1;1;1;1;1;1;1;1;1;1;1;1;2;1;1;1;1;1;2;0;2;2;1;1;2;2;2;2;2;2;2;1;1;2;1;
206;OK;1;1;1;1;2;1;1;2;2;2;1;1;2;2;2;2;2;2;1;1;1;2;0;0;0;0;0;0;0;1;1;1;1;1;2;2;0;0;1;1;1;2;2;2;2;2;2;2;2;2;2;2;2;1;1;1;1;1;1;1;1;1;1;1;1;1;2;1;1;1;1;1;2;2;0;2;1;1;2;2;2;2;2;2;2;1;1;2;1;
207;OK;1;1;1;1;2;1;1;2;2;2;1;1;2;2;2;2;2;2;1;1;1;2;0;0;0;0;0;0;0;1;1;1;1;1;2;2;0;0;1;1;1;2;2;2;2;2;2;2;2;2;2;2;2;1;1;1;1;1;1;1;1;1;1;1;1;1;2;1;1;1;1;1;2;2;2;2;1;1;2;2;2;2;2;2;2;1;1;2;1;
208;OK;1;1;1;2;1;1;1;2;2;2;1;1;2;2;2;2;2;2;1;1;1;2;0;0;0;0;0;0;0;1;1;1;1;1;2;2;0;0;1;1;1;2;0;2;0;2;2;2;2;2;2;2;2;1;1;1;1;1;1;1;1;1;1;1;1;1;2;1;1;1;1;1;2;0;0;2;1;1;2;2;2;2;2;2;2;1;1;2;1;
209;OK;1;1;1;2;1;1;1;2;2;2;1;1;2;2;2;2;2;2;1;1;1;2;0;0;0;0;0;0;0;1;1;1;1;1;2;2;0;0;1;1;1;2;0;2;0;2;2;2;2;2;2;2;2;1;1;1;1;1;1;1;1;1;1;1;1;1;2;1;1;1;1;1;2;0;2;2;1;1;2;2;2;2;2;2;2;1;1;2;1;
210;OK;1;1;1;2;1;1;1;2;2;2;1;1;2;2;2;2;2;2;1;1;1;2;0;0;0;0;0;0;0;1;1;1;1;1;2;2;0;0;1;1;1;2;0;2;0;2;2;2;2;2;2;2;2;1;1;1;1;1;1;1;1;1;1;1;1;1;2;1;1;1;1;1;2;2;0;2;1;1;2;2;2;2;2;2;2;1;1;2;1;
211;OK;1;1;1;2;1;1;1;2;2;2;1;1;2;2;2;2;2;2;1;1;1;2;0;0;0;0;0;0;0;1;1;1;1;1;2;2;0;0;1;1;1;2;0;2;0;2;2;2;2;2;2;2;2;1;1;1;1;1;1;1;1;1;1;1;1;1;2;1;1;1;1;1;2;2;2;2;1;1;2;2;2;2;2;2;2;1;1;2;1;
212;OK;1;1;1;2;1;1;1;2;2;2;1;1;2;2;2;2;2;2;1;1;1;2;0;0;0;0;0;0;0;1;1;1;1;1;2;2;0;0;1;1;1;2;0;2;2;2;2;2;2;2;2;2;2;1;1;1;1;1;1;1;1;1;1;1;1;1;2;1;1;1;1;1;2;0;0;2;1;1;2;2;2;2;2;2;2;1;1;2;1;
213;OK;1;1;1;2;1;1;1;2;2;2;1;1;2;2;2;2;2;2;1;1;1;2;0;0;0;0;0;0;0;1;1;1;1;1;2;2;0;0;1;1;1;2;0;2;2;2;2;2;2;2;2;2;2;1;1;1;1;1;1;1;1;1;1;1;1;1;2;1;1;1;1;1;2;0;2;2;1;1;2;2;2;2;2;2;2;1;1;2;1;
214;OK;1;1;1;2;1;1;1;2;2;2;1;1;2;2;2;2;2;2;1;1;1;2;0;0;0;0;0;0;0;1;1;1;1;1;2;2;0;0;1;1;1;2;0;2;2;2;2;2;2;2;2;2;2;1;1;1;1;1;1;1;1;1;1;1;1;1;2;1;1;1;1;1;2;2;0;2;1;1;2;2;2;2;2;2;2;1;1;2;1;
215;OK;1;1;1;2;1;1;1;2;2;2;1;1;2;2;2;2;2;2;1;1;1;2;0;0;0;0;0;0;0;1;1;1;1;1;2;2;0;0;1;1;1;2;0;2;2;2;2;2;2;2;2;2;2;1;1;1;1;1;1;1;1;1;1;1;1;1;2;1;1;1;1;1;2;2;2;2;1;1;2;2;2;2;2;2;2;1;1;2;1;
216;OK;1;1;1;2;1;1;1;2;2;2;1;1;2;2;2;2;2;2;1;1;1;2;0;0;0;0;0;0;0;1;1;1;1;1;2;2;0;0;1;1;1;2;2;2;0;2;2;2;2;2;2;2;2;1;1;1;1;1;1;1;1;1;1;1;1;1;2;1;1;1;1;1;2;0;0;2;1;1;2;2;2;2;2;2;2;1;1;2;1;
217;OK;1;1;1;2;1;1;1;2;2;2;1;1;2;2;2;2;2;2;1;1;1;2;0;0;0;0;0;0;0;1;1;1;1;1;2;2;0;0;1;1;1;2;2;2;0;2;2;2;2;2;2;2;2;1;1;1;1;1;1;1;1;1;1;1;1;1;2;1;1;1;1;1;2;0;2;2;1;1;2;2;2;2;2;2;2;1;1;2;1;
218;OK;1;1;1;2;1;1;1;2;2;2;1;1;2;2;2;2;2;2;1;1;1;2;0;0;0;0;0;0;0;1;1;1;1;1;2;2;0;0;1;1;1;2;2;2;0;2;2;2;2;2;2;2;2;1;1;1;1;1;1;1;1;1;1;1;1;1;2;1;1;1;1;1;2;2;0;2;1;1;2;2;2;2;2;2;2;1;1;2;1;
219;OK;1;1;1;2;1;1;1;2;2;2;1;1;2;2;2;2;2;2;1;1;1;2;0;0;0;0;0;0;0;1;1;1;1;1;2;2;0;0;1;1;1;2;2;2;0;2;2;2;2;2;2;2;2;1;1;1;1;1;1;1;1;1;1;1;1;1;2;1;1;1;1;1;2;2;2;2;1;1;2;2;2;2;2;2;2;1;1;2;1;
220;OK;1;1;1;2;1;1;1;2;2;2;1;1;2;2;2;2;2;2;1;1;1;2;0;0;0;0;0;0;0;1;1;1;1;1;2;2;0;0;1;1;1;2;2;2;2;2;2;2;2;2;2;2;2;1;1;1;1;1;1;1;1;1;1;1;1;1;2;1;1;1;1;1;2;0;0;2;1;1;2;2;2;2;2;2;2;1;1;2;1;
221;OK;1;1;1;2;1;1;1;2;2;2;1;1;2;2;2;2;2;2;1;1;1;2;0;0;0;0;0;0;0;1;1;1;1;1;2;2;0;0;1;1;1;2;2;2;2;2;2;2;2;2;2;2;2;1;1;1;1;1;1;1;1;1;1;1;1;1;2;1;1;1;1;1;2;0;2;2;1;1;2;2;2;2;2;2;2;1;1;2;1;
222;OK;1;1;1;2;1;1;1;2;2;2;1;1;2;2;2;2;2;2;1;1;1;2;0;0;0;0;0;0;0;1;1;1;1;1;2;2;0;0;1;1;1;2;2;2;2;2;2;2;2;2;2;2;2;1;1;1;1;1;1;1;1;1;1;1;1;1;2;1;1;1;1;1;2;2;0;2;1;1;2;2;2;2;2;2;2;1;1;2;1;
223;OK;1;1;1;2;1;1;1;2;2;2;1;1;2;2;2;2;2;2;1;1;1;2;0;0;0;0;0;0;0;1;1;1;1;1;2;2;0;0;1;1;1;2;2;2;2;2;2;2;2;2;2;2;2;1;1;1;1;1;1;1;1;1;1;1;1;1;2;1;1;1;1;1;2;2;2;2;1;1;2;2;2;2;2;2;2;1;1;2;1;
224;OK;1;1;1;2;2;1;1;2;2;2;1;1;2;2;2;2;2;2;1;1;1;2;0;0;0;0;0;0;0;1;1;1;1;1;2;2;0;0;1;1;1;2;0;2;0;2;2;2;2;2;2;2;2;1;1;1;1;1;1;1;1;1;1;1;1;1;2;1;1;1;1;1;2;0;0;2;1;1;2;2;2;2;2;2;2;1;1;2;1;
225;OK;1;1;1;2;2;1;1;2;2;2;1;1;2;2;2;2;2;2;1;1;1;2;0;0;0;0;0;0;0;1;1;1;1;1;2;2;0;0;1;1;1;2;0;2;0;2;2;2;2;2;2;2;2;1;1;1;1;1;1;1;1;1;1;1;1;1;2;1;1;1;1;1;2;0;2;2;1;1;2;2;2;2;2;2;2;1;1;2;1;
226;OK;1;1;1;2;2;1;1;2;2;2;1;1;2;2;2;2;2;2;1;1;1;2;0;0;0;0;0;0;0;1;1;1;1;1;2;2;0;0;1;1;1;2;0;2;0;2;2;2;2;2;2;2;2;1;1;1;1;1;1;1;1;1;1;1;1;1;2;1;1;1;1;1;2;2;0;2;1;1;2;2;2;2;2;2;2;1;1;2;1;
227;OK;1;1;1;2;2;1;1;2;2;2;1;1;2;2;2;2;2;2;1;1;1;2;0;0;0;0;0;0;0;1;1;1;1;1;2;2;0;0;1;1;1;2;0;2;0;2;2;2;2;2;2;2;2;1;1;1;1;1;1;1;1;1;1;1;1;1;2;1;1;1;1;1;2;2;2;2;1;1;2;2;2;2;2;2;2;1;1;2;1;
228;OK;1;1;1;2;2;1;1;2;2;2;1;1;2;2;2;2;2;2;1;1;1;2;0;0;0;0;0;0;0;1;1;1;1;1;2;2;0;0;1;1;1;2;0;2;2;2;2;2;2;2;2;2;2;1;1;1;1;1;1;1;1;1;1;1;1;1;2;1;1;1;1;1;2;0;0;2;1;1;2;2;2;2;2;2;2;1;1;2;1;
229;OK;1;1;1;2;2;1;1;2;2;2;1;1;2;2;2;2;2;2;1;1;1;2;0;0;0;0;0;0;0;1;1;1;1;1;2;2;0;0;1;1;1;2;0;2;2;2;2;2;2;2;2;2;2;1;1;1;1;1;1;1;1;1;1;1;1;1;2;1;1;1;1;1;2;0;2;2;1;1;2;2;2;2;2;2;2;1;1;2;1;
230;OK;1;1;1;2;2;1;1;2;2;2;1;1;2;2;2;2;2;2;1;1;1;2;0;0;0;0;0;0;0;1;1;1;1;1;2;2;0;0;1;1;1;2;0;2;2;2;2;2;2;2;2;2;2;1;1;1;1;1;1;1;1;1;1;1;1;1;2;1;1;1;1;1;2;2;0;2;1;1;2;2;2;2;2;2;2;1;1;2;1;
231;OK;1;1;1;2;2;1;1;2;2;2;1;1;2;2;2;2;2;2;1;1;1;2;0;0;0;0;0;0;0;1;1;1;1;1;2;2;0;0;1;1;1;2;0;2;2;2;2;2;2;2;2;2;2;1;1;1;1;1;1;1;1;1;1;1;1;1;2;1;1;1;1;1;2;2;2;2;1;1;2;2;2;2;2;2;2;1;1;2;1;
232;OK;1;1;1;2;2;1;1;2;2;2;1;1;2;2;2;2;2;2;1;1;1;2;0;0;0;0;0;0;0;1;1;1;1;1;2;2;0;0;1;1;1;2;2;2;0;2;2;2;2;2;2;2;2;1;1;1;1;1;1;1;1;1;1;1;1;1;2;1;1;1;1;1;2;0;0;2;1;1;2;2;2;2;2;2;2;1;1;2;1;
233;OK;1;1;1;2;2;1;1;2;2;2;1;1;2;2;2;2;2;2;1;1;1;2;0;0;0;0;0;0;0;1;1;1;1;1;2;2;0;0;1;1;1;2;2;2;0;2;2;2;2;2;2;2;2;1;1;1;1;1;1;1;1;1;1;1;1;1;2;1;1;1;1;1;2;0;2;2;1;1;2;2;2;2;2;2;2;1;1;2;1;
234;OK;1;1;1;2;2;1;1;2;2;2;1;1;2;2;2;2;2;2;1;1;1;2;0;0;0;0;0;0;0;1;1;1;1;1;2;2;0;0;1;1;1;2;2;2;0;2;2;2;2;2;2;2;2;1;1;1;1;1;1;1;1;1;1;1;1;1;2;1;1;1;1;1;2;2;0;2;1;1;2;2;2;2;2;2;2;1;1;2;1;
235;OK;1;1;1;2;2;1;1;2;2;2;1;1;2;2;2;2;2;2;1;1;1;2;0;0;0;0;0;0;0;1;1;1;1;1;2;2;0;0;1;1;1;2;2;2;0;2;2;2;2;2;2;2;2;1;1;1;1;1;1;1;1;1;1;1;1;1;2;1;1;1;1;1;2;2;2;2;1;1;2;2;2;2;2;2;2;1;1;2;1;
236;OK;1;1;1;2;2;1;1;2;2;2;1;1;2;2;2;2;2;2;1;1;1;2;0;0;0;0;0;0;0;1;1;1;1;1;2;2;0;0;1;1;1;2;2;2;2;2;2;2;2;2;2;2;2;1;1;1;1;1;1;1;1;1;1;1;1;1;2;1;1;1;1;1;2;0;0;2;1;1;2;2;2;2;2;2;2;1;1;2;1;
237;OK;1;1;1;2;2;1;1;2;2;2;1;1;2;2;2;2;2;2;1;1;1;2;0;0;0;0;0;0;0;1;1;1;1;1;2;2;0;0;1;1;1;2;2;2;2;2;2;2;2;2;2;2;2;1;1;1;1;1;1;1;1;1;1;1;1;1;2;1;1;1;1;1;2;0;2;2;1;1;2;2;2;2;2;2;2;1;1;2;1;
238;OK;1;1;1;2;2;1;1;2;2;2;1;1;2;2;2;2;2;2;1;1;1;2;0;0;0;0;0;0;0;1;1;1;1;1;2;2;0;0;1;1;1;2;2;2;2;2;2;2;2;2;2;2;2;1;1;1;1;1;1;1;1;1;1;1;1;1;2;1;1;1;1;1;2;2;0;2;1;1;2;2;2;2;2;2;2;1;1;2;1;
239;OK;1;1;1;2;2;1;1;2;2;2;1;1;2;2;2;2;2;2;1;1;1;2;0;0;0;0;0;0;0;1;1;1;1;1;2;2;0;0;1;1;1;2;2;2;2;2;2;2;2;2;2;2;2;1;1;1;1;1;1;1;1;1;1;1;1;1;2;1;1;1;1;1;2;2;2;2;1;1;2;2;2;2;2;2;2;1;1;2;1;
