Context,,,,phenotype,,,,,,,,,
ENV,,,,,,,,,,,,,
FA,exO2,GLC,AA,ATP,O2,GLYC,nLBP,LBP,FERM,KREBS,PHOX,NADH,NCD
0,0,0,0,TDS-0,TDS-0,TDS-0,TDS-0,TDS-0,TDS-0,TDS-0,TDS-0,TDS-0,TDS-0
0,0,0,1,,TDS-0,,,,,,,,
0,0,0,2,,TDS-0,,,,,,,,
0,0,1,0,!TDS-0,TDS-0,osc(0-1),,,!TDS-0,,TDS-0,OSC-1,TDS-0
0,0,1,1,OSC-2,TDS-0,osc(0-1),!TDS-0,,!TDS-0,,TDS-0,OSC-1,TDS-1
0,0,1,2,OSC-2,TDS-0,OSC-2,!TDS-0,!TDS-0,!TDS-0,,TDS-0,OSC-1,TDS-2
0,0,2,0,!TDS-0,TDS-0,OSC-2,,,!TDS-0,,TDS-0,OSC-1,TDS-0
0,0,2,1,OSC-2,TDS-0,OSC-2,!TDS-0,,!TDS-0,,TDS-0,OSC-1,TDS-1
0,0,2,2,OSC-2,TDS-0,OSC-2,!TDS-0,!TDS-0,!TDS-0,,TDS-0,OSC-1,TDS-2
0,1,0,0,TDS-0,!TDS-0,TDS-0,TDS-0,TDS-0,,TDS-0,TDS-0,TDS-0,TDS-0
0,1,0,1,,!TDS-0,,,,,,,,
0,1,0,2,,!TDS-0,,,,,,,,
0,1,1,0,!TDS-0,!TDS-0,OSC-2,,,TDS-0,OSC-2,OSC-1,OSC-1,TDS-0
0,1,1,1,OSC-2,!TDS-0,OSC-2,!TDS-0,,TDS-0,OSC-2,OSC-1,OSC-1,TDS-1
0,1,1,2,OSC-2,!TDS-0,OSC-2,!TDS-0,!TDS-0,TDS-0,OSC-2,OSC-1,OSC-1,TDS-2
0,1,2,0,!TDS-0,!TDS-0,OSC-2,,,!TDS-0,,!TDS-1,OSC-1,TDS-0
0,1,2,1,OSC-2,!TDS-0,OSC-2,!TDS-0,!TDS-0,!TDS-0,,!TDS-1,OSC-1,TDS-1
0,1,2,2,,!TDS-0,OSC-2,!TDS-0,!TDS-0,!TDS-0,,!TDS-1,OSC-1,TDS-2
1,0,0,0,TDS-0,TDS-0,TDS-0,TDS-0,TDS-0,TDS-0,TDS-0,TDS-0,TDS-0,TDS-0
1,0,0,1,,TDS-0,,,,,,,,
1,0,0,2,,TDS-0,,,,,,,,
1,0,1,0,OSC-2,TDS-0,osc(0-1),,!TDS-0,!TDS-0,,TDS-0,OSC-1,TDS-0
1,0,1,1,OSC-2,TDS-0,osc(0-1),!TDS-0,!TDS-0,!TDS-0,,TDS-0,OSC-1,TDS-1
1,0,1,2,OSC-2,TDS-0,OSC-2,!TDS-0,!TDS-0,!TDS-0,,TDS-0,OSC-1,TDS-2
1,0,2,0,OSC-2,TDS-0,OSC-2,,!TDS-0,!TDS-0,,TDS-0,OSC-1,TDS-0
1,0,2,1,OSC-2,TDS-0,OSC-2,!TDS-0,!TDS-0,!TDS-0,,TDS-0,OSC-1,TDS-1
1,0,2,2,OSC-2,TDS-0,OSC-2,!TDS-0,!TDS-0,!TDS-0,,TDS-0,OSC-1,TDS-2
1,1,0,0,TDS-0,!TDS-0,TDS-0,TDS-0,TDS-0,,TDS-0,TDS-0,TDS-0,TDS-0
1,1,0,1,,!TDS-0,,,,,,,,
1,1,0,2,,!TDS-0,,,,,,,,
1,1,1,0,OSC-2,!TDS-0,OSC-2,,!TDS-0,TDS-0,OSC-2,OSC-1,OSC-1,TDS-0
1,1,1,1,OSC-2,!TDS-0,OSC-2,!TDS-0,!TDS-0,TDS-0,OSC-2,OSC-1,OSC-1,TDS-1
1,1,1,2,OSC-2,!TDS-0,OSC-2,!TDS-0,!TDS-0,,OSC-2,OSC-1,OSC-1,TDS-2
1,1,2,0,OSC-2,!TDS-0,OSC-2,,!TDS-0,!TDS-0,,!TDS-1,OSC-1,TDS-0
1,1,2,1,OSC-2,!TDS-0,OSC-2,!TDS-0,!TDS-0,!TDS-0,,!TDS-1,OSC-1,TDS-1
1,1,2,2,OSC-2,!TDS-0,OSC-2,!TDS-0,!TDS-0,!TDS-0,,!TDS-1,OSC-1,TDS-2
