n°;valid;K_ATP;K_ATP:PHOXa;K_ATP:glyc1;K_ATP:noLBPa;K_ATP:nonLBPa;K_ATP:PHOXa:glyc1;K_ATP:glyc1:glyc2;K_ATP:glyc1:noLBPa;K_ATP:glyc1:nonLBPa;K_ATP:PHOXa:noLBPa;K_ATP:noLBPa:nonLBPa;K_ATP:PHOXa:nonLBPa;K_ATP:glyc1:glyc2:nonLBPa;K_ATP:PHOXa:noLBPa:nonLBPa;K_ATP:glyc1:noLBPa:nonLBPa;K_ATP:PHOXa:glyc1:noLBPa;K_ATP:PHOXa:glyc1:nonLBPa;K_ATP:PHOXa:glyc1:glyc2;K_ATP:glyc1:glyc2:noLBPa;K_ATP:glyc1:glyc2:noLBPa:nonLBPa;K_ATP:PHOXa:glyc1:glyc2:noLBPa;K_ATP:PHOXa:glyc1:noLBPa:nonLBPa;K_ATP:PHOXa:glyc1:glyc2:nonLBPa;K_ATP:PHOXa:glyc1:glyc2:noLBPa:nonLBPa;K_ATP:glyc2;K_ATP:PHOXa:glyc2;K_ATP:glyc2:noLBPa;K_ATP:glyc2:nonLBPa;K_ATP:PHOXa:glyc2:noLBPa;K_ATP:PHOXa:glyc2:nonLBPa;K_ATP:glyc2:noLBPa:nonLBPa;K_ATP:PHOXa:glyc2:noLBPa:nonLBPa;K_O2;K_O2:PHOXo;K_O2:exO2o;K_O2:PHOXo:exO2o;K_GLYC:glc1;K_GLYC:COF:glc1;K_GLYC:glc1:noGR;K_GLYC:COF:glc1:noGR;K_GLYC;K_GLYC:COF;K_GLYC:noGR;K_GLYC:glc2;K_GLYC:COF:noGR;K_GLYC:COF:glc2;K_GLYC:glc2:noGR;K_GLYC:glc1:glc2;K_GLYC:COF:glc2:noGR;K_GLYC:COF:glc1:glc2;K_GLYC:glc1:glc2:noGR;K_GLYC:COF:glc1:glc2:noGR;K_nLBP;K_nLBP:AAS;K_nLBP:PPP;K_nLBP:AAS:PPP;K_LBP;K_LBP:noBOX;K_LBP:LS:noBOX;K_LBP:LS;K_NCD:aa1:aa2;K_NCD:KREBSd:aa1:aa2;K_NCD;K_NCD:KREBSd;K_NCD:aa1;K_NCD:aa2;K_NCD:KREBSd:aa1;K_NCD:KREBSd:aa2;K_FERM;K_FERM:EP;K_NADH;K_NADH:FERMn;K_NADH:GLYCf;K_NADH:KREBSn;K_NADH:PHOXn;K_NADH:noAAS;K_NADH:FERMn:GLYCf;K_NADH:GLYCf:KREBSn;K_NADH:GLYCf:PHOXn;K_NADH:GLYCf:noAAS;K_NADH:FERMn:KREBSn;K_NADH:KREBSn:PHOXn;K_NADH:KREBSn:noAAS;K_NADH:FERMn:PHOXn;K_NADH:PHOXn:noAAS;K_NADH:FERMn:noAAS;K_NADH:FERMn:KREBSn:noAAS;K_NADH:GLYCf:PHOXn:noAAS;K_NADH:FERMn:GLYCf:PHOXn;K_NADH:FERMn:PHOXn:noAAS;K_NADH:FERMn:GLYCf:noAAS;K_NADH:KREBSn:PHOXn:noAAS;K_NADH:FERMn:GLYCf:KREBSn;K_NADH:FERMn:KREBSn:PHOXn;K_NADH:GLYCf:KREBSn:PHOXn;K_NADH:GLYCf:KREBSn:noAAS;K_NADH:FERMn:GLYCf:KREBSn:noAAS;K_NADH:FERMn:GLYCf:KREBSn:PHOXn;K_NADH:FERMn:GLYCf:PHOXn:noAAS;K_NADH:GLYCf:KREBSn:PHOXn:noAAS;K_NADH:FERMn:KREBSn:PHOXn:noAAS;K_NADH:FERMn:GLYCf:KREBSn:PHOXn:noAAS;K_NADH:GOT1;K_NADH:GLYCf:GOT1;K_NADH:GOT1:noAAS;K_NADH:GOT1:KREBSn;K_NADH:GOT1:PHOXn;K_NADH:FERMn:GOT1;K_NADH:GLYCf:GOT1:noAAS;K_NADH:GLYCf:GOT1:KREBSn;K_NADH:GLYCf:GOT1:PHOXn;K_NADH:FERMn:GLYCf:GOT1;K_NADH:GOT1:KREBSn:noAAS;K_NADH:GOT1:PHOXn:noAAS;K_NADH:FERMn:GOT1:noAAS;K_NADH:GOT1:KREBSn:PHOXn;K_NADH:FERMn:GOT1:KREBSn;K_NADH:FERMn:GOT1:PHOXn;K_NADH:GLYCf:GOT1:KREBSn:noAAS;K_NADH:GLYCf:GOT1:PHOXn:noAAS;K_NADH:FERMn:GLYCf:GOT1:noAAS;K_NADH:GLYCf:GOT1:KREBSn:PHOXn;K_NADH:FERMn:GLYCf:GOT1:KREBSn;K_NADH:FERMn:GLYCf:GOT1:PHOXn;K_NADH:GOT1:KREBSn:PHOXn:noAAS;K_NADH:FERMn:GOT1:KREBSn:noAAS;K_NADH:FERMn:GOT1:PHOXn:noAAS;K_NADH:FERMn:GOT1:KREBSn:PHOXn;K_NADH:GLYCf:GOT1:KREBSn:PHOXn:noAAS;K_NADH:FERMn:GLYCf:GOT1:KREBSn:noAAS;K_NADH:FERMn:GLYCf:GOT1:PHOXn:noAAS;K_NADH:FERMn:GLYCf:GOT1:KREBSn:PHOXn;K_NADH:FERMn:GOT1:KREBSn:PHOXn:noAAS;K_NADH:FERMn:GLYCf:GOT1:KREBSn:PHOXn:noAAS;K_KREBS;K_KREBS:AnO;K_KREBS:BOX;K_KREBS:AnO:SAT;K_KREBS:SAT;K_KREBS:AnO:BOX;K_KREBS:BOX:SAT;K_KREBS:AnO:BOX:SAT;K_PHOX;K_PHOX:PC;K_ROS;K_ROS:metin;K_ROS:noROS;K_ROS:metin:noROS;K_ROS:ACT;K_ROS:ACT:noROS;K_ROS:ACT:metin;K_ROS:ACT:metin:noROS;K_MET;K_MET:EMT;Error explanation
;;0..0;1..1;0..0;0..0;0..0;1..1;1..1;0..2;0..0;1..2;0..0;1..1;1..1;2..2;2..2;1..2;1..1;1..1;1..2;2..2;1..2;2..2;2..2;2..2;0..2;0..2;0..2;0..2;0..2;0..2;0..2;0..2;0..0;0..0;0..1;0..1;0..0;0..0;0..0;1..1;0..2;0..2;0..2;0..2;0..2;0..2;0..2;0..2;0..2;0..2;0..2;0..2;0..0;1..1;1..1;1..1;0..0;0..0;1..1;0..1;2..2;2..2;0..2;0..2;0..2;0..2;0..2;0..2;0..0;1..1;0..0;0..0;0..0;0..0;0..0;0..0;0..0;0..0;0..0;0..0;0..0;2..2;0..0;0..0;0..0;0..0;0..0;0..0;2..2;0..0;0..0;2..2;0..2;2..2;2..2;0..0;2..2;2..2;2..2;2..2;2..2;2..2;0..2;0..2;0..2;0..2;0..2;0..2;0..2;0..2;0..2;0..2;0..2;0..2;0..2;0..2;0..2;0..2;0..2;0..2;0..2;0..2;0..2;0..2;0..2;0..2;0..2;0..2;0..2;0..2;0..2;0..2;0..2;0..2;0..0;1..1;1..1;2..2;0..2;0..2;0..2;0..2;0..0;1..1;0..0;0..3;0..0;0..0;0..3;0..3;0..3;0..3;0..1;0..1;;
1;OK;0;1;0;0;0;1;1;0;0;1;0;1;1;2;2;1;1;1;1;2;1;2;2;2;-;-;-;-;-;-;-;-;0;0;-;-;0;0;0;1;-;-;-;-;-;-;-;-;-;-;-;-;0;1;1;1;0;0;1;-;2;2;-;-;-;-;-;-;0;1;0;0;0;0;0;0;0;0;0;0;0;2;0;0;0;0;0;0;2;0;0;2;0;2;2;0;2;2;2;2;2;2;-;-;-;-;-;-;-;-;-;-;-;-;-;-;-;-;-;-;-;-;-;-;-;-;-;-;-;-;-;-;-;-;0;1;1;2;-;-;-;-;0;1;0;0;0;0;-;-;-;-;0;-;
2;OK;0;1;0;0;0;1;1;1;0;1;0;1;1;2;2;1;1;1;1;2;1;2;2;2;-;-;-;-;-;-;-;-;0;0;-;-;0;0;0;1;-;-;-;-;-;-;-;-;-;-;-;-;0;1;1;1;0;0;1;-;2;2;-;-;-;-;-;-;0;1;0;0;0;0;0;0;0;0;0;0;0;2;0;0;0;0;0;0;2;0;0;2;0;2;2;0;2;2;2;2;2;2;-;-;-;-;-;-;-;-;-;-;-;-;-;-;-;-;-;-;-;-;-;-;-;-;-;-;-;-;-;-;-;-;0;1;1;2;-;-;-;-;0;1;0;0;0;0;-;-;-;-;0;-;
3;OK;0;1;0;0;0;1;1;0;0;1;0;1;1;2;2;1;1;1;1;2;2;2;2;2;-;-;-;-;-;-;-;-;0;0;-;-;0;0;0;1;-;-;-;-;-;-;-;-;-;-;-;-;0;1;1;1;0;0;1;-;2;2;-;-;-;-;-;-;0;1;0;0;0;0;0;0;0;0;0;0;0;2;0;0;0;0;0;0;2;0;0;2;0;2;2;0;2;2;2;2;2;2;-;-;-;-;-;-;-;-;-;-;-;-;-;-;-;-;-;-;-;-;-;-;-;-;-;-;-;-;-;-;-;-;0;1;1;2;-;-;-;-;0;1;0;0;0;0;-;-;-;-;0;-;
4;OK;0;1;0;0;0;1;1;0;0;1;0;1;1;2;2;2;1;1;1;2;2;2;2;2;-;-;-;-;-;-;-;-;0;0;-;-;0;0;0;1;-;-;-;-;-;-;-;-;-;-;-;-;0;1;1;1;0;0;1;-;2;2;-;-;-;-;-;-;0;1;0;0;0;0;0;0;0;0;0;0;0;2;0;0;0;0;0;0;2;0;0;2;0;2;2;0;2;2;2;2;2;2;-;-;-;-;-;-;-;-;-;-;-;-;-;-;-;-;-;-;-;-;-;-;-;-;-;-;-;-;-;-;-;-;0;1;1;2;-;-;-;-;0;1;0;0;0;0;-;-;-;-;0;-;
5;OK;0;1;0;0;0;1;1;1;0;1;0;1;1;2;2;2;1;1;1;2;2;2;2;2;-;-;-;-;-;-;-;-;0;0;-;-;0;0;0;1;-;-;-;-;-;-;-;-;-;-;-;-;0;1;1;1;0;0;1;-;2;2;-;-;-;-;-;-;0;1;0;0;0;0;0;0;0;0;0;0;0;2;0;0;0;0;0;0;2;0;0;2;0;2;2;0;2;2;2;2;2;2;-;-;-;-;-;-;-;-;-;-;-;-;-;-;-;-;-;-;-;-;-;-;-;-;-;-;-;-;-;-;-;-;0;1;1;2;-;-;-;-;0;1;0;0;0;0;-;-;-;-;0;-;
6;OK;0;1;0;0;0;1;1;0;0;2;0;1;1;2;2;2;1;1;1;2;2;2;2;2;-;-;-;-;-;-;-;-;0;0;-;-;0;0;0;1;-;-;-;-;-;-;-;-;-;-;-;-;0;1;1;1;0;0;1;-;2;2;-;-;-;-;-;-;0;1;0;0;0;0;0;0;0;0;0;0;0;2;0;0;0;0;0;0;2;0;0;2;0;2;2;0;2;2;2;2;2;2;-;-;-;-;-;-;-;-;-;-;-;-;-;-;-;-;-;-;-;-;-;-;-;-;-;-;-;-;-;-;-;-;0;1;1;2;-;-;-;-;0;1;0;0;0;0;-;-;-;-;0;-;
7;OK;0;1;0;0;0;1;1;1;0;2;0;1;1;2;2;2;1;1;1;2;2;2;2;2;-;-;-;-;-;-;-;-;0;0;-;-;0;0;0;1;-;-;-;-;-;-;-;-;-;-;-;-;0;1;1;1;0;0;1;-;2;2;-;-;-;-;-;-;0;1;0;0;0;0;0;0;0;0;0;0;0;2;0;0;0;0;0;0;2;0;0;2;0;2;2;0;2;2;2;2;2;2;-;-;-;-;-;-;-;-;-;-;-;-;-;-;-;-;-;-;-;-;-;-;-;-;-;-;-;-;-;-;-;-;0;1;1;2;-;-;-;-;0;1;0;0;0;0;-;-;-;-;0;-;
8;OK;0;1;0;0;0;1;1;0;0;1;0;1;1;2;2;1;1;1;2;2;2;2;2;2;-;-;-;-;-;-;-;-;0;0;-;-;0;0;0;1;-;-;-;-;-;-;-;-;-;-;-;-;0;1;1;1;0;0;1;-;2;2;-;-;-;-;-;-;0;1;0;0;0;0;0;0;0;0;0;0;0;2;0;0;0;0;0;0;2;0;0;2;0;2;2;0;2;2;2;2;2;2;-;-;-;-;-;-;-;-;-;-;-;-;-;-;-;-;-;-;-;-;-;-;-;-;-;-;-;-;-;-;-;-;0;1;1;2;-;-;-;-;0;1;0;0;0;0;-;-;-;-;0;-;
9;OK;0;1;0;0;0;1;1;1;0;1;0;1;1;2;2;1;1;1;2;2;2;2;2;2;-;-;-;-;-;-;-;-;0;0;-;-;0;0;0;1;-;-;-;-;-;-;-;-;-;-;-;-;0;1;1;1;0;0;1;-;2;2;-;-;-;-;-;-;0;1;0;0;0;0;0;0;0;0;0;0;0;2;0;0;0;0;0;0;2;0;0;2;0;2;2;0;2;2;2;2;2;2;-;-;-;-;-;-;-;-;-;-;-;-;-;-;-;-;-;-;-;-;-;-;-;-;-;-;-;-;-;-;-;-;0;1;1;2;-;-;-;-;0;1;0;0;0;0;-;-;-;-;0;-;
10;OK;0;1;0;0;0;1;1;0;0;1;0;1;1;2;2;2;1;1;2;2;2;2;2;2;-;-;-;-;-;-;-;-;0;0;-;-;0;0;0;1;-;-;-;-;-;-;-;-;-;-;-;-;0;1;1;1;0;0;1;-;2;2;-;-;-;-;-;-;0;1;0;0;0;0;0;0;0;0;0;0;0;2;0;0;0;0;0;0;2;0;0;2;0;2;2;0;2;2;2;2;2;2;-;-;-;-;-;-;-;-;-;-;-;-;-;-;-;-;-;-;-;-;-;-;-;-;-;-;-;-;-;-;-;-;0;1;1;2;-;-;-;-;0;1;0;0;0;0;-;-;-;-;0;-;
11;OK;0;1;0;0;0;1;1;1;0;1;0;1;1;2;2;2;1;1;2;2;2;2;2;2;-;-;-;-;-;-;-;-;0;0;-;-;0;0;0;1;-;-;-;-;-;-;-;-;-;-;-;-;0;1;1;1;0;0;1;-;2;2;-;-;-;-;-;-;0;1;0;0;0;0;0;0;0;0;0;0;0;2;0;0;0;0;0;0;2;0;0;2;0;2;2;0;2;2;2;2;2;2;-;-;-;-;-;-;-;-;-;-;-;-;-;-;-;-;-;-;-;-;-;-;-;-;-;-;-;-;-;-;-;-;0;1;1;2;-;-;-;-;0;1;0;0;0;0;-;-;-;-;0;-;
12;OK;0;1;0;0;0;1;1;2;0;1;0;1;1;2;2;2;1;1;2;2;2;2;2;2;-;-;-;-;-;-;-;-;0;0;-;-;0;0;0;1;-;-;-;-;-;-;-;-;-;-;-;-;0;1;1;1;0;0;1;-;2;2;-;-;-;-;-;-;0;1;0;0;0;0;0;0;0;0;0;0;0;2;0;0;0;0;0;0;2;0;0;2;0;2;2;0;2;2;2;2;2;2;-;-;-;-;-;-;-;-;-;-;-;-;-;-;-;-;-;-;-;-;-;-;-;-;-;-;-;-;-;-;-;-;0;1;1;2;-;-;-;-;0;1;0;0;0;0;-;-;-;-;0;-;
13;OK;0;1;0;0;0;1;1;0;0;2;0;1;1;2;2;2;1;1;2;2;2;2;2;2;-;-;-;-;-;-;-;-;0;0;-;-;0;0;0;1;-;-;-;-;-;-;-;-;-;-;-;-;0;1;1;1;0;0;1;-;2;2;-;-;-;-;-;-;0;1;0;0;0;0;0;0;0;0;0;0;0;2;0;0;0;0;0;0;2;0;0;2;0;2;2;0;2;2;2;2;2;2;-;-;-;-;-;-;-;-;-;-;-;-;-;-;-;-;-;-;-;-;-;-;-;-;-;-;-;-;-;-;-;-;0;1;1;2;-;-;-;-;0;1;0;0;0;0;-;-;-;-;0;-;
14;OK;0;1;0;0;0;1;1;1;0;2;0;1;1;2;2;2;1;1;2;2;2;2;2;2;-;-;-;-;-;-;-;-;0;0;-;-;0;0;0;1;-;-;-;-;-;-;-;-;-;-;-;-;0;1;1;1;0;0;1;-;2;2;-;-;-;-;-;-;0;1;0;0;0;0;0;0;0;0;0;0;0;2;0;0;0;0;0;0;2;0;0;2;0;2;2;0;2;2;2;2;2;2;-;-;-;-;-;-;-;-;-;-;-;-;-;-;-;-;-;-;-;-;-;-;-;-;-;-;-;-;-;-;-;-;0;1;1;2;-;-;-;-;0;1;0;0;0;0;-;-;-;-;0;-;
15;OK;0;1;0;0;0;1;1;2;0;2;0;1;1;2;2;2;1;1;2;2;2;2;2;2;-;-;-;-;-;-;-;-;0;0;-;-;0;0;0;1;-;-;-;-;-;-;-;-;-;-;-;-;0;1;1;1;0;0;1;-;2;2;-;-;-;-;-;-;0;1;0;0;0;0;0;0;0;0;0;0;0;2;0;0;0;0;0;0;2;0;0;2;0;2;2;0;2;2;2;2;2;2;-;-;-;-;-;-;-;-;-;-;-;-;-;-;-;-;-;-;-;-;-;-;-;-;-;-;-;-;-;-;-;-;0;1;1;2;-;-;-;-;0;1;0;0;0;0;-;-;-;-;0;-;
16;OK;0;1;0;0;0;1;1;0;0;1;0;1;1;2;2;1;1;1;1;2;1;2;2;2;-;-;-;-;-;-;-;-;0;0;-;-;0;0;0;1;-;-;-;-;-;-;-;-;-;-;-;-;0;1;1;1;0;0;1;-;2;2;-;-;-;-;-;-;0;1;0;0;0;0;0;0;0;0;0;0;0;2;0;0;0;0;0;0;2;0;0;2;2;2;2;0;2;2;2;2;2;2;-;-;-;-;-;-;-;-;-;-;-;-;-;-;-;-;-;-;-;-;-;-;-;-;-;-;-;-;-;-;-;-;0;1;1;2;-;-;-;-;0;1;0;0;0;0;-;-;-;-;0;-;
17;OK;0;1;0;0;0;1;1;1;0;1;0;1;1;2;2;1;1;1;1;2;1;2;2;2;-;-;-;-;-;-;-;-;0;0;-;-;0;0;0;1;-;-;-;-;-;-;-;-;-;-;-;-;0;1;1;1;0;0;1;-;2;2;-;-;-;-;-;-;0;1;0;0;0;0;0;0;0;0;0;0;0;2;0;0;0;0;0;0;2;0;0;2;2;2;2;0;2;2;2;2;2;2;-;-;-;-;-;-;-;-;-;-;-;-;-;-;-;-;-;-;-;-;-;-;-;-;-;-;-;-;-;-;-;-;0;1;1;2;-;-;-;-;0;1;0;0;0;0;-;-;-;-;0;-;
18;OK;0;1;0;0;0;1;1;0;0;1;0;1;1;2;2;1;1;1;1;2;2;2;2;2;-;-;-;-;-;-;-;-;0;0;-;-;0;0;0;1;-;-;-;-;-;-;-;-;-;-;-;-;0;1;1;1;0;0;1;-;2;2;-;-;-;-;-;-;0;1;0;0;0;0;0;0;0;0;0;0;0;2;0;0;0;0;0;0;2;0;0;2;2;2;2;0;2;2;2;2;2;2;-;-;-;-;-;-;-;-;-;-;-;-;-;-;-;-;-;-;-;-;-;-;-;-;-;-;-;-;-;-;-;-;0;1;1;2;-;-;-;-;0;1;0;0;0;0;-;-;-;-;0;-;
19;OK;0;1;0;0;0;1;1;0;0;1;0;1;1;2;2;2;1;1;1;2;2;2;2;2;-;-;-;-;-;-;-;-;0;0;-;-;0;0;0;1;-;-;-;-;-;-;-;-;-;-;-;-;0;1;1;1;0;0;1;-;2;2;-;-;-;-;-;-;0;1;0;0;0;0;0;0;0;0;0;0;0;2;0;0;0;0;0;0;2;0;0;2;2;2;2;0;2;2;2;2;2;2;-;-;-;-;-;-;-;-;-;-;-;-;-;-;-;-;-;-;-;-;-;-;-;-;-;-;-;-;-;-;-;-;0;1;1;2;-;-;-;-;0;1;0;0;0;0;-;-;-;-;0;-;
20;OK;0;1;0;0;0;1;1;1;0;1;0;1;1;2;2;2;1;1;1;2;2;2;2;2;-;-;-;-;-;-;-;-;0;0;-;-;0;0;0;1;-;-;-;-;-;-;-;-;-;-;-;-;0;1;1;1;0;0;1;-;2;2;-;-;-;-;-;-;0;1;0;0;0;0;0;0;0;0;0;0;0;2;0;0;0;0;0;0;2;0;0;2;2;2;2;0;2;2;2;2;2;2;-;-;-;-;-;-;-;-;-;-;-;-;-;-;-;-;-;-;-;-;-;-;-;-;-;-;-;-;-;-;-;-;0;1;1;2;-;-;-;-;0;1;0;0;0;0;-;-;-;-;0;-;
21;OK;0;1;0;0;0;1;1;0;0;2;0;1;1;2;2;2;1;1;1;2;2;2;2;2;-;-;-;-;-;-;-;-;0;0;-;-;0;0;0;1;-;-;-;-;-;-;-;-;-;-;-;-;0;1;1;1;0;0;1;-;2;2;-;-;-;-;-;-;0;1;0;0;0;0;0;0;0;0;0;0;0;2;0;0;0;0;0;0;2;0;0;2;2;2;2;0;2;2;2;2;2;2;-;-;-;-;-;-;-;-;-;-;-;-;-;-;-;-;-;-;-;-;-;-;-;-;-;-;-;-;-;-;-;-;0;1;1;2;-;-;-;-;0;1;0;0;0;0;-;-;-;-;0;-;
22;OK;0;1;0;0;0;1;1;1;0;2;0;1;1;2;2;2;1;1;1;2;2;2;2;2;-;-;-;-;-;-;-;-;0;0;-;-;0;0;0;1;-;-;-;-;-;-;-;-;-;-;-;-;0;1;1;1;0;0;1;-;2;2;-;-;-;-;-;-;0;1;0;0;0;0;0;0;0;0;0;0;0;2;0;0;0;0;0;0;2;0;0;2;2;2;2;0;2;2;2;2;2;2;-;-;-;-;-;-;-;-;-;-;-;-;-;-;-;-;-;-;-;-;-;-;-;-;-;-;-;-;-;-;-;-;0;1;1;2;-;-;-;-;0;1;0;0;0;0;-;-;-;-;0;-;
23;OK;0;1;0;0;0;1;1;0;0;1;0;1;1;2;2;1;1;1;2;2;2;2;2;2;-;-;-;-;-;-;-;-;0;0;-;-;0;0;0;1;-;-;-;-;-;-;-;-;-;-;-;-;0;1;1;1;0;0;1;-;2;2;-;-;-;-;-;-;0;1;0;0;0;0;0;0;0;0;0;0;0;2;0;0;0;0;0;0;2;0;0;2;2;2;2;0;2;2;2;2;2;2;-;-;-;-;-;-;-;-;-;-;-;-;-;-;-;-;-;-;-;-;-;-;-;-;-;-;-;-;-;-;-;-;0;1;1;2;-;-;-;-;0;1;0;0;0;0;-;-;-;-;0;-;
24;OK;0;1;0;0;0;1;1;1;0;1;0;1;1;2;2;1;1;1;2;2;2;2;2;2;-;-;-;-;-;-;-;-;0;0;-;-;0;0;0;1;-;-;-;-;-;-;-;-;-;-;-;-;0;1;1;1;0;0;1;-;2;2;-;-;-;-;-;-;0;1;0;0;0;0;0;0;0;0;0;0;0;2;0;0;0;0;0;0;2;0;0;2;2;2;2;0;2;2;2;2;2;2;-;-;-;-;-;-;-;-;-;-;-;-;-;-;-;-;-;-;-;-;-;-;-;-;-;-;-;-;-;-;-;-;0;1;1;2;-;-;-;-;0;1;0;0;0;0;-;-;-;-;0;-;
25;OK;0;1;0;0;0;1;1;0;0;1;0;1;1;2;2;2;1;1;2;2;2;2;2;2;-;-;-;-;-;-;-;-;0;0;-;-;0;0;0;1;-;-;-;-;-;-;-;-;-;-;-;-;0;1;1;1;0;0;1;-;2;2;-;-;-;-;-;-;0;1;0;0;0;0;0;0;0;0;0;0;0;2;0;0;0;0;0;0;2;0;0;2;2;2;2;0;2;2;2;2;2;2;-;-;-;-;-;-;-;-;-;-;-;-;-;-;-;-;-;-;-;-;-;-;-;-;-;-;-;-;-;-;-;-;0;1;1;2;-;-;-;-;0;1;0;0;0;0;-;-;-;-;0;-;
26;OK;0;1;0;0;0;1;1;1;0;1;0;1;1;2;2;2;1;1;2;2;2;2;2;2;-;-;-;-;-;-;-;-;0;0;-;-;0;0;0;1;-;-;-;-;-;-;-;-;-;-;-;-;0;1;1;1;0;0;1;-;2;2;-;-;-;-;-;-;0;1;0;0;0;0;0;0;0;0;0;0;0;2;0;0;0;0;0;0;2;0;0;2;2;2;2;0;2;2;2;2;2;2;-;-;-;-;-;-;-;-;-;-;-;-;-;-;-;-;-;-;-;-;-;-;-;-;-;-;-;-;-;-;-;-;0;1;1;2;-;-;-;-;0;1;0;0;0;0;-;-;-;-;0;-;
27;OK;0;1;0;0;0;1;1;2;0;1;0;1;1;2;2;2;1;1;2;2;2;2;2;2;-;-;-;-;-;-;-;-;0;0;-;-;0;0;0;1;-;-;-;-;-;-;-;-;-;-;-;-;0;1;1;1;0;0;1;-;2;2;-;-;-;-;-;-;0;1;0;0;0;0;0;0;0;0;0;0;0;2;0;0;0;0;0;0;2;0;0;2;2;2;2;0;2;2;2;2;2;2;-;-;-;-;-;-;-;-;-;-;-;-;-;-;-;-;-;-;-;-;-;-;-;-;-;-;-;-;-;-;-;-;0;1;1;2;-;-;-;-;0;1;0;0;0;0;-;-;-;-;0;-;
28;OK;0;1;0;0;0;1;1;0;0;2;0;1;1;2;2;2;1;1;2;2;2;2;2;2;-;-;-;-;-;-;-;-;0;0;-;-;0;0;0;1;-;-;-;-;-;-;-;-;-;-;-;-;0;1;1;1;0;0;1;-;2;2;-;-;-;-;-;-;0;1;0;0;0;0;0;0;0;0;0;0;0;2;0;0;0;0;0;0;2;0;0;2;2;2;2;0;2;2;2;2;2;2;-;-;-;-;-;-;-;-;-;-;-;-;-;-;-;-;-;-;-;-;-;-;-;-;-;-;-;-;-;-;-;-;0;1;1;2;-;-;-;-;0;1;0;0;0;0;-;-;-;-;0;-;
29;OK;0;1;0;0;0;1;1;1;0;2;0;1;1;2;2;2;1;1;2;2;2;2;2;2;-;-;-;-;-;-;-;-;0;0;-;-;0;0;0;1;-;-;-;-;-;-;-;-;-;-;-;-;0;1;1;1;0;0;1;-;2;2;-;-;-;-;-;-;0;1;0;0;0;0;0;0;0;0;0;0;0;2;0;0;0;0;0;0;2;0;0;2;2;2;2;0;2;2;2;2;2;2;-;-;-;-;-;-;-;-;-;-;-;-;-;-;-;-;-;-;-;-;-;-;-;-;-;-;-;-;-;-;-;-;0;1;1;2;-;-;-;-;0;1;0;0;0;0;-;-;-;-;0;-;
30;OK;0;1;0;0;0;1;1;2;0;2;0;1;1;2;2;2;1;1;2;2;2;2;2;2;-;-;-;-;-;-;-;-;0;0;-;-;0;0;0;1;-;-;-;-;-;-;-;-;-;-;-;-;0;1;1;1;0;0;1;-;2;2;-;-;-;-;-;-;0;1;0;0;0;0;0;0;0;0;0;0;0;2;0;0;0;0;0;0;2;0;0;2;2;2;2;0;2;2;2;2;2;2;-;-;-;-;-;-;-;-;-;-;-;-;-;-;-;-;-;-;-;-;-;-;-;-;-;-;-;-;-;-;-;-;0;1;1;2;-;-;-;-;0;1;0;0;0;0;-;-;-;-;0;-;
31;KO;0;1;0;0;0;1;1;0;0;1;0;1;1;2;2;1;1;1;1;2;1;2;2;2;-;-;-;-;-;-;-;-;0;0;-;-;0;0;0;1;-;-;-;-;-;-;-;-;-;-;-;-;0;1;1;1;0;0;1;-;2;2;-;-;-;-;-;-;0;1;0;0;0;0;0;0;0;0;0;0;0;2;0;0;0;0;0;0;2;0;0;2;0;2;2;0;2;2;2;2;2;2;-;-;-;-;-;-;-;-;-;-;-;-;-;-;-;-;-;-;-;-;-;-;-;-;-;-;-;-;-;-;-;-;0;1;1;2;-;-;-;-;0;1;0;0;0;0;-;-;-;-;1;-;"[FC24121]"
32;KO;0;1;0;0;0;1;1;1;0;1;0;1;1;2;2;1;1;1;1;2;1;2;2;2;-;-;-;-;-;-;-;-;0;0;-;-;0;0;0;1;-;-;-;-;-;-;-;-;-;-;-;-;0;1;1;1;0;0;1;-;2;2;-;-;-;-;-;-;0;1;0;0;0;0;0;0;0;0;0;0;0;2;0;0;0;0;0;0;2;0;0;2;0;2;2;0;2;2;2;2;2;2;-;-;-;-;-;-;-;-;-;-;-;-;-;-;-;-;-;-;-;-;-;-;-;-;-;-;-;-;-;-;-;-;0;1;1;2;-;-;-;-;0;1;0;0;0;0;-;-;-;-;1;-;"[FC24121]"
33;KO;0;1;0;0;0;1;1;0;0;1;0;1;1;2;2;1;1;1;1;2;2;2;2;2;-;-;-;-;-;-;-;-;0;0;-;-;0;0;0;1;-;-;-;-;-;-;-;-;-;-;-;-;0;1;1;1;0;0;1;-;2;2;-;-;-;-;-;-;0;1;0;0;0;0;0;0;0;0;0;0;0;2;0;0;0;0;0;0;2;0;0;2;0;2;2;0;2;2;2;2;2;2;-;-;-;-;-;-;-;-;-;-;-;-;-;-;-;-;-;-;-;-;-;-;-;-;-;-;-;-;-;-;-;-;0;1;1;2;-;-;-;-;0;1;0;0;0;0;-;-;-;-;1;-;"[FC24121]"
34;KO;0;1;0;0;0;1;1;0;0;1;0;1;1;2;2;2;1;1;1;2;2;2;2;2;-;-;-;-;-;-;-;-;0;0;-;-;0;0;0;1;-;-;-;-;-;-;-;-;-;-;-;-;0;1;1;1;0;0;1;-;2;2;-;-;-;-;-;-;0;1;0;0;0;0;0;0;0;0;0;0;0;2;0;0;0;0;0;0;2;0;0;2;0;2;2;0;2;2;2;2;2;2;-;-;-;-;-;-;-;-;-;-;-;-;-;-;-;-;-;-;-;-;-;-;-;-;-;-;-;-;-;-;-;-;0;1;1;2;-;-;-;-;0;1;0;0;0;0;-;-;-;-;1;-;"[FC24121]"
35;KO;0;1;0;0;0;1;1;1;0;1;0;1;1;2;2;2;1;1;1;2;2;2;2;2;-;-;-;-;-;-;-;-;0;0;-;-;0;0;0;1;-;-;-;-;-;-;-;-;-;-;-;-;0;1;1;1;0;0;1;-;2;2;-;-;-;-;-;-;0;1;0;0;0;0;0;0;0;0;0;0;0;2;0;0;0;0;0;0;2;0;0;2;0;2;2;0;2;2;2;2;2;2;-;-;-;-;-;-;-;-;-;-;-;-;-;-;-;-;-;-;-;-;-;-;-;-;-;-;-;-;-;-;-;-;0;1;1;2;-;-;-;-;0;1;0;0;0;0;-;-;-;-;1;-;"[FC24121]"
36;KO;0;1;0;0;0;1;1;0;0;2;0;1;1;2;2;2;1;1;1;2;2;2;2;2;-;-;-;-;-;-;-;-;0;0;-;-;0;0;0;1;-;-;-;-;-;-;-;-;-;-;-;-;0;1;1;1;0;0;1;-;2;2;-;-;-;-;-;-;0;1;0;0;0;0;0;0;0;0;0;0;0;2;0;0;0;0;0;0;2;0;0;2;0;2;2;0;2;2;2;2;2;2;-;-;-;-;-;-;-;-;-;-;-;-;-;-;-;-;-;-;-;-;-;-;-;-;-;-;-;-;-;-;-;-;0;1;1;2;-;-;-;-;0;1;0;0;0;0;-;-;-;-;1;-;"[FC24121]"
37;KO;0;1;0;0;0;1;1;1;0;2;0;1;1;2;2;2;1;1;1;2;2;2;2;2;-;-;-;-;-;-;-;-;0;0;-;-;0;0;0;1;-;-;-;-;-;-;-;-;-;-;-;-;0;1;1;1;0;0;1;-;2;2;-;-;-;-;-;-;0;1;0;0;0;0;0;0;0;0;0;0;0;2;0;0;0;0;0;0;2;0;0;2;0;2;2;0;2;2;2;2;2;2;-;-;-;-;-;-;-;-;-;-;-;-;-;-;-;-;-;-;-;-;-;-;-;-;-;-;-;-;-;-;-;-;0;1;1;2;-;-;-;-;0;1;0;0;0;0;-;-;-;-;1;-;"[FC24121]"
38;KO;0;1;0;0;0;1;1;0;0;1;0;1;1;2;2;1;1;1;2;2;2;2;2;2;-;-;-;-;-;-;-;-;0;0;-;-;0;0;0;1;-;-;-;-;-;-;-;-;-;-;-;-;0;1;1;1;0;0;1;-;2;2;-;-;-;-;-;-;0;1;0;0;0;0;0;0;0;0;0;0;0;2;0;0;0;0;0;0;2;0;0;2;0;2;2;0;2;2;2;2;2;2;-;-;-;-;-;-;-;-;-;-;-;-;-;-;-;-;-;-;-;-;-;-;-;-;-;-;-;-;-;-;-;-;0;1;1;2;-;-;-;-;0;1;0;0;0;0;-;-;-;-;1;-;"[FC24121]"
39;KO;0;1;0;0;0;1;1;1;0;1;0;1;1;2;2;1;1;1;2;2;2;2;2;2;-;-;-;-;-;-;-;-;0;0;-;-;0;0;0;1;-;-;-;-;-;-;-;-;-;-;-;-;0;1;1;1;0;0;1;-;2;2;-;-;-;-;-;-;0;1;0;0;0;0;0;0;0;0;0;0;0;2;0;0;0;0;0;0;2;0;0;2;0;2;2;0;2;2;2;2;2;2;-;-;-;-;-;-;-;-;-;-;-;-;-;-;-;-;-;-;-;-;-;-;-;-;-;-;-;-;-;-;-;-;0;1;1;2;-;-;-;-;0;1;0;0;0;0;-;-;-;-;1;-;"[FC24121]"
40;KO;0;1;0;0;0;1;1;0;0;1;0;1;1;2;2;2;1;1;2;2;2;2;2;2;-;-;-;-;-;-;-;-;0;0;-;-;0;0;0;1;-;-;-;-;-;-;-;-;-;-;-;-;0;1;1;1;0;0;1;-;2;2;-;-;-;-;-;-;0;1;0;0;0;0;0;0;0;0;0;0;0;2;0;0;0;0;0;0;2;0;0;2;0;2;2;0;2;2;2;2;2;2;-;-;-;-;-;-;-;-;-;-;-;-;-;-;-;-;-;-;-;-;-;-;-;-;-;-;-;-;-;-;-;-;0;1;1;2;-;-;-;-;0;1;0;0;0;0;-;-;-;-;1;-;"[FC24121]"
41;KO;0;1;0;0;0;1;1;1;0;1;0;1;1;2;2;2;1;1;2;2;2;2;2;2;-;-;-;-;-;-;-;-;0;0;-;-;0;0;0;1;-;-;-;-;-;-;-;-;-;-;-;-;0;1;1;1;0;0;1;-;2;2;-;-;-;-;-;-;0;1;0;0;0;0;0;0;0;0;0;0;0;2;0;0;0;0;0;0;2;0;0;2;0;2;2;0;2;2;2;2;2;2;-;-;-;-;-;-;-;-;-;-;-;-;-;-;-;-;-;-;-;-;-;-;-;-;-;-;-;-;-;-;-;-;0;1;1;2;-;-;-;-;0;1;0;0;0;0;-;-;-;-;1;-;"[FC24121]"
42;KO;0;1;0;0;0;1;1;2;0;1;0;1;1;2;2;2;1;1;2;2;2;2;2;2;-;-;-;-;-;-;-;-;0;0;-;-;0;0;0;1;-;-;-;-;-;-;-;-;-;-;-;-;0;1;1;1;0;0;1;-;2;2;-;-;-;-;-;-;0;1;0;0;0;0;0;0;0;0;0;0;0;2;0;0;0;0;0;0;2;0;0;2;0;2;2;0;2;2;2;2;2;2;-;-;-;-;-;-;-;-;-;-;-;-;-;-;-;-;-;-;-;-;-;-;-;-;-;-;-;-;-;-;-;-;0;1;1;2;-;-;-;-;0;1;0;0;0;0;-;-;-;-;1;-;"[FC24121]"
43;KO;0;1;0;0;0;1;1;0;0;2;0;1;1;2;2;2;1;1;2;2;2;2;2;2;-;-;-;-;-;-;-;-;0;0;-;-;0;0;0;1;-;-;-;-;-;-;-;-;-;-;-;-;0;1;1;1;0;0;1;-;2;2;-;-;-;-;-;-;0;1;0;0;0;0;0;0;0;0;0;0;0;2;0;0;0;0;0;0;2;0;0;2;0;2;2;0;2;2;2;2;2;2;-;-;-;-;-;-;-;-;-;-;-;-;-;-;-;-;-;-;-;-;-;-;-;-;-;-;-;-;-;-;-;-;0;1;1;2;-;-;-;-;0;1;0;0;0;0;-;-;-;-;1;-;"[FC24121]"
44;KO;0;1;0;0;0;1;1;1;0;2;0;1;1;2;2;2;1;1;2;2;2;2;2;2;-;-;-;-;-;-;-;-;0;0;-;-;0;0;0;1;-;-;-;-;-;-;-;-;-;-;-;-;0;1;1;1;0;0;1;-;2;2;-;-;-;-;-;-;0;1;0;0;0;0;0;0;0;0;0;0;0;2;0;0;0;0;0;0;2;0;0;2;0;2;2;0;2;2;2;2;2;2;-;-;-;-;-;-;-;-;-;-;-;-;-;-;-;-;-;-;-;-;-;-;-;-;-;-;-;-;-;-;-;-;0;1;1;2;-;-;-;-;0;1;0;0;0;0;-;-;-;-;1;-;"[FC24121]"
45;KO;0;1;0;0;0;1;1;2;0;2;0;1;1;2;2;2;1;1;2;2;2;2;2;2;-;-;-;-;-;-;-;-;0;0;-;-;0;0;0;1;-;-;-;-;-;-;-;-;-;-;-;-;0;1;1;1;0;0;1;-;2;2;-;-;-;-;-;-;0;1;0;0;0;0;0;0;0;0;0;0;0;2;0;0;0;0;0;0;2;0;0;2;0;2;2;0;2;2;2;2;2;2;-;-;-;-;-;-;-;-;-;-;-;-;-;-;-;-;-;-;-;-;-;-;-;-;-;-;-;-;-;-;-;-;0;1;1;2;-;-;-;-;0;1;0;0;0;0;-;-;-;-;1;-;"[FC24121]"
46;KO;0;1;0;0;0;1;1;0;0;1;0;1;1;2;2;1;1;1;1;2;1;2;2;2;-;-;-;-;-;-;-;-;0;0;-;-;0;0;0;1;-;-;-;-;-;-;-;-;-;-;-;-;0;1;1;1;0;0;1;-;2;2;-;-;-;-;-;-;0;1;0;0;0;0;0;0;0;0;0;0;0;2;0;0;0;0;0;0;2;0;0;2;2;2;2;0;2;2;2;2;2;2;-;-;-;-;-;-;-;-;-;-;-;-;-;-;-;-;-;-;-;-;-;-;-;-;-;-;-;-;-;-;-;-;0;1;1;2;-;-;-;-;0;1;0;0;0;0;-;-;-;-;1;-;"[FC24121]"
47;KO;0;1;0;0;0;1;1;1;0;1;0;1;1;2;2;1;1;1;1;2;1;2;2;2;-;-;-;-;-;-;-;-;0;0;-;-;0;0;0;1;-;-;-;-;-;-;-;-;-;-;-;-;0;1;1;1;0;0;1;-;2;2;-;-;-;-;-;-;0;1;0;0;0;0;0;0;0;0;0;0;0;2;0;0;0;0;0;0;2;0;0;2;2;2;2;0;2;2;2;2;2;2;-;-;-;-;-;-;-;-;-;-;-;-;-;-;-;-;-;-;-;-;-;-;-;-;-;-;-;-;-;-;-;-;0;1;1;2;-;-;-;-;0;1;0;0;0;0;-;-;-;-;1;-;"[FC24121]"
48;KO;0;1;0;0;0;1;1;0;0;1;0;1;1;2;2;1;1;1;1;2;2;2;2;2;-;-;-;-;-;-;-;-;0;0;-;-;0;0;0;1;-;-;-;-;-;-;-;-;-;-;-;-;0;1;1;1;0;0;1;-;2;2;-;-;-;-;-;-;0;1;0;0;0;0;0;0;0;0;0;0;0;2;0;0;0;0;0;0;2;0;0;2;2;2;2;0;2;2;2;2;2;2;-;-;-;-;-;-;-;-;-;-;-;-;-;-;-;-;-;-;-;-;-;-;-;-;-;-;-;-;-;-;-;-;0;1;1;2;-;-;-;-;0;1;0;0;0;0;-;-;-;-;1;-;"[FC24121]"
49;KO;0;1;0;0;0;1;1;0;0;1;0;1;1;2;2;2;1;1;1;2;2;2;2;2;-;-;-;-;-;-;-;-;0;0;-;-;0;0;0;1;-;-;-;-;-;-;-;-;-;-;-;-;0;1;1;1;0;0;1;-;2;2;-;-;-;-;-;-;0;1;0;0;0;0;0;0;0;0;0;0;0;2;0;0;0;0;0;0;2;0;0;2;2;2;2;0;2;2;2;2;2;2;-;-;-;-;-;-;-;-;-;-;-;-;-;-;-;-;-;-;-;-;-;-;-;-;-;-;-;-;-;-;-;-;0;1;1;2;-;-;-;-;0;1;0;0;0;0;-;-;-;-;1;-;"[FC24121]"
50;KO;0;1;0;0;0;1;1;1;0;1;0;1;1;2;2;2;1;1;1;2;2;2;2;2;-;-;-;-;-;-;-;-;0;0;-;-;0;0;0;1;-;-;-;-;-;-;-;-;-;-;-;-;0;1;1;1;0;0;1;-;2;2;-;-;-;-;-;-;0;1;0;0;0;0;0;0;0;0;0;0;0;2;0;0;0;0;0;0;2;0;0;2;2;2;2;0;2;2;2;2;2;2;-;-;-;-;-;-;-;-;-;-;-;-;-;-;-;-;-;-;-;-;-;-;-;-;-;-;-;-;-;-;-;-;0;1;1;2;-;-;-;-;0;1;0;0;0;0;-;-;-;-;1;-;"[FC24121]"
51;KO;0;1;0;0;0;1;1;0;0;2;0;1;1;2;2;2;1;1;1;2;2;2;2;2;-;-;-;-;-;-;-;-;0;0;-;-;0;0;0;1;-;-;-;-;-;-;-;-;-;-;-;-;0;1;1;1;0;0;1;-;2;2;-;-;-;-;-;-;0;1;0;0;0;0;0;0;0;0;0;0;0;2;0;0;0;0;0;0;2;0;0;2;2;2;2;0;2;2;2;2;2;2;-;-;-;-;-;-;-;-;-;-;-;-;-;-;-;-;-;-;-;-;-;-;-;-;-;-;-;-;-;-;-;-;0;1;1;2;-;-;-;-;0;1;0;0;0;0;-;-;-;-;1;-;"[FC24121]"
52;KO;0;1;0;0;0;1;1;1;0;2;0;1;1;2;2;2;1;1;1;2;2;2;2;2;-;-;-;-;-;-;-;-;0;0;-;-;0;0;0;1;-;-;-;-;-;-;-;-;-;-;-;-;0;1;1;1;0;0;1;-;2;2;-;-;-;-;-;-;0;1;0;0;0;0;0;0;0;0;0;0;0;2;0;0;0;0;0;0;2;0;0;2;2;2;2;0;2;2;2;2;2;2;-;-;-;-;-;-;-;-;-;-;-;-;-;-;-;-;-;-;-;-;-;-;-;-;-;-;-;-;-;-;-;-;0;1;1;2;-;-;-;-;0;1;0;0;0;0;-;-;-;-;1;-;"[FC24121]"
53;KO;0;1;0;0;0;1;1;0;0;1;0;1;1;2;2;1;1;1;2;2;2;2;2;2;-;-;-;-;-;-;-;-;0;0;-;-;0;0;0;1;-;-;-;-;-;-;-;-;-;-;-;-;0;1;1;1;0;0;1;-;2;2;-;-;-;-;-;-;0;1;0;0;0;0;0;0;0;0;0;0;0;2;0;0;0;0;0;0;2;0;0;2;2;2;2;0;2;2;2;2;2;2;-;-;-;-;-;-;-;-;-;-;-;-;-;-;-;-;-;-;-;-;-;-;-;-;-;-;-;-;-;-;-;-;0;1;1;2;-;-;-;-;0;1;0;0;0;0;-;-;-;-;1;-;"[FC24121]"
54;KO;0;1;0;0;0;1;1;1;0;1;0;1;1;2;2;1;1;1;2;2;2;2;2;2;-;-;-;-;-;-;-;-;0;0;-;-;0;0;0;1;-;-;-;-;-;-;-;-;-;-;-;-;0;1;1;1;0;0;1;-;2;2;-;-;-;-;-;-;0;1;0;0;0;0;0;0;0;0;0;0;0;2;0;0;0;0;0;0;2;0;0;2;2;2;2;0;2;2;2;2;2;2;-;-;-;-;-;-;-;-;-;-;-;-;-;-;-;-;-;-;-;-;-;-;-;-;-;-;-;-;-;-;-;-;0;1;1;2;-;-;-;-;0;1;0;0;0;0;-;-;-;-;1;-;"[FC24121]"
55;KO;0;1;0;0;0;1;1;0;0;1;0;1;1;2;2;2;1;1;2;2;2;2;2;2;-;-;-;-;-;-;-;-;0;0;-;-;0;0;0;1;-;-;-;-;-;-;-;-;-;-;-;-;0;1;1;1;0;0;1;-;2;2;-;-;-;-;-;-;0;1;0;0;0;0;0;0;0;0;0;0;0;2;0;0;0;0;0;0;2;0;0;2;2;2;2;0;2;2;2;2;2;2;-;-;-;-;-;-;-;-;-;-;-;-;-;-;-;-;-;-;-;-;-;-;-;-;-;-;-;-;-;-;-;-;0;1;1;2;-;-;-;-;0;1;0;0;0;0;-;-;-;-;1;-;"[FC24121]"
56;KO;0;1;0;0;0;1;1;1;0;1;0;1;1;2;2;2;1;1;2;2;2;2;2;2;-;-;-;-;-;-;-;-;0;0;-;-;0;0;0;1;-;-;-;-;-;-;-;-;-;-;-;-;0;1;1;1;0;0;1;-;2;2;-;-;-;-;-;-;0;1;0;0;0;0;0;0;0;0;0;0;0;2;0;0;0;0;0;0;2;0;0;2;2;2;2;0;2;2;2;2;2;2;-;-;-;-;-;-;-;-;-;-;-;-;-;-;-;-;-;-;-;-;-;-;-;-;-;-;-;-;-;-;-;-;0;1;1;2;-;-;-;-;0;1;0;0;0;0;-;-;-;-;1;-;"[FC24121]"
57;KO;0;1;0;0;0;1;1;2;0;1;0;1;1;2;2;2;1;1;2;2;2;2;2;2;-;-;-;-;-;-;-;-;0;0;-;-;0;0;0;1;-;-;-;-;-;-;-;-;-;-;-;-;0;1;1;1;0;0;1;-;2;2;-;-;-;-;-;-;0;1;0;0;0;0;0;0;0;0;0;0;0;2;0;0;0;0;0;0;2;0;0;2;2;2;2;0;2;2;2;2;2;2;-;-;-;-;-;-;-;-;-;-;-;-;-;-;-;-;-;-;-;-;-;-;-;-;-;-;-;-;-;-;-;-;0;1;1;2;-;-;-;-;0;1;0;0;0;0;-;-;-;-;1;-;"[FC24121]"
58;KO;0;1;0;0;0;1;1;0;0;2;0;1;1;2;2;2;1;1;2;2;2;2;2;2;-;-;-;-;-;-;-;-;0;0;-;-;0;0;0;1;-;-;-;-;-;-;-;-;-;-;-;-;0;1;1;1;0;0;1;-;2;2;-;-;-;-;-;-;0;1;0;0;0;0;0;0;0;0;0;0;0;2;0;0;0;0;0;0;2;0;0;2;2;2;2;0;2;2;2;2;2;2;-;-;-;-;-;-;-;-;-;-;-;-;-;-;-;-;-;-;-;-;-;-;-;-;-;-;-;-;-;-;-;-;0;1;1;2;-;-;-;-;0;1;0;0;0;0;-;-;-;-;1;-;"[FC24121]"
59;KO;0;1;0;0;0;1;1;1;0;2;0;1;1;2;2;2;1;1;2;2;2;2;2;2;-;-;-;-;-;-;-;-;0;0;-;-;0;0;0;1;-;-;-;-;-;-;-;-;-;-;-;-;0;1;1;1;0;0;1;-;2;2;-;-;-;-;-;-;0;1;0;0;0;0;0;0;0;0;0;0;0;2;0;0;0;0;0;0;2;0;0;2;2;2;2;0;2;2;2;2;2;2;-;-;-;-;-;-;-;-;-;-;-;-;-;-;-;-;-;-;-;-;-;-;-;-;-;-;-;-;-;-;-;-;0;1;1;2;-;-;-;-;0;1;0;0;0;0;-;-;-;-;1;-;"[FC24121]"
60;KO;0;1;0;0;0;1;1;2;0;2;0;1;1;2;2;2;1;1;2;2;2;2;2;2;-;-;-;-;-;-;-;-;0;0;-;-;0;0;0;1;-;-;-;-;-;-;-;-;-;-;-;-;0;1;1;1;0;0;1;-;2;2;-;-;-;-;-;-;0;1;0;0;0;0;0;0;0;0;0;0;0;2;0;0;0;0;0;0;2;0;0;2;2;2;2;0;2;2;2;2;2;2;-;-;-;-;-;-;-;-;-;-;-;-;-;-;-;-;-;-;-;-;-;-;-;-;-;-;-;-;-;-;-;-;0;1;1;2;-;-;-;-;0;1;0;0;0;0;-;-;-;-;1;-;"[FC24121]"
