n°;valid;K_ATP;K_ATP:PHOXa;K_ATP:glyc1;K_ATP:noLBPa;K_ATP:nonLBPa;K_ATP:PHOXa:glyc1;K_ATP:glyc1:glyc2;K_ATP:glyc1:noLBPa;K_ATP:glyc1:nonLBPa;K_ATP:PHOXa:noLBPa;K_ATP:noLBPa:nonLBPa;K_ATP:PHOXa:nonLBPa;K_ATP:glyc1:glyc2:nonLBPa;K_ATP:PHOXa:noLBPa:nonLBPa;K_ATP:glyc1:noLBPa:nonLBPa;K_ATP:PHOXa:glyc1:noLBPa;K_ATP:PHOXa:glyc1:nonLBPa;K_ATP:PHOXa:glyc1:glyc2;K_ATP:glyc1:glyc2:noLBPa;K_ATP:glyc1:glyc2:noLBPa:nonLBPa;K_ATP:PHOXa:glyc1:glyc2:noLBPa;K_ATP:PHOXa:glyc1:noLBPa:nonLBPa;K_ATP:PHOXa:glyc1:glyc2:nonLBPa;K_ATP:PHOXa:glyc1:glyc2:noLBPa:nonLBPa;K_ATP:glyc2;K_ATP:PHOXa:glyc2;K_ATP:glyc2:noLBPa;K_ATP:glyc2:nonLBPa;K_ATP:PHOXa:glyc2:noLBPa;K_ATP:PHOXa:glyc2:nonLBPa;K_ATP:glyc2:noLBPa:nonLBPa;K_ATP:PHOXa:glyc2:noLBPa:nonLBPa;K_O2;K_O2:PHOXo;K_O2:exO2o;K_O2:PHOXo:exO2o;K_GLYC;K_GLYC:COF;K_GLYC:noGR;K_GLYC:COF:noGR;K_GLYC:glc2;K_GLYC:glc1;K_GLYC:COF:glc2;K_GLYC:COF:glc1;K_GLYC:glc2:noGR;K_GLYC:glc1:noGR;K_GLYC:glc1:glc2;K_GLYC:COF:glc2:noGR;K_GLYC:COF:glc1:noGR;K_GLYC:COF:glc1:glc2;K_GLYC:glc1:glc2:noGR;K_GLYC:COF:glc1:glc2:noGR;K_nLBP;K_nLBP:AAS;K_nLBP:PPP;K_nLBP:AAS:PPP;K_LBP;K_LBP:noBOX;K_LBP:LS:noBOX;K_LBP:LS;K_NCD:aa1:aa2;K_NCD:KREBSd:aa1:aa2;K_NCD;K_NCD:KREBSd;K_NCD:aa1;K_NCD:aa2;K_NCD:KREBSd:aa1;K_NCD:KREBSd:aa2;K_FERM;K_FERM:EP;K_NADH;K_NADH:FERMn;K_NADH:GLYCf;K_NADH:KREBSn;K_NADH:PHOXn;K_NADH:noAAS;K_NADH:FERMn:GLYCf;K_NADH:GLYCf:KREBSn;K_NADH:GLYCf:PHOXn;K_NADH:GLYCf:noAAS;K_NADH:FERMn:KREBSn;K_NADH:KREBSn:PHOXn;K_NADH:KREBSn:noAAS;K_NADH:FERMn:PHOXn;K_NADH:PHOXn:noAAS;K_NADH:FERMn:noAAS;K_NADH:FERMn:KREBSn:noAAS;K_NADH:GLYCf:PHOXn:noAAS;K_NADH:FERMn:GLYCf:PHOXn;K_NADH:FERMn:PHOXn:noAAS;K_NADH:FERMn:GLYCf:noAAS;K_NADH:KREBSn:PHOXn:noAAS;K_NADH:FERMn:GLYCf:KREBSn;K_NADH:FERMn:KREBSn:PHOXn;K_NADH:GLYCf:KREBSn:PHOXn;K_NADH:GLYCf:KREBSn:noAAS;K_NADH:FERMn:GLYCf:KREBSn:noAAS;K_NADH:FERMn:GLYCf:KREBSn:PHOXn;K_NADH:FERMn:GLYCf:PHOXn:noAAS;K_NADH:GLYCf:KREBSn:PHOXn:noAAS;K_NADH:FERMn:KREBSn:PHOXn:noAAS;K_NADH:FERMn:GLYCf:KREBSn:PHOXn:noAAS;K_NADH:GLNmet;K_NADH:GLNmet:GLYCf;K_NADH:GLNmet:noAAS;K_NADH:GLNmet:KREBSn;K_NADH:GLNmet:PHOXn;K_NADH:FERMn:GLNmet;K_NADH:GLNmet:GLYCf:noAAS;K_NADH:GLNmet:GLYCf:KREBSn;K_NADH:GLNmet:GLYCf:PHOXn;K_NADH:FERMn:GLNmet:GLYCf;K_NADH:GLNmet:KREBSn:noAAS;K_NADH:GLNmet:PHOXn:noAAS;K_NADH:FERMn:GLNmet:noAAS;K_NADH:GLNmet:KREBSn:PHOXn;K_NADH:FERMn:GLNmet:KREBSn;K_NADH:FERMn:GLNmet:PHOXn;K_NADH:GLNmet:GLYCf:KREBSn:noAAS;K_NADH:GLNmet:GLYCf:PHOXn:noAAS;K_NADH:FERMn:GLNmet:GLYCf:noAAS;K_NADH:GLNmet:GLYCf:KREBSn:PHOXn;K_NADH:FERMn:GLNmet:GLYCf:KREBSn;K_NADH:FERMn:GLNmet:GLYCf:PHOXn;K_NADH:GLNmet:KREBSn:PHOXn:noAAS;K_NADH:FERMn:GLNmet:KREBSn:noAAS;K_NADH:FERMn:GLNmet:PHOXn:noAAS;K_NADH:FERMn:GLNmet:KREBSn:PHOXn;K_NADH:GLNmet:GLYCf:KREBSn:PHOXn:noAAS;K_NADH:FERMn:GLNmet:GLYCf:KREBSn:noAAS;K_NADH:FERMn:GLNmet:GLYCf:PHOXn:noAAS;K_NADH:FERMn:GLNmet:GLYCf:KREBSn:PHOXn;K_NADH:FERMn:GLNmet:KREBSn:PHOXn:noAAS;K_NADH:FERMn:GLNmet:GLYCf:KREBSn:PHOXn:noAAS;K_KREBS;K_KREBS:AnO;K_KREBS:BOX;K_KREBS:AnO:SAT;K_KREBS:SAT;K_KREBS:AnO:BOX;K_KREBS:BOX:SAT;K_KREBS:AnO:BOX:SAT;K_PHOX;K_PHOX:PC;Error explanation
;;0..0;1..1;0..0;0..0;0..0;1..1;1..1;0..2;0..0;1..2;0..0;1..1;1..1;2..2;2..2;1..2;1..1;1..1;1..2;2..2;1..2;2..2;2..2;2..2;0..2;0..2;0..2;0..2;0..2;0..2;0..2;0..2;0..0;0..0;0..1;0..1;0..0;0..0;0..0;0..0;0..2;0..2;0..2;0..2;0..2;0..2;0..2;0..2;0..2;0..2;0..2;0..2;0..0;1..1;1..1;1..1;0..0;0..0;1..1;0..1;2..2;2..2;0..2;0..2;0..2;0..2;0..2;0..2;0..0;1..1;0..0;0..0;0..0;0..0;0..0;0..0;0..0;0..0;0..0;0..0;0..0;2..2;0..0;0..0;0..0;0..0;0..0;0..0;0..2;0..0;0..0;2..2;0..2;2..2;2..2;0..0;2..2;2..2;2..2;2..2;2..2;2..2;0..2;0..2;0..2;0..2;0..2;0..2;0..2;0..2;0..2;0..2;0..2;0..2;0..2;0..2;0..2;0..2;0..2;0..2;0..2;0..2;0..2;0..2;0..2;0..2;0..2;0..2;0..2;0..2;0..2;0..2;0..2;0..2;0..0;1..1;1..1;2..2;0..2;0..2;0..2;0..2;0..0;1..1;;
1;OK;0;1;0;0;0;1;1;0;0;1;0;1;1;2;2;1;1;1;1;2;1;2;2;2;-;-;-;-;-;-;-;-;0;0;-;-;0;0;0;0;-;-;-;-;-;-;-;-;-;-;-;-;0;1;1;1;0;0;1;-;2;2;-;-;-;-;-;-;0;1;0;0;0;0;0;0;0;0;0;0;0;2;0;0;0;0;0;0;0;0;0;2;0;2;2;0;2;2;2;2;2;2;-;-;-;-;-;-;-;-;-;-;-;-;-;-;-;-;-;-;-;-;-;-;-;-;-;-;-;-;-;-;-;-;0;1;1;2;-;-;-;-;0;1;
2;OK;0;1;0;0;0;1;1;1;0;1;0;1;1;2;2;1;1;1;1;2;1;2;2;2;-;-;-;-;-;-;-;-;0;0;-;-;0;0;0;0;-;-;-;-;-;-;-;-;-;-;-;-;0;1;1;1;0;0;1;-;2;2;-;-;-;-;-;-;0;1;0;0;0;0;0;0;0;0;0;0;0;2;0;0;0;0;0;0;0;0;0;2;0;2;2;0;2;2;2;2;2;2;-;-;-;-;-;-;-;-;-;-;-;-;-;-;-;-;-;-;-;-;-;-;-;-;-;-;-;-;-;-;-;-;0;1;1;2;-;-;-;-;0;1;
3;OK;0;1;0;0;0;1;1;0;0;1;0;1;1;2;2;1;1;1;1;2;2;2;2;2;-;-;-;-;-;-;-;-;0;0;-;-;0;0;0;0;-;-;-;-;-;-;-;-;-;-;-;-;0;1;1;1;0;0;1;-;2;2;-;-;-;-;-;-;0;1;0;0;0;0;0;0;0;0;0;0;0;2;0;0;0;0;0;0;0;0;0;2;0;2;2;0;2;2;2;2;2;2;-;-;-;-;-;-;-;-;-;-;-;-;-;-;-;-;-;-;-;-;-;-;-;-;-;-;-;-;-;-;-;-;0;1;1;2;-;-;-;-;0;1;
4;OK;0;1;0;0;0;1;1;0;0;1;0;1;1;2;2;2;1;1;1;2;2;2;2;2;-;-;-;-;-;-;-;-;0;0;-;-;0;0;0;0;-;-;-;-;-;-;-;-;-;-;-;-;0;1;1;1;0;0;1;-;2;2;-;-;-;-;-;-;0;1;0;0;0;0;0;0;0;0;0;0;0;2;0;0;0;0;0;0;0;0;0;2;0;2;2;0;2;2;2;2;2;2;-;-;-;-;-;-;-;-;-;-;-;-;-;-;-;-;-;-;-;-;-;-;-;-;-;-;-;-;-;-;-;-;0;1;1;2;-;-;-;-;0;1;
5;OK;0;1;0;0;0;1;1;1;0;1;0;1;1;2;2;2;1;1;1;2;2;2;2;2;-;-;-;-;-;-;-;-;0;0;-;-;0;0;0;0;-;-;-;-;-;-;-;-;-;-;-;-;0;1;1;1;0;0;1;-;2;2;-;-;-;-;-;-;0;1;0;0;0;0;0;0;0;0;0;0;0;2;0;0;0;0;0;0;0;0;0;2;0;2;2;0;2;2;2;2;2;2;-;-;-;-;-;-;-;-;-;-;-;-;-;-;-;-;-;-;-;-;-;-;-;-;-;-;-;-;-;-;-;-;0;1;1;2;-;-;-;-;0;1;
6;OK;0;1;0;0;0;1;1;0;0;2;0;1;1;2;2;2;1;1;1;2;2;2;2;2;-;-;-;-;-;-;-;-;0;0;-;-;0;0;0;0;-;-;-;-;-;-;-;-;-;-;-;-;0;1;1;1;0;0;1;-;2;2;-;-;-;-;-;-;0;1;0;0;0;0;0;0;0;0;0;0;0;2;0;0;0;0;0;0;0;0;0;2;0;2;2;0;2;2;2;2;2;2;-;-;-;-;-;-;-;-;-;-;-;-;-;-;-;-;-;-;-;-;-;-;-;-;-;-;-;-;-;-;-;-;0;1;1;2;-;-;-;-;0;1;
7;OK;0;1;0;0;0;1;1;1;0;2;0;1;1;2;2;2;1;1;1;2;2;2;2;2;-;-;-;-;-;-;-;-;0;0;-;-;0;0;0;0;-;-;-;-;-;-;-;-;-;-;-;-;0;1;1;1;0;0;1;-;2;2;-;-;-;-;-;-;0;1;0;0;0;0;0;0;0;0;0;0;0;2;0;0;0;0;0;0;0;0;0;2;0;2;2;0;2;2;2;2;2;2;-;-;-;-;-;-;-;-;-;-;-;-;-;-;-;-;-;-;-;-;-;-;-;-;-;-;-;-;-;-;-;-;0;1;1;2;-;-;-;-;0;1;
8;OK;0;1;0;0;0;1;1;0;0;1;0;1;1;2;2;1;1;1;2;2;2;2;2;2;-;-;-;-;-;-;-;-;0;0;-;-;0;0;0;0;-;-;-;-;-;-;-;-;-;-;-;-;0;1;1;1;0;0;1;-;2;2;-;-;-;-;-;-;0;1;0;0;0;0;0;0;0;0;0;0;0;2;0;0;0;0;0;0;0;0;0;2;0;2;2;0;2;2;2;2;2;2;-;-;-;-;-;-;-;-;-;-;-;-;-;-;-;-;-;-;-;-;-;-;-;-;-;-;-;-;-;-;-;-;0;1;1;2;-;-;-;-;0;1;
9;OK;0;1;0;0;0;1;1;1;0;1;0;1;1;2;2;1;1;1;2;2;2;2;2;2;-;-;-;-;-;-;-;-;0;0;-;-;0;0;0;0;-;-;-;-;-;-;-;-;-;-;-;-;0;1;1;1;0;0;1;-;2;2;-;-;-;-;-;-;0;1;0;0;0;0;0;0;0;0;0;0;0;2;0;0;0;0;0;0;0;0;0;2;0;2;2;0;2;2;2;2;2;2;-;-;-;-;-;-;-;-;-;-;-;-;-;-;-;-;-;-;-;-;-;-;-;-;-;-;-;-;-;-;-;-;0;1;1;2;-;-;-;-;0;1;
10;OK;0;1;0;0;0;1;1;0;0;1;0;1;1;2;2;2;1;1;2;2;2;2;2;2;-;-;-;-;-;-;-;-;0;0;-;-;0;0;0;0;-;-;-;-;-;-;-;-;-;-;-;-;0;1;1;1;0;0;1;-;2;2;-;-;-;-;-;-;0;1;0;0;0;0;0;0;0;0;0;0;0;2;0;0;0;0;0;0;0;0;0;2;0;2;2;0;2;2;2;2;2;2;-;-;-;-;-;-;-;-;-;-;-;-;-;-;-;-;-;-;-;-;-;-;-;-;-;-;-;-;-;-;-;-;0;1;1;2;-;-;-;-;0;1;
11;OK;0;1;0;0;0;1;1;1;0;1;0;1;1;2;2;2;1;1;2;2;2;2;2;2;-;-;-;-;-;-;-;-;0;0;-;-;0;0;0;0;-;-;-;-;-;-;-;-;-;-;-;-;0;1;1;1;0;0;1;-;2;2;-;-;-;-;-;-;0;1;0;0;0;0;0;0;0;0;0;0;0;2;0;0;0;0;0;0;0;0;0;2;0;2;2;0;2;2;2;2;2;2;-;-;-;-;-;-;-;-;-;-;-;-;-;-;-;-;-;-;-;-;-;-;-;-;-;-;-;-;-;-;-;-;0;1;1;2;-;-;-;-;0;1;
12;OK;0;1;0;0;0;1;1;2;0;1;0;1;1;2;2;2;1;1;2;2;2;2;2;2;-;-;-;-;-;-;-;-;0;0;-;-;0;0;0;0;-;-;-;-;-;-;-;-;-;-;-;-;0;1;1;1;0;0;1;-;2;2;-;-;-;-;-;-;0;1;0;0;0;0;0;0;0;0;0;0;0;2;0;0;0;0;0;0;0;0;0;2;0;2;2;0;2;2;2;2;2;2;-;-;-;-;-;-;-;-;-;-;-;-;-;-;-;-;-;-;-;-;-;-;-;-;-;-;-;-;-;-;-;-;0;1;1;2;-;-;-;-;0;1;
13;OK;0;1;0;0;0;1;1;0;0;2;0;1;1;2;2;2;1;1;2;2;2;2;2;2;-;-;-;-;-;-;-;-;0;0;-;-;0;0;0;0;-;-;-;-;-;-;-;-;-;-;-;-;0;1;1;1;0;0;1;-;2;2;-;-;-;-;-;-;0;1;0;0;0;0;0;0;0;0;0;0;0;2;0;0;0;0;0;0;0;0;0;2;0;2;2;0;2;2;2;2;2;2;-;-;-;-;-;-;-;-;-;-;-;-;-;-;-;-;-;-;-;-;-;-;-;-;-;-;-;-;-;-;-;-;0;1;1;2;-;-;-;-;0;1;
14;OK;0;1;0;0;0;1;1;1;0;2;0;1;1;2;2;2;1;1;2;2;2;2;2;2;-;-;-;-;-;-;-;-;0;0;-;-;0;0;0;0;-;-;-;-;-;-;-;-;-;-;-;-;0;1;1;1;0;0;1;-;2;2;-;-;-;-;-;-;0;1;0;0;0;0;0;0;0;0;0;0;0;2;0;0;0;0;0;0;0;0;0;2;0;2;2;0;2;2;2;2;2;2;-;-;-;-;-;-;-;-;-;-;-;-;-;-;-;-;-;-;-;-;-;-;-;-;-;-;-;-;-;-;-;-;0;1;1;2;-;-;-;-;0;1;
15;OK;0;1;0;0;0;1;1;2;0;2;0;1;1;2;2;2;1;1;2;2;2;2;2;2;-;-;-;-;-;-;-;-;0;0;-;-;0;0;0;0;-;-;-;-;-;-;-;-;-;-;-;-;0;1;1;1;0;0;1;-;2;2;-;-;-;-;-;-;0;1;0;0;0;0;0;0;0;0;0;0;0;2;0;0;0;0;0;0;0;0;0;2;0;2;2;0;2;2;2;2;2;2;-;-;-;-;-;-;-;-;-;-;-;-;-;-;-;-;-;-;-;-;-;-;-;-;-;-;-;-;-;-;-;-;0;1;1;2;-;-;-;-;0;1;
16;OK;0;1;0;0;0;1;1;0;0;1;0;1;1;2;2;1;1;1;1;2;1;2;2;2;-;-;-;-;-;-;-;-;0;0;-;-;0;0;0;0;-;-;-;-;-;-;-;-;-;-;-;-;0;1;1;1;0;0;1;-;2;2;-;-;-;-;-;-;0;1;0;0;0;0;0;0;0;0;0;0;0;2;0;0;0;0;0;0;2;0;0;2;0;2;2;0;2;2;2;2;2;2;-;-;-;-;-;-;-;-;-;-;-;-;-;-;-;-;-;-;-;-;-;-;-;-;-;-;-;-;-;-;-;-;0;1;1;2;-;-;-;-;0;1;
17;OK;0;1;0;0;0;1;1;1;0;1;0;1;1;2;2;1;1;1;1;2;1;2;2;2;-;-;-;-;-;-;-;-;0;0;-;-;0;0;0;0;-;-;-;-;-;-;-;-;-;-;-;-;0;1;1;1;0;0;1;-;2;2;-;-;-;-;-;-;0;1;0;0;0;0;0;0;0;0;0;0;0;2;0;0;0;0;0;0;2;0;0;2;0;2;2;0;2;2;2;2;2;2;-;-;-;-;-;-;-;-;-;-;-;-;-;-;-;-;-;-;-;-;-;-;-;-;-;-;-;-;-;-;-;-;0;1;1;2;-;-;-;-;0;1;
18;OK;0;1;0;0;0;1;1;0;0;1;0;1;1;2;2;1;1;1;1;2;2;2;2;2;-;-;-;-;-;-;-;-;0;0;-;-;0;0;0;0;-;-;-;-;-;-;-;-;-;-;-;-;0;1;1;1;0;0;1;-;2;2;-;-;-;-;-;-;0;1;0;0;0;0;0;0;0;0;0;0;0;2;0;0;0;0;0;0;2;0;0;2;0;2;2;0;2;2;2;2;2;2;-;-;-;-;-;-;-;-;-;-;-;-;-;-;-;-;-;-;-;-;-;-;-;-;-;-;-;-;-;-;-;-;0;1;1;2;-;-;-;-;0;1;
19;OK;0;1;0;0;0;1;1;0;0;1;0;1;1;2;2;2;1;1;1;2;2;2;2;2;-;-;-;-;-;-;-;-;0;0;-;-;0;0;0;0;-;-;-;-;-;-;-;-;-;-;-;-;0;1;1;1;0;0;1;-;2;2;-;-;-;-;-;-;0;1;0;0;0;0;0;0;0;0;0;0;0;2;0;0;0;0;0;0;2;0;0;2;0;2;2;0;2;2;2;2;2;2;-;-;-;-;-;-;-;-;-;-;-;-;-;-;-;-;-;-;-;-;-;-;-;-;-;-;-;-;-;-;-;-;0;1;1;2;-;-;-;-;0;1;
20;OK;0;1;0;0;0;1;1;1;0;1;0;1;1;2;2;2;1;1;1;2;2;2;2;2;-;-;-;-;-;-;-;-;0;0;-;-;0;0;0;0;-;-;-;-;-;-;-;-;-;-;-;-;0;1;1;1;0;0;1;-;2;2;-;-;-;-;-;-;0;1;0;0;0;0;0;0;0;0;0;0;0;2;0;0;0;0;0;0;2;0;0;2;0;2;2;0;2;2;2;2;2;2;-;-;-;-;-;-;-;-;-;-;-;-;-;-;-;-;-;-;-;-;-;-;-;-;-;-;-;-;-;-;-;-;0;1;1;2;-;-;-;-;0;1;
21;OK;0;1;0;0;0;1;1;0;0;2;0;1;1;2;2;2;1;1;1;2;2;2;2;2;-;-;-;-;-;-;-;-;0;0;-;-;0;0;0;0;-;-;-;-;-;-;-;-;-;-;-;-;0;1;1;1;0;0;1;-;2;2;-;-;-;-;-;-;0;1;0;0;0;0;0;0;0;0;0;0;0;2;0;0;0;0;0;0;2;0;0;2;0;2;2;0;2;2;2;2;2;2;-;-;-;-;-;-;-;-;-;-;-;-;-;-;-;-;-;-;-;-;-;-;-;-;-;-;-;-;-;-;-;-;0;1;1;2;-;-;-;-;0;1;
22;OK;0;1;0;0;0;1;1;1;0;2;0;1;1;2;2;2;1;1;1;2;2;2;2;2;-;-;-;-;-;-;-;-;0;0;-;-;0;0;0;0;-;-;-;-;-;-;-;-;-;-;-;-;0;1;1;1;0;0;1;-;2;2;-;-;-;-;-;-;0;1;0;0;0;0;0;0;0;0;0;0;0;2;0;0;0;0;0;0;2;0;0;2;0;2;2;0;2;2;2;2;2;2;-;-;-;-;-;-;-;-;-;-;-;-;-;-;-;-;-;-;-;-;-;-;-;-;-;-;-;-;-;-;-;-;0;1;1;2;-;-;-;-;0;1;
23;OK;0;1;0;0;0;1;1;0;0;1;0;1;1;2;2;1;1;1;2;2;2;2;2;2;-;-;-;-;-;-;-;-;0;0;-;-;0;0;0;0;-;-;-;-;-;-;-;-;-;-;-;-;0;1;1;1;0;0;1;-;2;2;-;-;-;-;-;-;0;1;0;0;0;0;0;0;0;0;0;0;0;2;0;0;0;0;0;0;2;0;0;2;0;2;2;0;2;2;2;2;2;2;-;-;-;-;-;-;-;-;-;-;-;-;-;-;-;-;-;-;-;-;-;-;-;-;-;-;-;-;-;-;-;-;0;1;1;2;-;-;-;-;0;1;
24;OK;0;1;0;0;0;1;1;1;0;1;0;1;1;2;2;1;1;1;2;2;2;2;2;2;-;-;-;-;-;-;-;-;0;0;-;-;0;0;0;0;-;-;-;-;-;-;-;-;-;-;-;-;0;1;1;1;0;0;1;-;2;2;-;-;-;-;-;-;0;1;0;0;0;0;0;0;0;0;0;0;0;2;0;0;0;0;0;0;2;0;0;2;0;2;2;0;2;2;2;2;2;2;-;-;-;-;-;-;-;-;-;-;-;-;-;-;-;-;-;-;-;-;-;-;-;-;-;-;-;-;-;-;-;-;0;1;1;2;-;-;-;-;0;1;
25;OK;0;1;0;0;0;1;1;0;0;1;0;1;1;2;2;2;1;1;2;2;2;2;2;2;-;-;-;-;-;-;-;-;0;0;-;-;0;0;0;0;-;-;-;-;-;-;-;-;-;-;-;-;0;1;1;1;0;0;1;-;2;2;-;-;-;-;-;-;0;1;0;0;0;0;0;0;0;0;0;0;0;2;0;0;0;0;0;0;2;0;0;2;0;2;2;0;2;2;2;2;2;2;-;-;-;-;-;-;-;-;-;-;-;-;-;-;-;-;-;-;-;-;-;-;-;-;-;-;-;-;-;-;-;-;0;1;1;2;-;-;-;-;0;1;
26;OK;0;1;0;0;0;1;1;1;0;1;0;1;1;2;2;2;1;1;2;2;2;2;2;2;-;-;-;-;-;-;-;-;0;0;-;-;0;0;0;0;-;-;-;-;-;-;-;-;-;-;-;-;0;1;1;1;0;0;1;-;2;2;-;-;-;-;-;-;0;1;0;0;0;0;0;0;0;0;0;0;0;2;0;0;0;0;0;0;2;0;0;2;0;2;2;0;2;2;2;2;2;2;-;-;-;-;-;-;-;-;-;-;-;-;-;-;-;-;-;-;-;-;-;-;-;-;-;-;-;-;-;-;-;-;0;1;1;2;-;-;-;-;0;1;
27;OK;0;1;0;0;0;1;1;2;0;1;0;1;1;2;2;2;1;1;2;2;2;2;2;2;-;-;-;-;-;-;-;-;0;0;-;-;0;0;0;0;-;-;-;-;-;-;-;-;-;-;-;-;0;1;1;1;0;0;1;-;2;2;-;-;-;-;-;-;0;1;0;0;0;0;0;0;0;0;0;0;0;2;0;0;0;0;0;0;2;0;0;2;0;2;2;0;2;2;2;2;2;2;-;-;-;-;-;-;-;-;-;-;-;-;-;-;-;-;-;-;-;-;-;-;-;-;-;-;-;-;-;-;-;-;0;1;1;2;-;-;-;-;0;1;
28;OK;0;1;0;0;0;1;1;0;0;2;0;1;1;2;2;2;1;1;2;2;2;2;2;2;-;-;-;-;-;-;-;-;0;0;-;-;0;0;0;0;-;-;-;-;-;-;-;-;-;-;-;-;0;1;1;1;0;0;1;-;2;2;-;-;-;-;-;-;0;1;0;0;0;0;0;0;0;0;0;0;0;2;0;0;0;0;0;0;2;0;0;2;0;2;2;0;2;2;2;2;2;2;-;-;-;-;-;-;-;-;-;-;-;-;-;-;-;-;-;-;-;-;-;-;-;-;-;-;-;-;-;-;-;-;0;1;1;2;-;-;-;-;0;1;
29;OK;0;1;0;0;0;1;1;1;0;2;0;1;1;2;2;2;1;1;2;2;2;2;2;2;-;-;-;-;-;-;-;-;0;0;-;-;0;0;0;0;-;-;-;-;-;-;-;-;-;-;-;-;0;1;1;1;0;0;1;-;2;2;-;-;-;-;-;-;0;1;0;0;0;0;0;0;0;0;0;0;0;2;0;0;0;0;0;0;2;0;0;2;0;2;2;0;2;2;2;2;2;2;-;-;-;-;-;-;-;-;-;-;-;-;-;-;-;-;-;-;-;-;-;-;-;-;-;-;-;-;-;-;-;-;0;1;1;2;-;-;-;-;0;1;
30;OK;0;1;0;0;0;1;1;2;0;2;0;1;1;2;2;2;1;1;2;2;2;2;2;2;-;-;-;-;-;-;-;-;0;0;-;-;0;0;0;0;-;-;-;-;-;-;-;-;-;-;-;-;0;1;1;1;0;0;1;-;2;2;-;-;-;-;-;-;0;1;0;0;0;0;0;0;0;0;0;0;0;2;0;0;0;0;0;0;2;0;0;2;0;2;2;0;2;2;2;2;2;2;-;-;-;-;-;-;-;-;-;-;-;-;-;-;-;-;-;-;-;-;-;-;-;-;-;-;-;-;-;-;-;-;0;1;1;2;-;-;-;-;0;1;
31;OK;0;1;0;0;0;1;1;0;0;1;0;1;1;2;2;1;1;1;1;2;1;2;2;2;-;-;-;-;-;-;-;-;0;0;-;-;0;0;0;0;-;-;-;-;-;-;-;-;-;-;-;-;0;1;1;1;0;0;1;-;2;2;-;-;-;-;-;-;0;1;0;0;0;0;0;0;0;0;0;0;0;2;0;0;0;0;0;0;0;0;0;2;2;2;2;0;2;2;2;2;2;2;-;-;-;-;-;-;-;-;-;-;-;-;-;-;-;-;-;-;-;-;-;-;-;-;-;-;-;-;-;-;-;-;0;1;1;2;-;-;-;-;0;1;
32;OK;0;1;0;0;0;1;1;1;0;1;0;1;1;2;2;1;1;1;1;2;1;2;2;2;-;-;-;-;-;-;-;-;0;0;-;-;0;0;0;0;-;-;-;-;-;-;-;-;-;-;-;-;0;1;1;1;0;0;1;-;2;2;-;-;-;-;-;-;0;1;0;0;0;0;0;0;0;0;0;0;0;2;0;0;0;0;0;0;0;0;0;2;2;2;2;0;2;2;2;2;2;2;-;-;-;-;-;-;-;-;-;-;-;-;-;-;-;-;-;-;-;-;-;-;-;-;-;-;-;-;-;-;-;-;0;1;1;2;-;-;-;-;0;1;
33;OK;0;1;0;0;0;1;1;0;0;1;0;1;1;2;2;1;1;1;1;2;2;2;2;2;-;-;-;-;-;-;-;-;0;0;-;-;0;0;0;0;-;-;-;-;-;-;-;-;-;-;-;-;0;1;1;1;0;0;1;-;2;2;-;-;-;-;-;-;0;1;0;0;0;0;0;0;0;0;0;0;0;2;0;0;0;0;0;0;0;0;0;2;2;2;2;0;2;2;2;2;2;2;-;-;-;-;-;-;-;-;-;-;-;-;-;-;-;-;-;-;-;-;-;-;-;-;-;-;-;-;-;-;-;-;0;1;1;2;-;-;-;-;0;1;
34;OK;0;1;0;0;0;1;1;0;0;1;0;1;1;2;2;2;1;1;1;2;2;2;2;2;-;-;-;-;-;-;-;-;0;0;-;-;0;0;0;0;-;-;-;-;-;-;-;-;-;-;-;-;0;1;1;1;0;0;1;-;2;2;-;-;-;-;-;-;0;1;0;0;0;0;0;0;0;0;0;0;0;2;0;0;0;0;0;0;0;0;0;2;2;2;2;0;2;2;2;2;2;2;-;-;-;-;-;-;-;-;-;-;-;-;-;-;-;-;-;-;-;-;-;-;-;-;-;-;-;-;-;-;-;-;0;1;1;2;-;-;-;-;0;1;
35;OK;0;1;0;0;0;1;1;1;0;1;0;1;1;2;2;2;1;1;1;2;2;2;2;2;-;-;-;-;-;-;-;-;0;0;-;-;0;0;0;0;-;-;-;-;-;-;-;-;-;-;-;-;0;1;1;1;0;0;1;-;2;2;-;-;-;-;-;-;0;1;0;0;0;0;0;0;0;0;0;0;0;2;0;0;0;0;0;0;0;0;0;2;2;2;2;0;2;2;2;2;2;2;-;-;-;-;-;-;-;-;-;-;-;-;-;-;-;-;-;-;-;-;-;-;-;-;-;-;-;-;-;-;-;-;0;1;1;2;-;-;-;-;0;1;
36;OK;0;1;0;0;0;1;1;0;0;2;0;1;1;2;2;2;1;1;1;2;2;2;2;2;-;-;-;-;-;-;-;-;0;0;-;-;0;0;0;0;-;-;-;-;-;-;-;-;-;-;-;-;0;1;1;1;0;0;1;-;2;2;-;-;-;-;-;-;0;1;0;0;0;0;0;0;0;0;0;0;0;2;0;0;0;0;0;0;0;0;0;2;2;2;2;0;2;2;2;2;2;2;-;-;-;-;-;-;-;-;-;-;-;-;-;-;-;-;-;-;-;-;-;-;-;-;-;-;-;-;-;-;-;-;0;1;1;2;-;-;-;-;0;1;
37;OK;0;1;0;0;0;1;1;1;0;2;0;1;1;2;2;2;1;1;1;2;2;2;2;2;-;-;-;-;-;-;-;-;0;0;-;-;0;0;0;0;-;-;-;-;-;-;-;-;-;-;-;-;0;1;1;1;0;0;1;-;2;2;-;-;-;-;-;-;0;1;0;0;0;0;0;0;0;0;0;0;0;2;0;0;0;0;0;0;0;0;0;2;2;2;2;0;2;2;2;2;2;2;-;-;-;-;-;-;-;-;-;-;-;-;-;-;-;-;-;-;-;-;-;-;-;-;-;-;-;-;-;-;-;-;0;1;1;2;-;-;-;-;0;1;
38;OK;0;1;0;0;0;1;1;0;0;1;0;1;1;2;2;1;1;1;2;2;2;2;2;2;-;-;-;-;-;-;-;-;0;0;-;-;0;0;0;0;-;-;-;-;-;-;-;-;-;-;-;-;0;1;1;1;0;0;1;-;2;2;-;-;-;-;-;-;0;1;0;0;0;0;0;0;0;0;0;0;0;2;0;0;0;0;0;0;0;0;0;2;2;2;2;0;2;2;2;2;2;2;-;-;-;-;-;-;-;-;-;-;-;-;-;-;-;-;-;-;-;-;-;-;-;-;-;-;-;-;-;-;-;-;0;1;1;2;-;-;-;-;0;1;
39;OK;0;1;0;0;0;1;1;1;0;1;0;1;1;2;2;1;1;1;2;2;2;2;2;2;-;-;-;-;-;-;-;-;0;0;-;-;0;0;0;0;-;-;-;-;-;-;-;-;-;-;-;-;0;1;1;1;0;0;1;-;2;2;-;-;-;-;-;-;0;1;0;0;0;0;0;0;0;0;0;0;0;2;0;0;0;0;0;0;0;0;0;2;2;2;2;0;2;2;2;2;2;2;-;-;-;-;-;-;-;-;-;-;-;-;-;-;-;-;-;-;-;-;-;-;-;-;-;-;-;-;-;-;-;-;0;1;1;2;-;-;-;-;0;1;
40;OK;0;1;0;0;0;1;1;0;0;1;0;1;1;2;2;2;1;1;2;2;2;2;2;2;-;-;-;-;-;-;-;-;0;0;-;-;0;0;0;0;-;-;-;-;-;-;-;-;-;-;-;-;0;1;1;1;0;0;1;-;2;2;-;-;-;-;-;-;0;1;0;0;0;0;0;0;0;0;0;0;0;2;0;0;0;0;0;0;0;0;0;2;2;2;2;0;2;2;2;2;2;2;-;-;-;-;-;-;-;-;-;-;-;-;-;-;-;-;-;-;-;-;-;-;-;-;-;-;-;-;-;-;-;-;0;1;1;2;-;-;-;-;0;1;
41;OK;0;1;0;0;0;1;1;1;0;1;0;1;1;2;2;2;1;1;2;2;2;2;2;2;-;-;-;-;-;-;-;-;0;0;-;-;0;0;0;0;-;-;-;-;-;-;-;-;-;-;-;-;0;1;1;1;0;0;1;-;2;2;-;-;-;-;-;-;0;1;0;0;0;0;0;0;0;0;0;0;0;2;0;0;0;0;0;0;0;0;0;2;2;2;2;0;2;2;2;2;2;2;-;-;-;-;-;-;-;-;-;-;-;-;-;-;-;-;-;-;-;-;-;-;-;-;-;-;-;-;-;-;-;-;0;1;1;2;-;-;-;-;0;1;
42;OK;0;1;0;0;0;1;1;2;0;1;0;1;1;2;2;2;1;1;2;2;2;2;2;2;-;-;-;-;-;-;-;-;0;0;-;-;0;0;0;0;-;-;-;-;-;-;-;-;-;-;-;-;0;1;1;1;0;0;1;-;2;2;-;-;-;-;-;-;0;1;0;0;0;0;0;0;0;0;0;0;0;2;0;0;0;0;0;0;0;0;0;2;2;2;2;0;2;2;2;2;2;2;-;-;-;-;-;-;-;-;-;-;-;-;-;-;-;-;-;-;-;-;-;-;-;-;-;-;-;-;-;-;-;-;0;1;1;2;-;-;-;-;0;1;
43;OK;0;1;0;0;0;1;1;0;0;2;0;1;1;2;2;2;1;1;2;2;2;2;2;2;-;-;-;-;-;-;-;-;0;0;-;-;0;0;0;0;-;-;-;-;-;-;-;-;-;-;-;-;0;1;1;1;0;0;1;-;2;2;-;-;-;-;-;-;0;1;0;0;0;0;0;0;0;0;0;0;0;2;0;0;0;0;0;0;0;0;0;2;2;2;2;0;2;2;2;2;2;2;-;-;-;-;-;-;-;-;-;-;-;-;-;-;-;-;-;-;-;-;-;-;-;-;-;-;-;-;-;-;-;-;0;1;1;2;-;-;-;-;0;1;
44;OK;0;1;0;0;0;1;1;1;0;2;0;1;1;2;2;2;1;1;2;2;2;2;2;2;-;-;-;-;-;-;-;-;0;0;-;-;0;0;0;0;-;-;-;-;-;-;-;-;-;-;-;-;0;1;1;1;0;0;1;-;2;2;-;-;-;-;-;-;0;1;0;0;0;0;0;0;0;0;0;0;0;2;0;0;0;0;0;0;0;0;0;2;2;2;2;0;2;2;2;2;2;2;-;-;-;-;-;-;-;-;-;-;-;-;-;-;-;-;-;-;-;-;-;-;-;-;-;-;-;-;-;-;-;-;0;1;1;2;-;-;-;-;0;1;
45;OK;0;1;0;0;0;1;1;2;0;2;0;1;1;2;2;2;1;1;2;2;2;2;2;2;-;-;-;-;-;-;-;-;0;0;-;-;0;0;0;0;-;-;-;-;-;-;-;-;-;-;-;-;0;1;1;1;0;0;1;-;2;2;-;-;-;-;-;-;0;1;0;0;0;0;0;0;0;0;0;0;0;2;0;0;0;0;0;0;0;0;0;2;2;2;2;0;2;2;2;2;2;2;-;-;-;-;-;-;-;-;-;-;-;-;-;-;-;-;-;-;-;-;-;-;-;-;-;-;-;-;-;-;-;-;0;1;1;2;-;-;-;-;0;1;
46;OK;0;1;0;0;0;1;1;0;0;1;0;1;1;2;2;1;1;1;1;2;1;2;2;2;-;-;-;-;-;-;-;-;0;0;-;-;0;0;0;0;-;-;-;-;-;-;-;-;-;-;-;-;0;1;1;1;0;0;1;-;2;2;-;-;-;-;-;-;0;1;0;0;0;0;0;0;0;0;0;0;0;2;0;0;0;0;0;0;2;0;0;2;2;2;2;0;2;2;2;2;2;2;-;-;-;-;-;-;-;-;-;-;-;-;-;-;-;-;-;-;-;-;-;-;-;-;-;-;-;-;-;-;-;-;0;1;1;2;-;-;-;-;0;1;
47;OK;0;1;0;0;0;1;1;1;0;1;0;1;1;2;2;1;1;1;1;2;1;2;2;2;-;-;-;-;-;-;-;-;0;0;-;-;0;0;0;0;-;-;-;-;-;-;-;-;-;-;-;-;0;1;1;1;0;0;1;-;2;2;-;-;-;-;-;-;0;1;0;0;0;0;0;0;0;0;0;0;0;2;0;0;0;0;0;0;2;0;0;2;2;2;2;0;2;2;2;2;2;2;-;-;-;-;-;-;-;-;-;-;-;-;-;-;-;-;-;-;-;-;-;-;-;-;-;-;-;-;-;-;-;-;0;1;1;2;-;-;-;-;0;1;
48;OK;0;1;0;0;0;1;1;0;0;1;0;1;1;2;2;1;1;1;1;2;2;2;2;2;-;-;-;-;-;-;-;-;0;0;-;-;0;0;0;0;-;-;-;-;-;-;-;-;-;-;-;-;0;1;1;1;0;0;1;-;2;2;-;-;-;-;-;-;0;1;0;0;0;0;0;0;0;0;0;0;0;2;0;0;0;0;0;0;2;0;0;2;2;2;2;0;2;2;2;2;2;2;-;-;-;-;-;-;-;-;-;-;-;-;-;-;-;-;-;-;-;-;-;-;-;-;-;-;-;-;-;-;-;-;0;1;1;2;-;-;-;-;0;1;
49;OK;0;1;0;0;0;1;1;0;0;1;0;1;1;2;2;2;1;1;1;2;2;2;2;2;-;-;-;-;-;-;-;-;0;0;-;-;0;0;0;0;-;-;-;-;-;-;-;-;-;-;-;-;0;1;1;1;0;0;1;-;2;2;-;-;-;-;-;-;0;1;0;0;0;0;0;0;0;0;0;0;0;2;0;0;0;0;0;0;2;0;0;2;2;2;2;0;2;2;2;2;2;2;-;-;-;-;-;-;-;-;-;-;-;-;-;-;-;-;-;-;-;-;-;-;-;-;-;-;-;-;-;-;-;-;0;1;1;2;-;-;-;-;0;1;
50;OK;0;1;0;0;0;1;1;1;0;1;0;1;1;2;2;2;1;1;1;2;2;2;2;2;-;-;-;-;-;-;-;-;0;0;-;-;0;0;0;0;-;-;-;-;-;-;-;-;-;-;-;-;0;1;1;1;0;0;1;-;2;2;-;-;-;-;-;-;0;1;0;0;0;0;0;0;0;0;0;0;0;2;0;0;0;0;0;0;2;0;0;2;2;2;2;0;2;2;2;2;2;2;-;-;-;-;-;-;-;-;-;-;-;-;-;-;-;-;-;-;-;-;-;-;-;-;-;-;-;-;-;-;-;-;0;1;1;2;-;-;-;-;0;1;
51;OK;0;1;0;0;0;1;1;0;0;2;0;1;1;2;2;2;1;1;1;2;2;2;2;2;-;-;-;-;-;-;-;-;0;0;-;-;0;0;0;0;-;-;-;-;-;-;-;-;-;-;-;-;0;1;1;1;0;0;1;-;2;2;-;-;-;-;-;-;0;1;0;0;0;0;0;0;0;0;0;0;0;2;0;0;0;0;0;0;2;0;0;2;2;2;2;0;2;2;2;2;2;2;-;-;-;-;-;-;-;-;-;-;-;-;-;-;-;-;-;-;-;-;-;-;-;-;-;-;-;-;-;-;-;-;0;1;1;2;-;-;-;-;0;1;
52;OK;0;1;0;0;0;1;1;1;0;2;0;1;1;2;2;2;1;1;1;2;2;2;2;2;-;-;-;-;-;-;-;-;0;0;-;-;0;0;0;0;-;-;-;-;-;-;-;-;-;-;-;-;0;1;1;1;0;0;1;-;2;2;-;-;-;-;-;-;0;1;0;0;0;0;0;0;0;0;0;0;0;2;0;0;0;0;0;0;2;0;0;2;2;2;2;0;2;2;2;2;2;2;-;-;-;-;-;-;-;-;-;-;-;-;-;-;-;-;-;-;-;-;-;-;-;-;-;-;-;-;-;-;-;-;0;1;1;2;-;-;-;-;0;1;
53;OK;0;1;0;0;0;1;1;0;0;1;0;1;1;2;2;1;1;1;2;2;2;2;2;2;-;-;-;-;-;-;-;-;0;0;-;-;0;0;0;0;-;-;-;-;-;-;-;-;-;-;-;-;0;1;1;1;0;0;1;-;2;2;-;-;-;-;-;-;0;1;0;0;0;0;0;0;0;0;0;0;0;2;0;0;0;0;0;0;2;0;0;2;2;2;2;0;2;2;2;2;2;2;-;-;-;-;-;-;-;-;-;-;-;-;-;-;-;-;-;-;-;-;-;-;-;-;-;-;-;-;-;-;-;-;0;1;1;2;-;-;-;-;0;1;
54;OK;0;1;0;0;0;1;1;1;0;1;0;1;1;2;2;1;1;1;2;2;2;2;2;2;-;-;-;-;-;-;-;-;0;0;-;-;0;0;0;0;-;-;-;-;-;-;-;-;-;-;-;-;0;1;1;1;0;0;1;-;2;2;-;-;-;-;-;-;0;1;0;0;0;0;0;0;0;0;0;0;0;2;0;0;0;0;0;0;2;0;0;2;2;2;2;0;2;2;2;2;2;2;-;-;-;-;-;-;-;-;-;-;-;-;-;-;-;-;-;-;-;-;-;-;-;-;-;-;-;-;-;-;-;-;0;1;1;2;-;-;-;-;0;1;
55;OK;0;1;0;0;0;1;1;0;0;1;0;1;1;2;2;2;1;1;2;2;2;2;2;2;-;-;-;-;-;-;-;-;0;0;-;-;0;0;0;0;-;-;-;-;-;-;-;-;-;-;-;-;0;1;1;1;0;0;1;-;2;2;-;-;-;-;-;-;0;1;0;0;0;0;0;0;0;0;0;0;0;2;0;0;0;0;0;0;2;0;0;2;2;2;2;0;2;2;2;2;2;2;-;-;-;-;-;-;-;-;-;-;-;-;-;-;-;-;-;-;-;-;-;-;-;-;-;-;-;-;-;-;-;-;0;1;1;2;-;-;-;-;0;1;
56;OK;0;1;0;0;0;1;1;1;0;1;0;1;1;2;2;2;1;1;2;2;2;2;2;2;-;-;-;-;-;-;-;-;0;0;-;-;0;0;0;0;-;-;-;-;-;-;-;-;-;-;-;-;0;1;1;1;0;0;1;-;2;2;-;-;-;-;-;-;0;1;0;0;0;0;0;0;0;0;0;0;0;2;0;0;0;0;0;0;2;0;0;2;2;2;2;0;2;2;2;2;2;2;-;-;-;-;-;-;-;-;-;-;-;-;-;-;-;-;-;-;-;-;-;-;-;-;-;-;-;-;-;-;-;-;0;1;1;2;-;-;-;-;0;1;
57;OK;0;1;0;0;0;1;1;2;0;1;0;1;1;2;2;2;1;1;2;2;2;2;2;2;-;-;-;-;-;-;-;-;0;0;-;-;0;0;0;0;-;-;-;-;-;-;-;-;-;-;-;-;0;1;1;1;0;0;1;-;2;2;-;-;-;-;-;-;0;1;0;0;0;0;0;0;0;0;0;0;0;2;0;0;0;0;0;0;2;0;0;2;2;2;2;0;2;2;2;2;2;2;-;-;-;-;-;-;-;-;-;-;-;-;-;-;-;-;-;-;-;-;-;-;-;-;-;-;-;-;-;-;-;-;0;1;1;2;-;-;-;-;0;1;
58;OK;0;1;0;0;0;1;1;0;0;2;0;1;1;2;2;2;1;1;2;2;2;2;2;2;-;-;-;-;-;-;-;-;0;0;-;-;0;0;0;0;-;-;-;-;-;-;-;-;-;-;-;-;0;1;1;1;0;0;1;-;2;2;-;-;-;-;-;-;0;1;0;0;0;0;0;0;0;0;0;0;0;2;0;0;0;0;0;0;2;0;0;2;2;2;2;0;2;2;2;2;2;2;-;-;-;-;-;-;-;-;-;-;-;-;-;-;-;-;-;-;-;-;-;-;-;-;-;-;-;-;-;-;-;-;0;1;1;2;-;-;-;-;0;1;
59;OK;0;1;0;0;0;1;1;1;0;2;0;1;1;2;2;2;1;1;2;2;2;2;2;2;-;-;-;-;-;-;-;-;0;0;-;-;0;0;0;0;-;-;-;-;-;-;-;-;-;-;-;-;0;1;1;1;0;0;1;-;2;2;-;-;-;-;-;-;0;1;0;0;0;0;0;0;0;0;0;0;0;2;0;0;0;0;0;0;2;0;0;2;2;2;2;0;2;2;2;2;2;2;-;-;-;-;-;-;-;-;-;-;-;-;-;-;-;-;-;-;-;-;-;-;-;-;-;-;-;-;-;-;-;-;0;1;1;2;-;-;-;-;0;1;
60;OK;0;1;0;0;0;1;1;2;0;2;0;1;1;2;2;2;1;1;2;2;2;2;2;2;-;-;-;-;-;-;-;-;0;0;-;-;0;0;0;0;-;-;-;-;-;-;-;-;-;-;-;-;0;1;1;1;0;0;1;-;2;2;-;-;-;-;-;-;0;1;0;0;0;0;0;0;0;0;0;0;0;2;0;0;0;0;0;0;2;0;0;2;2;2;2;0;2;2;2;2;2;2;-;-;-;-;-;-;-;-;-;-;-;-;-;-;-;-;-;-;-;-;-;-;-;-;-;-;-;-;-;-;-;-;0;1;1;2;-;-;-;-;0;1;
